%!PS-Adobe-3.0 EPSF-3.0
%%Pages: (atend)
%%BoundingBox: 0 0 328 346
%%HiResBoundingBox: 0.240000 0.384000 327.239990 345.383989
%.........................................
%%Creator: GPL Ghostscript 871 (pswrite)
%%CreationDate: 2013/08/17 17:42:21
%%DocumentData: Clean7Bit
%%LanguageLevel: 2
%%EndComments
%%BeginProlog
save
countdictstack
mark
newpath
/showpage {} def
/setpagedevice {pop} def
%%EndProlog
%%Page 1 1
%%BeginProlog
% This copyright applies to everything between here and the %%EndProlog:
% Copyright (C) 2010 Artifex Software, Inc.  All rights reserved.
%%BeginResource: procset GS_pswrite_2_0_1001 1.001 0
/GS_pswrite_2_0_1001 80 dict dup begin
/PageSize 2 array def/setpagesize{ PageSize aload pop 3 index eq exch
4 index eq and{ pop pop pop}{ PageSize dup  1
5 -1 roll put 0 4 -1 roll put dup null eq {false} {dup where} ifelse{ exch get exec}
{ pop/setpagedevice where
{ pop 1 dict dup /PageSize PageSize put setpagedevice}
{ /setpage where{ pop PageSize aload pop pageparams 3 {exch pop} repeat
setpage}if}ifelse}ifelse}ifelse} bind def
/!{bind def}bind def/#{load def}!/N/counttomark #
/rG{3{3 -1 roll 255 div}repeat setrgbcolor}!/G{255 div setgray}!/K{0 G}!
/r6{dup 3 -1 roll rG}!/r5{dup 3 1 roll rG}!/r3{dup rG}!
/w/setlinewidth #/J/setlinecap #
/j/setlinejoin #/M/setmiterlimit #/d/setdash #/i/setflat #
/m/moveto #/l/lineto #/c/rcurveto #
/p{N 2 idiv{N -2 roll rlineto}repeat}!
/P{N 0 gt{N -2 roll moveto p}if}!
/h{p closepath}!/H{P closepath}!
/lx{0 rlineto}!/ly{0 exch rlineto}!/v{0 0 6 2 roll c}!/y{2 copy c}!
/re{4 -2 roll m exch dup lx exch ly neg lx h}!
/^{3 index neg 3 index neg}!
/f{P fill}!/f*{P eofill}!/s{H stroke}!/S{P stroke}!
/q/gsave #/Q/grestore #/rf{re fill}!
/Y{P clip newpath}!/Y*{P eoclip newpath}!/rY{re Y}!
/|={pop exch 4 1 roll 1 array astore cvx 3 array astore cvx exch 1 index def exec}!
/|{exch string readstring |=}!
/+{dup type/nametype eq{2 index 7 add -3 bitshift 2 index mul}if}!
/@/currentfile #/${+ @ |}!
/B{{2 copy string{readstring pop}aload pop 4 array astore cvx
3 1 roll}repeat pop pop true}!
/Ix{[1 0 0 1 11 -2 roll exch neg exch neg]exch}!
/,{true exch Ix imagemask}!/If{false exch Ix imagemask}!/I{exch Ix image}!
/Ic{exch Ix false 3 colorimage}!
/F{/Columns counttomark 3 add -2 roll/Rows exch/K -1/BlackIs1 true>>
/CCITTFaxDecode filter}!/FX{<</EndOfBlock false F}!
/X{/ASCII85Decode filter}!/@X{@ X}!/&2{2 index 2 index}!
/@F{@ &2<<F}!/@C{@X &2 FX}!
/$X{+ @X |}!/&4{4 index 4 index}!/$F{+ @ &4<<F |}!/$C{+ @X &4 FX |}!
/IC{3 1 roll 10 dict begin 1{/ImageType/Interpolate/Decode/DataSource
/ImageMatrix/BitsPerComponent/Height/Width}{exch def}forall
currentdict end image}!
/~{@ read {pop} if}!
end def
%%EndResource
/pagesave null def
%%EndProlog
%%Page: 1 1
%%BeginPageSetup
GS_pswrite_2_0_1001 begin
327 346 null setpagesize
/pagesave save store 197 dict begin
0.012 0.012 scale
%%EndPageSetup
gsave mark
Q q
20 32 27250 0 0 28750 ^ Y
255 G
20 32 27283.4 28811.8 re
f
2589.06 4243.71 23250 24000 re
f
Q q
2589.17 4243.67 23250 24000 re
Y
83.3333 w
2 J
1 j
K
-63.33 7813.48 141.39 35.76 732.38 93.09 732.38 332.74 732.38 -164.21 726.56 -718.86 732.38 356.12 732.38 120.3 
726.57 103.12 732.38 -77.15 732.38 83.76 732.38 137.19 726.56 779.99 732.34 -306.25 732.42 -743.3 726.58 -1338.85 
732.34 -134.29 732.41 1417.22 726.5 1960.71 732.42 4073.42 732.33 3747 732.42 4257.25 726.58 1916 732.34 -565.16 
732.41 -2640.5 726.5 -2943.91 732.42 -2599.75 732.33 -2314.41 732.42 -1791.08 726.58 -1164.17 732.34 -145.25 732.41 -682.58 
726.5 -743.06 732.42 -395.87 732.33 -214.66 732.42 541.11 726.58 -446.09 732.34 -207.41 732.41 310.57 268.92 -180.06 S
Q q
2589.17 4243.67 23250 24000 re
Y
83.3333 w
2 J
1 j
255 0 r3
-63.33 7672.29 141.39 0 732.38 0 732.38 0 732.38 0 726.56 0.01 732.38 0.04 732.38 0.2 
726.57 0.77 732.38 2.81 732.38 9.1 732.38 26.74 726.56 69.97 732.34 167.88 732.42 360.49 726.58 686.94 
732.34 1189.58 732.41 1819.84 726.5 2429.83 732.42 2861.33 732.33 2814.75 732.42 2162.59 726.58 963.66 732.34 -481.91 
732.41 -1808.25 726.5 -2640.67 732.42 -2908.09 732.33 -2628.08 732.42 -2043.08 726.58 -1384 732.34 -844.92 732.41 -455.66 
726.5 -218.96 732.42 -96.19 732.33 -37.62 732.42 -13.26 726.58 -4.21 732.34 -1.23 732.41 -0.32 268.92 -0.02 S
Q q
2589.17 4243.67 23250 24000 re
Y
83.3333 w
2 J
1 j
127 0 r5
-63.33 4102.52 141.39 -35.75 732.38 -93.09 732.38 -332.75 732.38 164.21 726.56 718.88 732.38 -356.07 732.38 -120.1 
726.57 -102.34 732.38 79.95 732.38 -74.65 732.38 -110.45 726.56 -710 732.34 474.07 732.42 1103.83 726.58 2025.77 
732.34 1323.9 732.41 402.59 726.5 469.17 732.42 -1212.12 732.33 -932.31 732.42 -2094.62 726.58 -952.37 732.34 83.32 
732.41 832.25 726.5 303.18 732.42 -308.24 732.33 -313.73 732.42 -251.96 726.58 -219.8 732.34 -699.76 732.41 227.01 
726.5 524.07 732.42 299.68 732.33 177.04 732.42 -554.37 726.58 441.88 732.34 206.18 732.41 -310.89 268.92 180.04 S
Q q
20 32 27250 0 0 28750 ^ Y
K
2589.06 4243.71 0 333.34 f
41.6667 w
1 j
2589.06 4243.71 0 333.34 S
2589.06 28243.8 0 -333.33 f
2589.06 28243.8 0 -333.33 S
5495.31 4243.71 0 333.34 f
5495.31 4243.71 0 333.34 S
5495.31 28243.8 0 -333.33 f
5495.31 28243.8 0 -333.33 S
8401.58 4243.71 0 333.34 f
8401.58 4243.71 0 333.34 S
8401.58 28243.8 0 -333.33 f
8401.58 28243.8 0 -333.33 S
11307.8 4243.71 0 333.34 f
11307.8 4243.71 0 333.34 S
11307.8 28243.8 0 -333.33 f
11307.8 28243.8 0 -333.33 S
14214.1 4243.71 0 333.34 f
14214.1 4243.71 0 333.34 S
14214.1 28243.8 0 -333.33 f
14214.1 28243.8 0 -333.33 S
17120.3 4243.71 0 333.34 f
17120.3 4243.71 0 333.34 S
17120.3 28243.8 0 -333.33 f
17120.3 28243.8 0 -333.33 S
20026.6 4243.71 0 333.34 f
20026.6 4243.71 0 333.34 S
20026.6 28243.8 0 -333.33 f
20026.6 28243.8 0 -333.33 S
22932.8 4243.71 0 333.34 f
22932.8 4243.71 0 333.34 S
22932.8 28243.8 0 -333.33 f
22932.8 28243.8 0 -333.33 S
25839.1 4243.71 0 333.34 f
25839.1 4243.71 0 333.34 S
25839.1 28243.8 0 -333.33 f
25839.1 28243.8 0 -333.33 S
2589.06 4243.71 333.33 0 f
2589.06 4243.71 333.33 0 S
25839.1 4243.71 -333.33 0 f
25839.1 4243.71 -333.33 0 S
2589.06 7672.29 333.33 0 f
2589.06 7672.29 333.33 0 S
25839.1 7672.29 -333.33 0 f
25839.1 7672.29 -333.33 0 S
2589.06 11100.8 333.33 0 f
2589.06 11100.8 333.33 0 S
25839.1 11100.8 -333.33 0 f
25839.1 11100.8 -333.33 0 S
2589.06 14529.4 333.33 0 f
2589.06 14529.4 333.33 0 S
25839.1 14529.4 -333.33 0 f
25839.1 14529.4 -333.33 0 S
2589.06 17958 333.33 0 f
2589.06 17958 333.33 0 S
25839.1 17958 -333.33 0 f
25839.1 17958 -333.33 0 S
2589.06 21386.6 333.33 0 f
2589.06 21386.6 333.33 0 S
25839.1 21386.6 -333.33 0 f
25839.1 21386.6 -333.33 0 S
2589.06 24815.2 333.33 0 f
2589.06 24815.2 333.33 0 S
25839.1 24815.2 -333.33 0 f
25839.1 24815.2 -333.33 0 S
2589.06 28243.8 333.33 0 f
2589.06 28243.8 333.33 0 S
25839.1 28243.8 -333.33 0 f
25839.1 28243.8 -333.33 0 S
83.3333 w
2 J
2589.06 28243.8 23250 0 S
25839.1 4243.71 0 24000 S
2589.06 4243.71 23250 0 S
2589.06 4243.71 0 24000 S
Q q
Y
0.83022 i
K
-7774.11 12829 93.82 0 P
74.72 0 113.74 5.79 146.95 21.52 c
58.95 28.15 92.21 81.13 92.21 146.52 c
0 62.91 -29.11 110.93 -83.9 138.24 c
-32.38 16.55 -83.85 25.74 -141.14 25.74 c
-290.58 0 0 -38.96 14.96 0 p
67.31 0 74.8 -4.25 74.8 -39.09 c
0 -443.02 p
0 -34.84 -7.48 -38.99 -74.8 -38.99 c
-14.96 0 0 -38.96 278.95 0 ^ -21.59 0 p
-67.25 0 -74.72 4.16 -74.72 39.1 c
0 24.13 h
-7774.11 12867.9 0 211.86 P
0 38.07 4.98 42.25 50.7 42.25 c
53.2 0 p
86.45 0 127.18 -40.59 127.18 -128.32 c
0 -85.24 -42.4 -125.79 -130.51 -125.79 c
h
f
-6976.79 13166 -30.74 0 -33.23 -49.4 P
-39.05 37.36 -92.22 57.29 -151.21 57.29 c
-108.84 0 -181.95 -69.76 -181.95 -173.48 c
0 -90.45 44.86 -135.26 167 -166.79 c
78.93 -19.91 p
61.48 -15.77 67.29 -17.43 84.74 -30.71 c
24.93 -19.08 38.27 -46.47 38.27 -78.83 c
0 -33.2 -12.49 -60.58 -37.39 -82.98 c
-27.39 -24.07 -54.78 -33.2 -100.43 -33.2 c
-61.42 0 -105.41 19.07 -144.42 62.19 c
-34.86 38.97 -52.29 77.95 -64.74 141.81 c
-35.69 0 3.32 -236.98 32.39 0 37.37 56.82 p
55.64 -45.32 102.14 -61.8 174.39 -61.8 c
122.07 0 200.14 71.32 200.14 182.47 c
0 51.42 -17.5 95.38 -49.9 126.89 c
-22.44 21.57 -54.84 35.67 -121.3 52.26 c
-88.9 22.39 p
-73.95 19.08 -108.84 51.42 -108.84 102.02 c
0 58.06 47.35 97.97 117.95 97.97 c
58.14 0 105.49 -24.87 138.71 -72.06 c
24.09 -33.95 39.04 -68.72 49.84 -110.95 c
35.76 0 h
f
-6743.07 12949 0 47.3 P
0 41.49 2.49 68.88 9.13 85.48 c
13.28 36.51 42.32 58.91 75.52 58.91 c
17.43 0 28.22 -4.98 28.22 -14.11 c
0 -2.49 -0.85 -4.15 -5.07 -10.79 c
-5.07 -8.3 -7.59 -17.43 -7.59 -26.55 c
0 -24.89 19.86 -43.98 45.52 -43.98 c
27.32 0 46.37 20.75 46.37 50.62 c
0 48.13 -41.43 78.01 -108.51 78.01 c
-57.14 0 -98.55 -19.92 -128.37 -61.41 c
-24.85 -34.85 -33.13 -70.53 -33.13 -137.75 c
0 -25.73 -73.24 0 0 -35.96 ^ 0 -282.07 p
0 -33.19 -9.16 -38.99 -62.44 -38.99 c
-3.33 0 0 -29.96 221.67 0 ^ -14.94 0 p
-53.93 0 -63.05 5.8 -63.05 38.99 c
0 282.07 91.27 0 0 35.96 h
f
-6466.02 12948.5 -146.55 -9.12 0 -35.66 33.98 0 P
30.66 0 35.66 -5.8 35.66 -41.46 c
0 -231.35 p
0 -33.17 -9.13 -38.97 -63 -38.97 c
-3.32 0 0 -29.96 221.67 0 ^ -15.86 0 p
-53.41 0 -62.59 5.81 -62.59 39.01 c
0 41.5 p
0 62.25 11.66 125.34 32.49 172.64 c
20 46.48 48.32 72.21 83.32 76.37 c
-11.5 -13.34 -14.79 -21.68 -14.79 -37.5 c
0 -26.66 19.01 -45.82 45.46 -45.82 c
29.75 0 50.43 22.41 50.43 56.44 c
0 39.84 -28.29 66.42 -72.31 66.42 c
-52.33 0 -98.01 -42.35 -124.59 -115.32 c
h
f
-5885.03 12829 m
0 52.29 -9.18 78.85 -33.23 98.77 c
-27.36 21.58 -67.99 33.22 -121.06 33.22 c
-92.87 0 -161.7 -43.94 -161.7 -103.58 c
0 -31.48 19.07 -51.36 48.11 -51.36 c
25.71 0 44.79 17.34 44.79 42.13 c
0 10.74 -4.14 22.3 -12.42 33.87 c
-4.96 5.79 -5.79 8.26 -5.79 10.74 c
0 17.35 34 32.24 73.82 32.24 c
25.71 0 54.74 -8.34 68.01 -20.76 c
15.76 -13.24 21.57 -33.11 21.57 -70.36 c
0 -32.28 p
-87.26 -14.9 -113.86 -21.52 -154.57 -37.25 c
-71.47 -26.49 -106.37 -65.39 -106.37 -117.54 c
0 -58.77 47.45 -96.85 120.7 -96.85 c
57.44 0 109.05 23.07 144.85 65.12 c
13.32 -42.49 34.13 -59.15 73.31 -59.15 c
37.09 0 75.84 24.47 75.84 48.95 c
0 4.98 -4.18 9.13 -8.34 9.13 c
-3.33 0 -6.66 -0.83 -12.5 -3.32 c
-13.33 -4.98 -16.66 -5.81 -23.33 -5.81 c
-23.33 0 -31.66 15.77 -31.66 57.27 c
h
-5962.94 12728.1 m
0 -49.69 -2.53 -61.29 -16.66 -82.82 c
-20.77 -30.64 -59 -51.35 -94.74 -51.35 c
-37.39 0 -65.65 27.33 -65.65 64.6 c
0 34.79 17.45 59.63 54.02 77.02 c
25.76 11.6 58.17 19.88 123.03 30.65 c
h
f
-5637.23 12622.9 m
-45.7 0.84 -48.19 1.68 -58.16 7.54 c
-5.82 3.36 -9.97 12.59 -9.97 21.81 c
0 25.16 22.38 36.07 77.91 37.75 c
78.74 1.66 91.17 3.32 118.52 15.76 c
49.73 22.4 77.91 65.54 77.91 120.3 c
0 33.18 -7.36 53.92 -30.25 81.3 c
14.11 14.94 21.59 19.93 28.23 19.93 c
4.15 0 6.64 -2.5 8.3 -11.62 c
3.32 -19.89 16.61 -30.67 37.36 -30.67 c
20.76 0 37.36 17.41 37.36 39.8 c
0 28.19 -22.42 48.1 -54.8 48.1 c
-26.57 0 -41.51 -8.49 -79.7 -43.43 c
-34.87 23.25 -61.44 31.55 -102.95 31.55 c
-98.8 0 -163.55 -54.83 -163.55 -137.87 c
0 -49 26.57 -91.35 69.74 -111.28 c
-55.64 -12.45 -78.89 -37.37 -78.89 -83.04 c
0 -36.54 16.61 -58.13 55.63 -71.41 c
-51.47 -18.27 -76.38 -44.84 -76.38 -78.89 c
0 -54.81 63.96 -85.53 175.26 -85.53 c
138.71 0 208.57 43.98 208.57 131.11 c
0 41.49 -19.14 74.68 -49.88 87.13 c
-21.6 8.3 -48.19 11.67 -105.52 11.67 c
h
-5588.12 12925.1 m
52.19 0 81.19 -36.33 81.19 -99.9 c
0 -64.39 -31.48 -103.2 -84.5 -103.2 c
-51.36 0 -83.67 38.8 -83.67 100.71 c
0 65.22 31.48 102.38 86.98 102.38 c
h
-5595.57 12552 m
69.02 0 74.02 0 86.49 -1.67 c
33.27 -3.34 54.06 -21.67 54.06 -48.34 c
0 -47.51 -54.06 -75.01 -147.2 -75.01 c
-69.86 0 -109.77 20.84 -109.77 58.34 c
0 27.5 14.96 45.84 54.88 66.68 c
h
f
-4956.02 12948.5 -146.55 -9.12 0 -35.66 33.98 0 P
30.66 0 35.66 -5.8 35.66 -41.46 c
0 -231.35 p
0 -33.17 -9.13 -38.97 -63 -38.97 c
-3.32 0 0 -29.96 221.67 0 ^ -15.86 0 p
-53.41 0 -62.59 5.81 -62.59 39.01 c
0 41.5 p
0 62.25 11.66 125.34 32.49 172.64 c
20 46.48 48.32 72.21 83.32 76.37 c
-11.5 -13.34 -14.79 -21.68 -14.79 -37.5 c
0 -26.66 19.01 -45.82 45.46 -45.82 c
29.75 0 50.43 22.41 50.43 56.44 c
0 39.84 -28.29 66.42 -72.31 66.42 c
-52.33 0 -98.01 -42.35 -124.59 -115.32 c
h
f
-4364 12749 m
0.88 124.23 -69.71 212.02 -170.96 212.02 c
-106.24 0 -185.93 -92 -185.93 -216.29 c
0 -116 75.53 -194.72 187.58 -194.72 c
78.85 0 135.29 38.87 169.36 117.45 c
-29.05 15.74 p
-34.04 -63.51 -68.91 -88.25 -124.54 -88.25 c
-42.34 0 -73.06 18.22 -94.64 54.66 c
-14.95 24.85 -21.59 53.84 -20.81 99.39 c
h
-4632.99 12785 m
0 25.54 3.34 43.67 11.68 66.74 c
17.52 49.43 44.21 73.36 84.26 73.36 c
50.89 0 84.27 -43.7 84.27 -109.62 c
0 -23.89 -7.52 -30.48 -34.21 -30.48 c
h
f
-4163.07 12948.6 -143.68 -9.13 0 -35.69 29.96 0 P
30.8 0 35.8 -5.81 35.8 -41.5 c
0 -399.24 p
0 -33.2 -9.16 -39.01 -62.44 -39.01 c
-3.33 0 0 -29.97 215.86 0 ^ -9.13 0 p
-53.93 0 -63.05 5.81 -63.05 39.04 c
0 153.75 p
27.37 -47.82 58.89 -66.78 109.48 -66.78 c
96.21 0 167.59 88.66 167.59 207.15 c
0 114.34 -71.38 203.86 -162.62 203.86 c
-51.42 0 -85.43 -21.58 -114.46 -71.39 c
h
-4063.04 12917.1 m
57.05 0 90.13 -57.34 90.13 -154.45 c
0 -107.07 -33.91 -167.66 -92.61 -167.66 c
-58.7 0 -97.56 61.42 -97.56 156.88 c
0 102.92 37.2 165.24 100.04 165.24 c
h
f
-3681.02 13173.9 -153.2 -9.2 0 -35.69 40.53 0 P
29.78 0 34.76 -5.81 34.76 -41.5 c
0 -456.51 p
0 -33.2 -9.11 -39.01 -62.03 -39.01 c
-5.79 0 0 -29.96 215.03 0 ^ -5.85 0 p
-54.27 0 -63.45 5.81 -63.45 39.01 c
0 33.2 h
f
-3215.03 12829 m
0 52.29 -9.18 78.85 -33.23 98.77 c
-27.36 21.58 -67.99 33.22 -121.06 33.22 c
-92.87 0 -161.7 -43.94 -161.7 -103.58 c
0 -31.48 19.07 -51.36 48.11 -51.36 c
25.71 0 44.79 17.34 44.79 42.13 c
0 10.74 -4.14 22.3 -12.42 33.87 c
-4.96 5.79 -5.79 8.26 -5.79 10.74 c
0 17.35 34 32.24 73.82 32.24 c
25.71 0 54.74 -8.34 68.01 -20.76 c
15.76 -13.24 21.57 -33.11 21.57 -70.36 c
0 -32.28 p
-87.26 -14.9 -113.86 -21.52 -154.57 -37.25 c
-71.47 -26.49 -106.37 -65.39 -106.37 -117.54 c
0 -58.77 47.45 -96.85 120.7 -96.85 c
57.44 0 109.05 23.07 144.85 65.12 c
13.32 -42.49 34.13 -59.15 73.31 -59.15 c
37.09 0 75.84 24.47 75.84 48.95 c
0 4.98 -4.18 9.13 -8.34 9.13 c
-3.33 0 -6.66 -0.83 -12.5 -3.32 c
-13.33 -4.98 -16.66 -5.81 -23.33 -5.81 c
-23.33 0 -31.66 15.77 -31.66 57.27 c
h
-3292.94 12728.1 m
0 -49.69 -2.53 -61.29 -16.66 -82.82 c
-20.77 -30.64 -59 -51.35 -94.74 -51.35 c
-37.39 0 -65.65 27.33 -65.65 64.6 c
0 34.79 17.45 59.63 54.02 77.02 c
25.76 11.6 58.17 19.88 123.03 30.65 c
h
f
-2808.78 12684 m
-26.61 -59.23 -54.87 -83.09 -98.11 -83.09 c
-66.52 0 -108.09 60.35 -108.09 157.09 c
0 100.04 40.78 167.02 102.36 167.02 c
24.97 0 46.62 -11.58 46.62 -24.8 c
0 -2.48 -1.69 -4.96 -5.06 -9.91 c
-13.48 -15.7 -16.85 -23.96 -16.85 -38 c
0 -27.27 20.84 -46.27 50.02 -46.27 c
29.18 0 50.87 23.19 50.87 56.33 c
0 55.5 -55.71 98.61 -129.63 98.61 c
-107.98 0 -185.23 -88.69 -185.23 -212.14 c
0 -117.66 70.58 -198.86 173.56 -198.86 c
73.9 0 116.25 33.91 151.99 121.59 c
h
f
-2374 12749 m
0.88 124.23 -69.71 212.02 -170.96 212.02 c
-106.24 0 -185.93 -92 -185.93 -216.29 c
0 -116 75.53 -194.72 187.58 -194.72 c
78.85 0 135.29 38.87 169.36 117.45 c
-29.05 15.74 p
-34.04 -63.51 -68.91 -88.25 -124.54 -88.25 c
-42.34 0 -73.06 18.22 -94.64 54.66 c
-14.95 24.85 -21.59 53.84 -20.81 99.39 c
h
-2642.99 12785 m
0 25.54 3.34 43.67 11.68 66.74 c
17.52 49.43 44.21 73.36 84.26 73.36 c
50.89 0 84.27 -43.7 84.27 -109.62 c
0 -23.89 -7.52 -30.48 -34.21 -30.48 c
h
f
-2173.07 12948.5 -147.83 -9.12 0 -35.66 34.12 0 P
30.79 0 35.8 -5.8 35.8 -41.46 c
0 -230.52 p
0 -34 -9.16 -39.8 -62.44 -39.8 c
-3.33 0 0 -29.96 209.21 0 ^ -3.33 0 p
-53.08 0 -62.2 5.8 -62.2 39.77 c
0 149.94 p
0 73.73 40.68 128.41 94.64 128.41 c
21.59 0 44.83 -11.61 54.8 -27.35 c
11.62 -15.74 16.63 -39.76 16.63 -73.73 c
0 -178.11 p
0 -33.13 -9.16 -38.93 -63.17 -38.93 c
-3.32 0 0 -29.96 210.05 0 ^ -3.33 0 p
-53.17 0 -62.31 5.8 -62.31 38.93 c
0 143.31 p
0 82.84 37.39 135.87 95.54 135.87 c
27.42 0 49.85 -15.75 60.65 -41.43 c
7.48 -18.23 9.98 -36.45 9.98 -68.76 c
0 -168.99 p
0 -33.13 -9.16 -38.93 -63.17 -38.93 c
-3.32 0 0 -29.96 210.04 0 ^ -3.32 0 p
-53.18 0 -62.31 5.8 -62.31 39.8 c
0 184.91 p
0 51.41 -5 68.82 -26.58 97.02 c
-24.07 30.68 -58.1 47.33 -97.94 47.33 c
-53.95 0 -93.79 -25.65 -129.48 -82.71 c
-14.11 49.62 -58.93 82.71 -114.54 82.71 c
-49.8 0 -87.16 -24.11 -119.52 -76.35 c
h
f
-1214 12749 m
0.88 124.23 -69.71 212.02 -170.96 212.02 c
-106.24 0 -185.93 -92 -185.93 -216.29 c
0 -116 75.53 -194.72 187.58 -194.72 c
78.85 0 135.29 38.87 169.36 117.45 c
-29.05 15.74 p
-34.04 -63.51 -68.91 -88.25 -124.54 -88.25 c
-42.34 0 -73.06 18.22 -94.64 54.66 c
-14.95 24.85 -21.59 53.84 -20.81 99.39 c
h
-1482.99 12785 m
0 25.54 3.34 43.67 11.68 66.74 c
17.52 49.43 44.21 73.36 84.26 73.36 c
50.89 0 84.27 -43.7 84.27 -109.62 c
0 -23.89 -7.52 -30.48 -34.21 -30.48 c
h
f
-1014.01 12948.5 -143.58 -9.12 0 -35.66 29.92 0 P
30.75 0 35.75 -5.8 35.75 -41.46 c
0 -231.35 p
0 -33.17 -9.16 -38.97 -62.34 -38.97 c
-3.32 0 0 -29.96 210.05 0 ^ -3.33 0 p
-54 0 -63.14 5.8 -63.14 38.93 c
0 119.29 p
0 40.59 5.82 77.87 14.96 96.92 c
17.47 37.28 54.89 62.97 90.65 62.97 c
21.62 0 46.57 -12.44 59.05 -29.01 c
12.47 -17.4 18.32 -43.08 18.32 -82.84 c
0 -167.34 p
0 -33.13 -9.18 -38.93 -63.37 -38.93 c
-3.34 0 0 -29.96 210.05 0 ^ -3.32 0 p
-53 0 -62.12 5.8 -62.12 38.97 c
0 163.35 p
0 59.7 -2.51 74.63 -17.46 102.82 c
-20.77 39.8 -63.14 63.91 -112.16 63.91 c
-53.18 0 -94.71 -24.94 -131.27 -79.67 c
h
f
-508.99 12949 0 164.28 -34.04 0 P
-8.3 -108.33 -44.81 -163.33 -112.02 -168.33 c
0 -31.91 68.16 0 0 -211.38 p
0 -58 1.66 -78.71 9.95 -97.77 c
13.28 -34.8 46.47 -53.86 94.6 -53.86 c
32.36 0 60.57 9.93 79.66 28.14 c
27.39 26.49 43.19 70.36 43.19 115.89 c
0 4.97 0 10.76 -0.85 19.05 c
-34.88 0 p
-2.49 -74.22 -24.08 -112.14 -64.77 -112.14 c
-19.1 0 -35.71 9.93 -41.52 24 c
-4.98 11.59 -7.47 32.28 -7.47 62.07 c
0 226 122.09 0 0 35.96 h
f
-26.21 12958 -29.1 0 -24.09 -29.89 P
-29.89 23.02 -59.79 32.9 -101.31 32.9 c
-73.08 0 -121.24 -48.08 -121.24 -120.09 c
0 -32.28 10.79 -59.6 29.05 -76.16 c
19.1 -17.39 38.19 -25.66 88 -37.25 c
44 -9.93 p
65.59 -15.73 88.88 -32.28 88.88 -65.39 c
0 -38.91 -34.04 -66.22 -83.01 -66.22 c
-69.72 0 -119.52 44.57 -139.45 127.13 c
-33.2 0 0 -157.12 29.09 0 29.09 34.25 p
34.08 -27.09 72.32 -40.21 113.88 -40.21 c
81.46 0 135.54 50.46 135.54 127.41 c
0 36.4 -11.7 64.54 -35.01 83.56 c
-19.98 17.38 -36.63 24 -87.41 34.75 c
-41.62 9.1 p
-45.79 9.93 -45.79 9.93 -60.77 18.21 c
-18.32 8.27 -29.14 25.65 -29.14 43.85 c
0 33.09 31.59 57.17 77.3 57.17 c
31.59 0 57.36 -10.73 80.63 -32.99 c
18.29 -18.14 27.43 -34.62 40.73 -72.54 c
29.13 0 h
f
q[8000 0 0 -40 -7981 12251]concat
1 1 false[1 0 0 -1 0 0]@X
imagemask
!!~>
Q
Q q
0 0 27283 0 0 28812 ^ Y
0.586819 i
K
2031.27 2478.3 m
-67.48 79.22 -83.91 101.52 -100.93 144.36 c
-24.65 58.68 -17.61 113.84 19.36 150.81 c
20.54 20.54 39.32 26.41 49.88 15.84 c
2.35 -2.35 3.52 -4.7 5.28 -11.15 c
5.28 -17.02 10.56 -28.16 18.78 -36.38 c
19.95 -19.95 49.88 -19.37 70.42 1.17 c
22.3 22.3 21.13 56.34 -3.52 80.98 c
-40.49 40.49 -111.5 29.34 -166.66 -25.82 c
-48.12 -48.12 -70.42 -116.19 -59.27 -183.67 c
13.5 -76.87 56.34 -156.09 120.3 -220.06 c
114.43 -114.43 245.88 -133.21 332.73 -46.36 c
38.14 38.14 56.92 82.74 55.75 133.21 c
-0.59 51.05 -24.06 105.04 -61.03 142.01 c
-69.24 69.25 -170.76 71 -237.07 4.7 c
-39.9 -39.91 -53.4 -85.09 -44.01 -149.64 c
h
2095.23 2576.3 m
42.25 42.25 101.52 34.62 157.27 -21.12 c
67.48 -67.48 83.91 -137.9 41.08 -180.74 c
-26.41 -26.41 -61.62 -32.27 -103.87 -18.19 c
-27.58 8.8 -52.23 24.06 -73.94 45.77 c
-60.45 60.44 -68.07 126.75 -20.54 174.29 c
h
f
2216.43 2957.05 m
39.32 24.06 58.1 38.14 80.98 61.03 c
49.88 49.88 68.66 103.87 55.75 155.51 c
-4.7 17.6 -7.63 25.23 -12.32 29.93 c
-3.52 3.52 -7.04 3.52 -9.98 0.59 c
-1.76 -1.76 -4.11 -5.28 -5.28 -9.98 c
-16.43 -41.07 -29.34 -59.86 -62.79 -93.3 c
-37.55 -37.56 -62.2 -56.34 -138.49 -103.28 c
46.95 -51.64 104.45 -119.71 169 -200.69 c
0.59 -25.23 4.11 -36.97 13.5 -46.36 c
11.73 -11.74 27.58 -12.32 38.73 -1.18 c
14.67 14.67 11.73 36.38 -9.39 62.2 c
5.87 35.21 18.78 61.03 42.25 84.5 c
52.23 52.23 124.41 43.43 191.3 -23.47 c
39.32 -39.32 62.79 -82.74 63.38 -118.54 c
0.59 -24.06 -15.26 -56.33 -39.32 -80.39 c
-35.21 -35.21 -89.79 -53.4 -107.98 -35.21 c
-4.11 4.11 -5.28 12.32 -2.35 23.47 c
7.04 29.34 4.7 42.25 -11.15 58.09 c
-20.54 20.54 -52.23 20.54 -73.35 -0.59 c
-23.47 -23.47 -20.54 -63.96 7.04 -91.54 c
29.34 -29.34 75.7 -41.66 120.3 -33.45 c
32.86 7.04 63.38 24.64 93.89 55.16 c
92.13 92.13 96.24 204.21 9.98 290.48 c
-79.81 79.8 -186.61 79.8 -265.83 0.59 c
-24.65 -24.64 -39.32 -47.53 -58.09 -93.3 c
h
f
2594.83 3468.07 78.04 -477.09 32.86 -32.86 164.89 164.89 30.52 -30.52 17.02 -17.02 P
24.64 -24.65 22.3 -32.86 -25.23 -80.39 c
-6.46 -6.45 27.58 -27.58 171.35 171.35 -27.58 27.58 -2.35 -2.34 p
-47.53 -47.54 -55.75 -49.88 -80.39 -25.23 c
-17.02 17.02 -30.52 30.52 71.01 71 -32.86 32.86 -71 -71 -160.2 160.2 p
-73.35 73.35 -73.35 73.35 -114.43 120.3 c
h
2837.77 3155.88 -129.1 -129.1 -48.7 306.91 H
f
2870.54 3744.78 m
-82.16 -82.16 -52.23 -231.79 70.42 -354.44 c
120.88 -120.89 267.59 -151.4 346.81 -72.18 c
82.15 82.15 53.99 225.34 -68.07 347.39 c
-62.2 62.2 -126.75 100.93 -191.89 116.78 c
-59.86 14.09 -120.3 -0.59 -157.27 -37.55 c
h
2891.66 3715.44 m
19.36 19.36 51.05 25.23 88.61 15.84 c
42.84 -11.15 82.74 -40.49 163.14 -120.89 c
82.15 -82.15 116.77 -124.99 130.86 -162.55 c
15.25 -42.25 11.73 -80.98 -10.57 -103.28 c
-19.36 -19.36 -51.05 -25.23 -88.61 -15.84 c
-44.01 11.15 -85.67 43.43 -181.32 139.07 c
-68.07 68.07 -98.59 106.8 -112.08 143.77 c
-16.43 43.42 -12.32 81.57 9.98 103.87 c
h
f
7844.27 2478.3 m
-67.48 79.22 -83.91 101.52 -100.93 144.36 c
-24.65 58.68 -17.61 113.84 19.36 150.81 c
20.54 20.54 39.32 26.41 49.88 15.84 c
2.35 -2.35 3.52 -4.7 5.28 -11.15 c
5.28 -17.02 10.56 -28.16 18.78 -36.38 c
19.95 -19.95 49.88 -19.37 70.42 1.17 c
22.3 22.3 21.13 56.34 -3.52 80.98 c
-40.49 40.49 -111.5 29.34 -166.66 -25.82 c
-48.12 -48.12 -70.42 -116.19 -59.27 -183.67 c
13.5 -76.87 56.34 -156.09 120.3 -220.06 c
114.43 -114.43 245.88 -133.21 332.73 -46.36 c
38.14 38.14 56.92 82.74 55.75 133.21 c
-0.59 51.05 -24.06 105.04 -61.03 142.01 c
-69.24 69.25 -170.76 71 -237.07 4.7 c
-39.9 -39.91 -53.4 -85.09 -44.01 -149.64 c
h
7908.23 2576.3 m
42.25 42.25 101.52 34.62 157.27 -21.12 c
67.48 -67.48 83.91 -137.9 41.08 -180.74 c
-26.41 -26.41 -61.62 -32.27 -103.87 -18.19 c
-27.58 8.8 -52.23 24.06 -73.94 45.77 c
-60.45 60.44 -68.07 126.75 -20.54 174.29 c
h
f
8028.43 2957.05 m
39.32 24.06 58.1 38.14 80.98 61.03 c
49.88 49.88 68.66 103.87 55.75 155.51 c
-4.7 17.6 -7.63 25.23 -12.32 29.93 c
-3.52 3.52 -7.04 3.52 -9.98 0.59 c
-1.76 -1.76 -4.11 -5.28 -5.28 -9.98 c
-16.43 -41.07 -29.34 -59.86 -62.79 -93.3 c
-37.55 -37.56 -62.2 -56.34 -138.49 -103.28 c
46.95 -51.64 104.45 -119.71 169 -200.69 c
0.59 -25.23 4.11 -36.97 13.5 -46.36 c
11.73 -11.74 27.58 -12.32 38.73 -1.18 c
14.67 14.67 11.73 36.38 -9.39 62.2 c
5.87 35.21 18.78 61.03 42.25 84.5 c
52.23 52.23 124.41 43.43 191.3 -23.47 c
39.32 -39.32 62.79 -82.74 63.38 -118.54 c
0.59 -24.06 -15.26 -56.33 -39.32 -80.39 c
-35.21 -35.21 -89.79 -53.4 -107.98 -35.21 c
-4.11 4.11 -5.28 12.32 -2.35 23.47 c
7.04 29.34 4.7 42.25 -11.15 58.09 c
-20.54 20.54 -52.23 20.54 -73.35 -0.59 c
-23.47 -23.47 -20.54 -63.96 7.04 -91.54 c
29.34 -29.34 75.7 -41.66 120.3 -33.45 c
32.86 7.04 63.38 24.64 93.89 55.16 c
92.13 92.13 96.24 204.21 9.98 290.48 c
-79.81 79.8 -186.61 79.8 -265.83 0.59 c
-24.65 -24.64 -39.32 -47.53 -58.09 -93.3 c
h
f
8353.43 3282.05 m
39.32 24.06 58.1 38.14 80.98 61.03 c
49.88 49.88 68.66 103.87 55.75 155.51 c
-4.7 17.6 -7.63 25.23 -12.32 29.93 c
-3.52 3.52 -7.04 3.52 -9.98 0.59 c
-1.76 -1.76 -4.11 -5.28 -5.28 -9.98 c
-16.43 -41.07 -29.34 -59.86 -62.79 -93.3 c
-37.55 -37.56 -62.2 -56.34 -138.49 -103.28 c
46.95 -51.64 104.45 -119.71 169 -200.69 c
0.59 -25.23 4.11 -36.97 13.5 -46.36 c
11.73 -11.74 27.58 -12.32 38.73 -1.18 c
14.67 14.67 11.73 36.38 -9.39 62.2 c
5.87 35.21 18.78 61.03 42.25 84.5 c
52.23 52.23 124.41 43.43 191.3 -23.47 c
39.32 -39.32 62.79 -82.74 63.38 -118.54 c
0.59 -24.06 -15.26 -56.33 -39.32 -80.39 c
-35.21 -35.21 -89.79 -53.4 -107.98 -35.21 c
-4.11 4.11 -5.28 12.32 -2.35 23.47 c
7.04 29.34 4.7 42.25 -11.15 58.09 c
-20.54 20.54 -52.23 20.54 -73.35 -0.59 c
-23.47 -23.47 -20.54 -63.96 7.04 -91.54 c
29.34 -29.34 75.7 -41.66 120.3 -33.45 c
32.86 7.04 63.38 24.64 93.89 55.16 c
92.13 92.13 96.24 204.21 9.98 290.48 c
-79.81 79.8 -186.61 79.8 -265.83 0.59 c
-24.65 -24.64 -39.32 -47.53 -58.09 -93.3 c
h
f
8683.54 3744.78 m
-82.16 -82.16 -52.23 -231.79 70.42 -354.44 c
120.88 -120.89 267.59 -151.4 346.81 -72.18 c
82.15 82.15 53.99 225.34 -68.07 347.39 c
-62.2 62.2 -126.75 100.93 -191.89 116.78 c
-59.86 14.09 -120.3 -0.59 -157.27 -37.55 c
h
8704.66 3715.44 m
19.36 19.36 51.05 25.23 88.61 15.84 c
42.84 -11.15 82.74 -40.49 163.14 -120.89 c
82.15 -82.15 116.77 -124.99 130.86 -162.55 c
15.25 -42.25 11.73 -80.98 -10.57 -103.28 c
-19.36 -19.36 -51.05 -25.23 -88.61 -15.84 c
-44.01 11.15 -85.67 43.43 -181.32 139.07 c
-68.07 68.07 -98.59 106.8 -112.08 143.77 c
-16.43 43.42 -12.32 81.57 9.98 103.87 c
h
f
13656.3 2478.3 m
-67.48 79.22 -83.91 101.52 -100.93 144.36 c
-24.65 58.68 -17.61 113.84 19.36 150.81 c
20.54 20.54 39.32 26.41 49.88 15.84 c
2.35 -2.35 3.52 -4.7 5.28 -11.15 c
5.28 -17.02 10.56 -28.16 18.78 -36.38 c
19.95 -19.95 49.88 -19.37 70.42 1.17 c
22.3 22.3 21.13 56.34 -3.52 80.98 c
-40.49 40.49 -111.5 29.34 -166.66 -25.82 c
-48.12 -48.12 -70.42 -116.19 -59.27 -183.67 c
13.5 -76.87 56.34 -156.09 120.3 -220.06 c
114.43 -114.43 245.88 -133.21 332.73 -46.36 c
38.14 38.14 56.92 82.74 55.75 133.21 c
-0.59 51.05 -24.06 105.04 -61.03 142.01 c
-69.24 69.25 -170.76 71 -237.07 4.7 c
-39.9 -39.91 -53.4 -85.09 -44.01 -149.64 c
h
13720.2 2576.3 m
42.25 42.25 101.52 34.62 157.27 -21.12 c
67.48 -67.48 83.91 -137.9 41.08 -180.74 c
-26.41 -26.41 -61.62 -32.27 -103.87 -18.19 c
-27.58 8.8 -52.23 24.06 -73.94 45.77 c
-60.45 60.44 -68.07 126.75 -20.54 174.29 c
h
f
13841.4 2957.05 m
39.32 24.06 58.1 38.14 80.98 61.03 c
49.88 49.88 68.66 103.87 55.75 155.51 c
-4.7 17.6 -7.63 25.23 -12.32 29.93 c
-3.52 3.52 -7.04 3.52 -9.98 0.59 c
-1.76 -1.76 -4.11 -5.28 -5.28 -9.98 c
-16.43 -41.07 -29.34 -59.86 -62.79 -93.3 c
-37.55 -37.56 -62.2 -56.34 -138.49 -103.28 c
46.95 -51.64 104.45 -119.71 169 -200.69 c
0.59 -25.23 4.11 -36.97 13.5 -46.36 c
11.73 -11.74 27.58 -12.32 38.73 -1.18 c
14.67 14.67 11.73 36.38 -9.39 62.2 c
5.87 35.21 18.78 61.03 42.25 84.5 c
52.23 52.23 124.41 43.43 191.3 -23.47 c
39.32 -39.32 62.79 -82.74 63.38 -118.54 c
0.59 -24.06 -15.26 -56.33 -39.32 -80.39 c
-35.21 -35.21 -89.79 -53.4 -107.98 -35.21 c
-4.11 4.11 -5.28 12.32 -2.35 23.47 c
7.04 29.34 4.7 42.25 -11.15 58.09 c
-20.54 20.54 -52.23 20.54 -73.35 -0.59 c
-23.47 -23.47 -20.54 -63.96 7.04 -91.54 c
29.34 -29.34 75.7 -41.66 120.3 -33.45 c
32.86 7.04 63.38 24.64 93.89 55.16 c
92.13 92.13 96.24 204.21 9.98 290.48 c
-79.81 79.8 -186.61 79.8 -265.83 0.59 c
-24.65 -24.64 -39.32 -47.53 -58.09 -93.3 c
h
f
14307.3 3128.3 m
-67.48 79.22 -83.91 101.52 -100.93 144.36 c
-24.65 58.68 -17.61 113.84 19.36 150.81 c
20.54 20.54 39.32 26.41 49.88 15.84 c
2.35 -2.35 3.52 -4.7 5.28 -11.15 c
5.28 -17.02 10.56 -28.16 18.78 -36.38 c
19.95 -19.95 49.88 -19.37 70.42 1.17 c
22.3 22.3 21.13 56.34 -3.52 80.98 c
-40.49 40.49 -111.5 29.34 -166.66 -25.82 c
-48.12 -48.12 -70.42 -116.19 -59.27 -183.67 c
13.5 -76.87 56.34 -156.09 120.3 -220.06 c
114.43 -114.43 245.88 -133.21 332.73 -46.36 c
38.14 38.14 56.92 82.74 55.75 133.21 c
-0.59 51.05 -24.06 105.04 -61.03 142.01 c
-69.24 69.25 -170.76 71 -237.07 4.7 c
-39.9 -39.91 -53.4 -85.09 -44.01 -149.64 c
h
14371.2 3226.3 m
42.25 42.25 101.52 34.62 157.27 -21.12 c
67.48 -67.48 83.91 -137.9 41.08 -180.74 c
-26.41 -26.41 -61.62 -32.27 -103.87 -18.19 c
-27.58 8.8 -52.23 24.06 -73.94 45.77 c
-60.45 60.44 -68.07 126.75 -20.54 174.29 c
h
f
14495.5 3744.78 m
-82.16 -82.16 -52.23 -231.79 70.42 -354.44 c
120.88 -120.89 267.59 -151.4 346.81 -72.18 c
82.15 82.15 53.99 225.34 -68.07 347.39 c
-62.2 62.2 -126.75 100.93 -191.89 116.78 c
-59.86 14.09 -120.3 -0.59 -157.27 -37.55 c
h
14516.7 3715.44 m
19.36 19.36 51.05 25.23 88.61 15.84 c
42.84 -11.15 82.74 -40.49 163.14 -120.89 c
82.15 -82.15 116.77 -124.99 130.86 -162.55 c
15.25 -42.25 11.73 -80.98 -10.57 -103.28 c
-19.36 -19.36 -51.05 -25.23 -88.61 -15.84 c
-44.01 11.15 -85.67 43.43 -181.32 139.07 c
-68.07 68.07 -98.59 106.8 -112.08 143.77 c
-16.43 43.42 -12.32 81.57 9.98 103.87 c
h
f
19469.3 2478.3 m
-67.48 79.22 -83.91 101.52 -100.93 144.36 c
-24.65 58.68 -17.61 113.84 19.36 150.81 c
20.54 20.54 39.32 26.41 49.88 15.84 c
2.35 -2.35 3.52 -4.7 5.28 -11.15 c
5.28 -17.02 10.56 -28.16 18.78 -36.38 c
19.95 -19.95 49.88 -19.37 70.42 1.17 c
22.3 22.3 21.13 56.34 -3.52 80.98 c
-40.49 40.49 -111.5 29.34 -166.66 -25.82 c
-48.12 -48.12 -70.42 -116.19 -59.27 -183.67 c
13.5 -76.87 56.34 -156.09 120.3 -220.06 c
114.43 -114.43 245.88 -133.21 332.73 -46.36 c
38.14 38.14 56.92 82.74 55.75 133.21 c
-0.59 51.05 -24.06 105.04 -61.03 142.01 c
-69.24 69.25 -170.76 71 -237.07 4.7 c
-39.9 -39.91 -53.4 -85.09 -44.01 -149.64 c
h
19533.2 2576.3 m
42.25 42.25 101.52 34.62 157.27 -21.12 c
67.48 -67.48 83.91 -137.9 41.08 -180.74 c
-26.41 -26.41 -61.62 -32.27 -103.87 -18.19 c
-27.58 8.8 -52.23 24.06 -73.94 45.77 c
-60.45 60.44 -68.07 126.75 -20.54 174.29 c
h
f
19653.4 2957.05 m
39.32 24.06 58.1 38.14 80.98 61.03 c
49.88 49.88 68.66 103.87 55.75 155.51 c
-4.7 17.6 -7.63 25.23 -12.32 29.93 c
-3.52 3.52 -7.04 3.52 -9.98 0.59 c
-1.76 -1.76 -4.11 -5.28 -5.28 -9.98 c
-16.43 -41.07 -29.34 -59.86 -62.79 -93.3 c
-37.55 -37.56 -62.2 -56.34 -138.49 -103.28 c
46.95 -51.64 104.45 -119.71 169 -200.69 c
0.59 -25.23 4.11 -36.97 13.5 -46.36 c
11.73 -11.74 27.58 -12.32 38.73 -1.18 c
14.67 14.67 11.73 36.38 -9.39 62.2 c
5.87 35.21 18.78 61.03 42.25 84.5 c
52.23 52.23 124.41 43.43 191.3 -23.47 c
39.32 -39.32 62.79 -82.74 63.38 -118.54 c
0.59 -24.06 -15.26 -56.33 -39.32 -80.39 c
-35.21 -35.21 -89.79 -53.4 -107.98 -35.21 c
-4.11 4.11 -5.28 12.32 -2.35 23.47 c
7.04 29.34 4.7 42.25 -11.15 58.09 c
-20.54 20.54 -52.23 20.54 -73.35 -0.59 c
-23.47 -23.47 -20.54 -63.96 7.04 -91.54 c
29.34 -29.34 75.7 -41.66 120.3 -33.45 c
32.86 7.04 63.38 24.64 93.89 55.16 c
92.13 92.13 96.24 204.21 9.98 290.48 c
-79.81 79.8 -186.61 79.8 -265.83 0.59 c
-24.65 -24.64 -39.32 -47.53 -58.09 -93.3 c
h
f
19992.5 3144.73 29.93 21.71 -35.8 56.92 P
-29.93 47.53 -31.69 57.51 -14.67 74.52 c
2.93 2.94 8.21 8.22 13.5 12.32 c
35.8 32.28 79.81 72.77 103.87 96.82 c
8.21 8.22 20.54 20.54 35.8 36.97 c
40.49 -120.3 p
43.43 -131.45 48.71 -146.12 69.83 -196.58 c
26.41 -61.62 53.4 -108.56 78.05 -133.21 c
26.41 -26.41 57.51 -29.34 80.39 -6.46 c
28.17 28.17 19.95 58.68 -31.1 108.56 c
-86.85 80.98 -117.36 133.79 -192.48 333.31 c
-28.75 81.57 p
-0.59 1.76 -4.11 8.8 -8.21 19.95 c
-17.02 17.02 p
-33.45 -39.32 -52.23 -59.27 -88.02 -95.07 c
-49.88 -49.88 -91.55 -88.02 -159.62 -147.88 c
h
f
20308.5 3744.78 m
-82.16 -82.16 -52.23 -231.79 70.42 -354.44 c
120.88 -120.89 267.59 -151.4 346.81 -72.18 c
82.15 82.15 53.99 225.34 -68.07 347.39 c
-62.2 62.2 -126.75 100.93 -191.89 116.78 c
-59.86 14.09 -120.3 -0.59 -157.27 -37.55 c
h
20329.7 3715.44 m
19.36 19.36 51.05 25.23 88.61 15.84 c
42.84 -11.15 82.74 -40.49 163.14 -120.89 c
82.15 -82.15 116.77 -124.99 130.86 -162.55 c
15.25 -42.25 11.73 -80.98 -10.57 -103.28 c
-19.36 -19.36 -51.05 -25.23 -88.61 -15.84 c
-44.01 11.15 -85.67 43.43 -181.32 139.07 c
-68.07 68.07 -98.59 106.8 -112.08 143.77 c
-16.43 43.42 -12.32 81.57 9.98 103.87 c
h
f
25281.3 2478.3 m
-67.48 79.22 -83.91 101.52 -100.93 144.36 c
-24.65 58.68 -17.61 113.84 19.36 150.81 c
20.54 20.54 39.32 26.41 49.88 15.84 c
2.35 -2.35 3.52 -4.7 5.28 -11.15 c
5.28 -17.02 10.56 -28.16 18.78 -36.38 c
19.95 -19.95 49.88 -19.37 70.42 1.17 c
22.3 22.3 21.13 56.34 -3.52 80.98 c
-40.49 40.49 -111.5 29.34 -166.66 -25.82 c
-48.12 -48.12 -70.42 -116.19 -59.27 -183.67 c
13.5 -76.87 56.34 -156.09 120.3 -220.06 c
114.43 -114.43 245.88 -133.21 332.73 -46.36 c
38.14 38.14 56.92 82.74 55.75 133.21 c
-0.59 51.05 -24.06 105.04 -61.03 142.01 c
-69.24 69.25 -170.76 71 -237.07 4.7 c
-39.9 -39.91 -53.4 -85.09 -44.01 -149.64 c
h
25345.2 2576.3 m
42.25 42.25 101.52 34.62 157.27 -21.12 c
67.48 -67.48 83.91 -137.9 41.08 -180.74 c
-26.41 -26.41 -61.62 -32.27 -103.87 -18.19 c
-27.58 8.8 -52.23 24.06 -73.94 45.77 c
-60.45 60.44 -68.07 126.75 -20.54 174.29 c
h
f
25466.4 2957.05 m
39.32 24.06 58.1 38.14 80.98 61.03 c
49.88 49.88 68.66 103.87 55.75 155.51 c
-4.7 17.6 -7.63 25.23 -12.32 29.93 c
-3.52 3.52 -7.04 3.52 -9.98 0.59 c
-1.76 -1.76 -4.11 -5.28 -5.28 -9.98 c
-16.43 -41.07 -29.34 -59.86 -62.79 -93.3 c
-37.55 -37.56 -62.2 -56.34 -138.49 -103.28 c
46.95 -51.64 104.45 -119.71 169 -200.69 c
0.59 -25.23 4.11 -36.97 13.5 -46.36 c
11.73 -11.74 27.58 -12.32 38.73 -1.18 c
14.67 14.67 11.73 36.38 -9.39 62.2 c
5.87 35.21 18.78 61.03 42.25 84.5 c
52.23 52.23 124.41 43.43 191.3 -23.47 c
39.32 -39.32 62.79 -82.74 63.38 -118.54 c
0.59 -24.06 -15.26 -56.33 -39.32 -80.39 c
-35.21 -35.21 -89.79 -53.4 -107.98 -35.21 c
-4.11 4.11 -5.28 12.32 -2.35 23.47 c
7.04 29.34 4.7 42.25 -11.15 58.09 c
-20.54 20.54 -52.23 20.54 -73.35 -0.59 c
-23.47 -23.47 -20.54 -63.96 7.04 -91.54 c
29.34 -29.34 75.7 -41.66 120.3 -33.45 c
32.86 7.04 63.38 24.64 93.89 55.16 c
92.13 92.13 96.24 204.21 9.98 290.48 c
-79.81 79.8 -186.61 79.8 -265.83 0.59 c
-24.65 -24.64 -39.32 -47.53 -58.09 -93.3 c
h
f
26032.6 3287.33 m
19.95 68.07 11.73 117.36 -26.41 155.51 c
-53.99 53.99 -142.6 44.01 -210.08 -23.47 c
-71.59 -71.59 -76.29 -171.35 -11.74 -235.9 c
25.23 -25.23 61.03 -42.25 95.65 -44.01 c
21.71 -1.76 37.56 1.17 69.83 11.15 c
-15.84 -35.8 -21.12 -52.82 -23.47 -76.29 c
-4.11 -41.66 11.15 -82.74 41.08 -112.67 c
31.69 -31.69 79.22 -47.53 122.64 -41.66 c
39.32 6.46 79.8 29.34 117.36 66.9 c
43.42 43.43 68.07 91.54 70.42 137.32 c
3.52 46.95 -17.02 98 -52.81 133.79 c
-33.45 33.45 -76.29 50.46 -121.47 47.53 c
-21.71 -1.76 -38.73 -5.87 -71 -18.19 c
h
25946.9 3247.43 m
-65.14 -29.93 -107.98 -28.17 -142.01 5.87 c
-36.97 36.97 -31.69 92.72 14.67 139.08 c
45.19 45.18 103.87 46.36 146.7 3.52 c
30.52 -30.52 38.73 -62.2 33.45 -123.82 c
h
26062 3200.48 m
60.44 28.75 102.11 24.64 140.84 -14.08 c
46.95 -46.95 39.9 -113.84 -17.61 -171.35 c
-54.57 -54.57 -117.36 -56.34 -169 -4.7 c
-44.01 44.01 -52.23 88.61 -27.58 155.51 c
h
f
26120.5 3744.78 m
-82.16 -82.16 -52.23 -231.79 70.42 -354.44 c
120.88 -120.89 267.59 -151.4 346.81 -72.18 c
82.15 82.15 53.99 225.34 -68.07 347.39 c
-62.2 62.2 -126.75 100.93 -191.89 116.78 c
-59.86 14.09 -120.3 -0.59 -157.27 -37.55 c
h
26141.7 3715.44 m
19.36 19.36 51.05 25.23 88.61 15.84 c
42.84 -11.15 82.74 -40.49 163.14 -120.89 c
82.15 -82.15 116.77 -124.99 130.86 -162.55 c
15.25 -42.25 11.73 -80.98 -10.57 -103.28 c
-19.36 -19.36 -51.05 -25.23 -88.61 -15.84 c
-44.01 11.15 -85.67 43.43 -181.32 139.07 c
-68.07 68.07 -98.59 106.8 -112.08 143.77 c
-16.43 43.42 -12.32 81.57 9.98 103.87 c
h
f
0.996264 i
11009.7 1013.32 -143.46 445.78 P
-2.99 8.95 -4.98 19.9 -4.98 24.88 c
0 14.93 10.96 20.01 42.84 20.01 c
44.83 0 0 47.01 -280.95 0 ^ 18.93 0 p
41.84 0 47.82 -4.05 59.78 -38.9 c
215.19 -648.09 42.84 0 147.45 495.21 161.39 -495.21 40.85 0 175.34 584.38 p
10.96 38.83 15.94 50.78 26.9 66.7 c
15.94 23.89 40.85 35.91 73.72 35.91 c
3.98 0 0 47.01 -244.08 0 ^ 7.97 0 p
57.79 0 85.68 -17.02 85.68 -51.85 c
0 -9.95 -1.99 -23.88 -5.98 -34.83 c
-119.55 -403.99 -137.48 435.83 p
-5.98 18.91 -6.97 20.89 -6.97 27.86 c
0 8.95 5.98 17.91 14.95 21.89 c
10.96 3.98 17.93 5.08 56.79 5.08 c
15.94 0 0 47.01 -287.92 0 ^ 22.91 0 p
40.85 0 54.8 -7.07 62.77 -30.95 c
25.9 -77.61 h
f
12022 1152.76 m
0 62.7 -11.03 94.55 -39.87 118.44 c
-32.82 25.88 -81.55 39.82 -145.2 39.82 c
-111.39 0 -193.94 -52.78 -193.94 -124.42 c
0 -37.81 23 -61.69 58.01 -61.69 c
31 0 54.01 20.86 54.01 50.67 c
0 12.92 -5.14 26.83 -15.41 40.74 c
-6.16 6.95 -7.19 9.93 -7.19 12.92 c
0 20.87 40.7 38.78 88.34 38.78 c
30.77 0 65.51 -10 81.39 -24.93 c
18.86 -15.93 25.85 -39.82 25.85 -84.62 c
0 -38.82 p
-104.36 -17.92 -136.14 -25.89 -184.81 -44.8 c
-85.43 -31.86 -127.15 -78.65 -127.15 -141.36 c
0 -70.69 56.85 -116.48 144.63 -116.48 c
68.82 0 130.67 27.92 173.56 78.77 c
15.96 -50.81 40.9 -70.73 87.79 -70.73 c
44.49 0 90.97 29.49 90.97 59.01 c
0 5.98 -5 10.96 -10 10.96 c
-4 0 -8 -1 -14.99 -3.99 c
-16 -5.98 -19.99 -6.97 -27.99 -6.97 c
-27.99 0 -37.98 18.91 -37.98 68.67 c
h
11928 1031.28 m
0 -59.73 -3.01 -73.67 -19.84 -99.55 c
-24.75 -36.83 -70.3 -61.72 -112.88 -61.72 c
-44.56 0 -78.22 32.85 -78.22 77.65 c
0 41.81 20.79 71.68 64.36 92.58 c
30.7 13.94 69.31 23.89 146.59 36.85 c
h
f
12405.9 952.55 -113.57 263.62 P
-2.99 5.97 -4.98 14.93 -4.98 20.89 c
0 16.91 12.95 22.95 53.8 22.95 c
13.95 0 0 36 -235.12 0 ^ 7.97 0 p
37.86 0 51.8 -9.06 65.75 -42.91 c
171.36 -400.11 34.87 0 141.47 349.35 p
26.9 65.69 54.79 93.66 92.65 93.66 c
3.98 0 0 36 -199.25 0 ^ 13.95 0 p
34.87 0 53.8 -12 53.8 -34.88 c
0 -10.95 -3.98 -26.86 -8.96 -41.78 c
h
f
13105.2 1055.99 m
1.01 149.4 -83.71 255.02 -205.2 255.02 c
-127.46 0 -223.05 -110.65 -223.05 -260.02 c
0 -139.41 90.61 -234.01 225.04 -234.01 c
94.6 0 162.31 46.83 203.23 141.5 c
-34.87 18.96 p
-40.85 -76.61 -82.69 -106.45 -149.44 -106.45 c
-50.81 0 -87.67 21.88 -113.57 65.64 c
-17.93 29.84 -25.9 64.64 -24.37 119.35 c
h
12783 1099 m
0 30.81 3.99 52.68 13.97 80.52 c
20.96 59.64 52.9 88.49 100.82 88.49 c
60.89 0 100.86 -52.7 100.86 -132.23 c
0 -28.83 -9.03 -36.78 -40.97 -36.78 c
h
f
13345 1566.25 -184.06 -10.99 0 -42.83 48.48 0 P
35.62 0 41.56 -6.97 41.56 -49.8 c
0 -547.81 p
0 -39.84 -10.88 -46.81 -74.16 -46.81 c
-6.92 0 0 -36 258.03 0 ^ -7 0 p
-64.95 0 -75.94 6.97 -75.94 46.81 c
0 39.84 h
f
13915.2 1055.99 m
1.01 149.4 -83.71 255.02 -205.2 255.02 c
-127.46 0 -223.05 -110.65 -223.05 -260.02 c
0 -139.41 90.61 -234.01 225.04 -234.01 c
94.6 0 162.31 46.83 203.23 141.5 c
-34.87 18.96 p
-40.85 -76.61 -82.69 -106.45 -149.44 -106.45 c
-50.81 0 -87.67 21.88 -113.57 65.64 c
-17.93 29.84 -25.9 64.64 -24.37 119.35 c
h
13593 1099 m
0 30.81 3.99 52.68 13.97 80.52 c
20.96 59.64 52.9 88.49 100.82 88.49 c
60.89 0 100.86 -52.7 100.86 -132.23 c
0 -28.83 -9.03 -36.78 -40.97 -36.78 c
h
f
14151 1295.98 -172.11 -10.95 0 -42.8 35.59 0 P
36.57 0 42.5 -6.97 42.5 -49.77 c
0 -277.68 p
0 -39.81 -10.87 -46.78 -74.14 -46.78 c
-3.95 0 0 -36 252.05 0 ^ -4.01 0 p
-64.95 0 -75.94 6.96 -75.94 46.75 c
0 143.21 p
0 48.73 6.96 93.49 17.91 116.36 c
20.9 44.75 65.69 75.68 108.49 75.68 c
25.88 0 55.73 -15.01 70.66 -34.9 c
14.93 -20.89 21.93 -51.71 21.93 -99.45 c
0 -200.9 p
0 -39.79 -10.9 -46.75 -75.31 -46.75 c
-3.96 0 0 -36 252.05 0 ^ -3.99 0 p
-63.81 0 -74.78 6.97 -74.78 46.78 c
0 196.07 p
0 71.66 -3.03 89.57 -20.96 123.42 c
-24.92 47.77 -75.75 76.74 -134.56 76.74 c
-63.79 0 -113.63 -29.96 -157.48 -95.66 c
h
f
14757.2 906 m
-54.76 0.98 -57.74 1.97 -69.69 8.88 c
-6.96 3.95 -11.94 14.81 -11.94 25.67 c
0 29.61 26.95 42.45 93.83 44.44 c
94.83 1.99 109.8 3.99 142.74 18.96 c
59.89 26.94 93.86 78.82 93.86 144.67 c
0 39.91 -9.14 64.85 -37.53 97.78 c
16.93 17.96 25.9 23.96 33.87 23.96 c
4.98 0 7.97 -3.02 9.96 -14.1 c
3.98 -24.16 19.93 -37.25 44.83 -37.25 c
24.91 0 44.83 21 44.83 48.01 c
0 34.01 -26.99 58.01 -65.81 58.01 c
-31.86 0 -49.77 -10.01 -95.57 -51.87 c
-41.81 27.9 -73.67 37.86 -123.45 37.86 c
-118.47 0 -196.12 -65.77 -196.12 -165.32 c
0 -58.74 31.78 -109.51 83.44 -133.4 c
-66.73 -14.94 -94.6 -44.8 -94.6 -99.56 c
0 -43.8 19.91 -69.69 66.7 -85.61 c
-61.72 -21.9 -91.59 -53.76 -91.59 -94.58 c
0 -65.7 76.65 -102.54 210.05 -102.54 c
166.26 0 249.97 52.8 249.97 157.41 c
0 49.81 -22.98 89.66 -59.82 104.61 c
-25.88 9.96 -57.74 13.97 -126.43 13.97 c
h
14816.5 1268.01 m
62.67 0 97.5 -43.66 97.5 -120.03 c
0 -77.37 -37.81 -123.98 -101.48 -123.98 c
-61.68 0 -100.47 46.62 -100.47 121 c
0 78.36 37.8 123.01 104.45 123.01 c
h
14807.1 819.98 m
82.45 0 88.41 0 103.31 -2 c
39.73 -3.97 64.62 -25.82 64.62 -57.6 c
0 -56.61 -64.62 -89.37 -175.88 -89.37 c
-83.44 0 -131.12 24.82 -131.12 69.52 c
0 32.77 17.88 54.62 65.56 79.45 c
h
f
15285 1296.01 0 197.51 -40.8 0 P
-9.95 -129.71 -53.72 -195.55 -134.3 -201.53 c
0 -38.98 81.08 0 0 -253.87 p
0 -69.68 2 -94.55 11.98 -117.45 c
15.98 -41.8 55.92 -64.69 113.82 -64.69 c
38.94 0 72.89 11.96 95.85 33.88 c
32.95 31.89 51.94 84.7 51.94 139.51 c
0 5.98 0 12.95 -1.03 22.94 c
-41.89 0 p
-2.99 -89.56 -28.93 -135.32 -77.8 -135.32 c
-22.94 0 -42.89 11.93 -49.87 28.84 c
-5.98 13.93 -8.97 38.79 -8.97 74.59 c
0 271.57 146.7 0 0 43 h
f
15681 1566.25 -184.06 -10.99 0 -42.83 47.49 0 P
36.61 0 42.55 -6.97 42.55 -49.8 c
0 -547.81 p
0 -39.84 -10.87 -46.81 -74.14 -46.81 c
-3.95 0 0 -36 252.05 0 ^ -4.01 0 p
-64.95 0 -75.94 6.96 -75.94 46.75 c
0 142.22 p
0 49.73 6.96 94.48 17.91 117.36 c
20.9 44.75 65.69 75.68 108.49 75.68 c
25.88 0 55.73 -15.01 70.66 -34.9 c
14.93 -21.88 21.93 -51.71 21.93 -100.45 c
0 -199.91 p
0 -39.79 -10.9 -46.75 -75.31 -46.75 c
-3.96 0 0 -36 252.05 0 ^ -3.99 0 p
-63.81 0 -74.78 6.97 -74.78 46.78 c
0 196.07 p
0 71.66 -3.03 89.57 -20.96 123.42 c
-24.92 47.77 -74.76 76.74 -134.56 76.74 c
-63.79 0 -112.63 -29.83 -157.48 -96.45 c
h
f
16650 1565.25 m
-59.77 -36.86 -91.66 -62.77 -125.53 -102.61 c
-75.72 -89.66 -116.56 -204.23 -116.56 -324.79 c
0 -113.57 35.86 -220.17 102.61 -308.84 c
37.86 -47.82 71.73 -77.71 139.48 -119.55 c
0 36.86 p
-99.62 87.67 -139.48 200.25 -139.48 391.53 c
0 191.29 39.85 302.87 139.48 390.54 c
h
f
17299 1706.46 m
0 50.7 -43.77 87.5 -91.5 87.5 c
-53.71 0 -92.49 -41.77 -92.49 -86.51 c
0 -50.7 43.76 -87.48 91.5 -87.48 c
53.71 0 92.5 41.75 92.5 86.48 c
h
17207.5 1639.98 m
-52.61 0 -70.47 30.77 -70.47 66.49 c
0 49.62 31.76 67.5 69.48 67.5 c
52.61 0 70.51 -30.78 70.51 -66.5 c
0 -49.62 -31.8 -67.48 -69.52 -67.48 c
h
f
16871.4 942.64 m
-34.84 -58.74 -68.69 -78.65 -116.48 -81.63 c
-10.95 -1 -18.91 -1 -18.91 -19 c
0 -6 4.98 -10 11.95 -10 c
17.92 0 62.72 1.99 80.64 1.99 c
28.88 0 60.73 -1.99 88.6 -1.99 c
5.98 0 17.92 0 17.92 19 c
0 9 -7.96 10 -13.93 10 c
-22.9 1.99 -41.81 9.95 -41.81 33.83 c
0 13.93 5.97 24.88 18.91 46.77 c
75.66 125.4 253.86 0 p
1 -8.98 1 -16.94 1.99 -25.9 c
2.98 -25.87 14.93 -129.36 14.93 -148.26 c
0 -29.86 -50.77 -31.84 -66.7 -31.84 c
-10.95 0 -21.9 0 -21.9 -18 c
0 -11 8.96 -11 14.94 -11 c
16.92 0 36.83 1.99 53.75 1.99 c
56.75 0 p
60.72 0 104.53 -1.99 105.52 -1.99 c
6.97 0 18.03 0 18.03 19 c
0 10 -9.07 10 -24 10 c
-54.75 0 -55.75 8.96 -58.74 38.82 c
-60.72 621.21 p
-1.99 19.91 -5.98 21.98 -16.93 21.98 c
-9.96 0 -15.93 -2.07 -24.89 -17 c
h
16990.9 1096.01 200.25 334.74 33.88 -334.74 H
f
17485.8 709.46 m
59.78 36.86 91.66 62.76 125.53 103.61 c
75.71 88.67 116.56 204.23 116.56 324.78 c
0 113.57 -35.87 220.18 -102.62 307.85 c
-37.86 48.82 -71.73 78.7 -139.48 119.55 c
0 -36.86 p
99.63 -87.67 139.48 -199.25 139.48 -390.54 c
0 -192.28 -39.85 -303.86 -139.48 -391.53 c
h
f
0.829888 i
2029.89 4537.98 m
-116.21 0 -200.88 -126.82 -200.88 -300.05 c
0 -170.75 82.18 -295.91 194.24 -295.91 c
116.21 0 197.63 121.01 197.63 293.42 c
0 87.86 -18.32 160.8 -53.19 218 c
-32.37 52.22 -85.5 84.55 -137.8 84.55 c
h
2024.02 4502.04 m
27.46 0 54.08 -18.25 74.04 -51.36 c
22.46 -38.09 29.95 -86.93 29.95 -200.34 c
0 -115.9 -5.82 -170.54 -22.46 -206.96 c
-19.13 -40.57 -49.08 -65.4 -80.69 -65.4 c
-27.46 0 -54.08 18.21 -74.04 51.32 c
-23.29 38.91 -29.95 91.07 -29.95 226 c
0 96.04 5.82 144.88 22.46 180.48 c
19.14 42.22 49.08 66.27 80.7 66.27 c
h
f
2213.09 10988.2 -36.52 0 -8.3 -42.38 P
-10.79 -53.18 -17.43 -59 -68.88 -59 c
-185.89 0 p
57.27 59.72 76.37 77.14 129.49 118.62 c
75.54 58.06 107.91 87.09 127 111.98 c
26.56 36.49 39.85 73.82 39.85 113.64 c
0 93.73 -78.91 161.87 -186.84 161.87 c
-105.45 0 -186.82 -68.01 -186.82 -155.87 c
0 -52.22 26.55 -87.86 66.38 -87.86 c
30.7 0 51.44 20.69 51.44 50.49 c
0 20.69 -11.6 39.73 -29.81 47.17 c
-30.62 13.24 -32.28 14.07 -32.28 24.83 c
0 12.41 8.3 31.45 19.92 45.52 c
20.75 24.83 55.6 39.77 94.61 39.77 c
68.05 0 109.54 -42.3 109.54 -111.94 c
0 -61.35 -29.05 -116.9 -97.93 -189.86 c
-48.96 -51.4 -64.73 -69.64 p
-29.87 -34.82 -44.81 -53.89 -81.33 -101.98 c
0 -23.21 374.28 0 h
f
2099.4 18250 -282.16 -392.07 0 -46.93 232.87 0 0 -67.11 P
0 -34.8 -7.44 -38.93 -74.4 -38.93 c
-9.09 0 0 -38.94 242.33 0 ^ -3.32 0 p
-67.17 0 -74.64 4.14 -74.64 38.93 c
0 67.11 100.37 0 0 46.93 ^ 0 226.28 p
0 103.61 0 103.61 4.1 165.79 c
h
2050.11 17857.9 -182.25 0 182.25 251.25 H
f
1920.97 24808.2 m
8.3 103.54 12.45 130.87 30.71 173.11 c
24.07 58.81 68.05 92.77 120.33 92.77 c
29.05 0 46.47 -9.11 46.47 -23.98 c
0 -3.3 -0.82 -5.79 -4.12 -11.57 c
-8.25 -15.7 -12.37 -27.27 -12.37 -38.83 c
0 -28.09 21.46 -48.75 50.35 -48.75 c
31.36 0 54.49 24.85 54.49 59.65 c
0 57.16 -58.06 99.43 -135.93 99.43 c
-67.93 0 -131.73 -32.33 -171.5 -87.86 c
-44.73 -63.82 -70.42 -150.02 -70.42 -240.37 c
0 -161.63 79.59 -267.73 202.3 -267.73 c
53.89 0 98.66 18.24 133.48 54.71 c
35.65 36.48 57.26 91.2 57.26 143.43 c
0 97.83 -70.51 170.84 -164.21 170.84 c
-56.39 0 -97.86 -22.46 -136.83 -74.85 c
h
2035.18 24832.1 m
59.55 0 95.98 -47.18 95.98 -125.77 c
0 -95.14 -38.09 -156.35 -98.46 -156.35 c
-37.22 0 -66.16 20.68 -86.01 60.39 c
-13.23 25.64 -19.85 53.77 -19.85 84.38 c
0 85.21 41.36 137.36 108.34 137.36 c
h
f
0.996264 i
649.01 12151.3 0 -205.33 47.01 0 0 24.79 P
0 50.57 8.13 73.38 33.01 91.25 c
423 0 p
136.35 0 165.22 -19.85 169.2 -115.04 c
46.78 0 0 283.93 -46.82 0 p
-3.98 -94.91 -32.87 -114.88 -169.36 -114.88 c
-369.61 0 599.81 445.09 0 41.92 -516.68 0 p
-136.39 0 -165.26 19.83 -169.31 115.05 c
-47.01 0 0 -283.94 ^ p
4.07 94.9 32.93 114.88 169.25 114.88 c
312.44 0 h
f
888.98 12988 m
0 -121.42 108.66 -216.97 248.07 -216.97 c
136.42 0 245.96 95.55 245.96 214.98 c
0 119.43 -109.54 215.03 -246.95 215.03 c
-136.42 0 -247.07 -95.59 -247.07 -213.04 c
h
931.99 12988 m
0 69.34 72.68 108.04 204.03 108.04 c
132.34 0 203.98 -38.69 203.98 -110.02 c
0 -71.33 -71.64 -109.96 -202.99 -109.96 c
-135.32 0 -205.02 37.64 -205.02 111.94 c
h
f
904.02 13434 10.95 -176.09 42.8 0 0 40.55 P
0 36.59 6.97 42.53 49.77 42.53 c
277.69 0 p
39.81 0 46.78 -10.88 46.78 -75.14 c
0 -3.95 36 0 0 266 ^ 0 -19 p
0 -63.92 -6.97 -74.9 -46.8 -74.9 c
-49.79 0 p
-74.68 0 -150.36 13.97 -207.12 38.92 c
-55.76 23.95 -86.63 57.88 -91.67 99.81 c
15.91 -13.8 25.85 -17.75 44.73 -17.75 c
31.8 0 54.66 23 54.66 55.01 c
0 36 -26.82 61.01 -67.55 61.01 c
-47.68 0 -79.48 -34.02 -79.48 -87.02 c
0 -63 50.87 -117.99 138.45 -149.98 c
h
f
904.02 13877 10.95 -177.09 42.8 0 0 40.54 P
0 36.58 6.97 42.54 49.77 42.54 c
276.69 0 p
40.81 0 47.78 -10.87 47.78 -74.14 c
0 -3.95 36 0 0 251.06 ^ 0 -4.02 p
0 -63.95 -6.96 -74.94 -47.74 -74.94 c
-180.01 0 p
-88.52 0 -154.25 48.75 -154.25 113.43 c
0 25.87 14.01 53.73 32.91 65.67 c
18.9 13.93 47.74 19.91 88.52 19.91 c
213.83 0 p
39.79 0 46.75 -10.91 46.75 -75.25 c
0 -3.96 36 0 0 252.05 ^ 0 -4 p
0 -63.86 -6.96 -74.83 -46.75 -74.83 c
-172.05 0 p
-99.46 0 -163.2 44.75 -163.2 114.37 c
0 32.82 18.98 59.68 49.82 72.6 c
21.88 8.95 43.76 11.98 82.54 11.98 c
202.89 0 p
39.79 0 46.75 -10.9 46.75 -75.31 c
0 -3.96 36 0 0 252.05 ^ 0 -3.99 p
0 -63.81 -6.97 -74.78 -47.78 -74.78 c
-221.95 0 p
-61.71 0 -82.61 -6.02 -116.45 -31.93 c
-36.82 -28.9 -56.84 -69.75 -56.84 -117.59 c
0 -64.77 30.84 -112.61 99.44 -155.46 c
-59.66 -16.94 -99.44 -70.75 -99.44 -137.52 c
0 -59.79 28.97 -104.63 91.68 -143.5 c
h
f
1047.24 15016 m
-62.7 0 -94.55 -11.03 -118.44 -39.87 c
-25.88 -32.82 -39.82 -81.55 -39.82 -145.2 c
0 -111.39 52.78 -193.94 124.43 -193.94 c
37.81 0 61.69 23 61.69 58.01 c
0 31 -20.86 54.01 -50.67 54.01 c
-12.92 0 -26.83 -5.14 -40.74 -15.41 c
-6.95 -6.16 -9.93 -7.19 -12.91 -7.19 c
-20.87 0 -38.79 40.7 -38.79 88.34 c
0 30.77 10 65.51 24.93 81.39 c
15.93 18.86 39.82 25.85 84.62 25.85 c
38.82 0 p
17.92 -104.36 25.89 -136.14 44.8 -184.81 c
31.86 -85.43 78.65 -127.15 141.36 -127.15 c
70.69 0 116.48 56.85 116.48 144.63 c
0 68.82 -27.92 130.67 -78.77 173.56 c
50.81 15.96 70.73 40.9 70.73 87.79 c
0 44.49 -29.49 90.97 -59.01 90.97 c
-5.98 0 -10.96 -5 -10.96 -10 c
0 -4 1 -8 3.98 -14.99 c
5.98 -16 6.97 -19.99 6.97 -27.99 c
0 -27.99 -18.91 -37.98 -68.67 -37.98 c
h
1168.72 14922 m
59.73 0 73.67 -3.01 99.55 -19.84 c
36.83 -24.75 61.72 -70.3 61.72 -112.88 c
0 -44.56 -32.85 -78.22 -77.65 -78.22 c
-41.81 0 -71.68 20.79 -92.58 64.36 c
-13.94 30.7 -23.89 69.31 -36.85 146.59 c
h
f
633.75 15319 10.99 -184.06 42.83 0 0 48.48 P
0 35.62 6.97 41.56 49.8 41.56 c
547.81 0 p
39.84 0 46.81 -10.88 46.81 -74.16 c
0 -6.92 36 0 0 258.03 ^ 0 -7 p
0 -64.95 -6.97 -75.94 -46.81 -75.94 c
-39.84 0 h
f
903.74 15631 11.02 -187.05 42.82 0 0 50.47 P
0 36.62 6.98 42.56 49.79 42.56 c
277.82 0 p
39.83 0 46.8 -10.88 46.8 -74.16 c
0 -6.92 36 0 0 258.04 ^ 0 -7 p
0 -64.95 -6.97 -75.94 -46.8 -75.94 c
-39.83 0 h
655.98 15584.4 m
0 -31.88 26 -57.79 58.01 -57.79 c
31 0 58.01 25.91 58.01 56.79 c
0 32.88 -26 58.78 -58.01 58.78 c
-32 0 -58.01 -25.9 -58.01 -57.78 c
h
f
893.03 16124.5 0 -34.9 35.62 -28.87 P
-27.76 -35.84 -39.66 -71.68 -39.66 -121.45 c
0 -87.61 57.79 -145.35 144.39 -145.35 c
38.83 0 71.68 12.95 91.59 34.88 c
20.91 22.92 30.86 45.84 44.8 105.63 c
11.95 52.82 p
18.92 78.72 38.83 106.68 78.64 106.68 c
46.79 0 79.64 -40.9 79.64 -99.73 c
0 -83.77 -53.75 -143.6 -153.32 -167.54 c
0 -39.89 188.29 0 0 34.92 -40.84 34.92 p
32.92 40.91 48.88 86.8 48.88 136.69 c
0 97.78 -60.73 162.64 -153.31 162.64 c
-43.8 0 -77.65 -14.02 -100.55 -41.92 c
-20.9 -23.92 -28.87 -43.85 -41.81 -104.64 c
-10.95 -49.82 p
-11.95 -54.8 -11.95 -54.8 -21.9 -72.74 c
-9.95 -21.93 -30.86 -34.87 -52.76 -34.87 c
-39.82 0 -68.73 37.79 -68.73 92.49 c
0 37.79 12.93 68.63 39.75 96.47 c
21.86 21.88 41.72 32.82 87.41 48.73 c
0 34.87 h
f
1144.01 16659.2 m
-149.4 1.01 -255.02 -83.71 -255.02 -205.2 c
0 -127.46 110.65 -223.05 260.02 -223.05 c
139.41 0 234.01 90.61 234.01 225.04 c
0 94.6 -46.83 162.31 -141.5 203.23 c
-18.96 -34.87 p
76.61 -40.85 106.45 -82.69 106.45 -149.44 c
0 -50.81 -21.88 -87.67 -65.64 -113.57 c
-29.84 -17.93 -64.64 -25.9 -119.35 -24.37 c
h
1101 16337 m
-30.81 0 -52.68 3.99 -80.52 13.97 c
-59.64 20.96 -88.49 52.9 -88.49 100.82 c
0 60.89 52.7 100.86 132.23 100.86 c
28.83 0 36.78 -9.03 36.78 -40.97 c
h
f
1375.04 17073 -6.97 174.96 -42.84 0 0 -18 P
0 -53.95 -9.96 -61.95 -72.73 -61.95 c
-618.74 0 10.96 -195.02 42.84 0 0 57.83 p
0 35.29 6.97 42.17 49.81 42.17 c
225.16 0 p
-50.67 -36.67 -73.54 -79.28 -73.54 -136.75 c
0 -111.97 108.66 -197.19 252.05 -197.19 c
141.4 0 241.97 82.24 241.97 197.19 c
0 62.43 -26.9 105.04 -86.68 136.75 c
h
942.99 16957 m
0 40.63 29.87 79.27 75.63 97.11 c
29.84 11.89 71.63 18.85 119.38 18.85 c
115.4 0 191 -45.61 191 -116.95 c
0 -69.36 -65.65 -111.97 -176.07 -111.97 c
-58.7 0 -103.46 5.94 -137.29 18.82 c
-43.77 16.85 -72.64 53.51 -72.64 94.14 c
h
f
1221.55 17941.6 m
71.61 -31.82 100.45 -65.62 100.45 -117.33 c
0 -79.54 -72.62 -129.26 -189.01 -129.26 c
-120.37 0 -201 48.66 -201 122.15 c
0 29.79 13.94 55.65 29.84 55.65 c
2.98 0 5.96 -1.99 11.93 -5.96 c
18.88 -15.9 28.81 -19.87 45.7 -19.87 c
32.79 0 55.64 25 55.64 60.01 c
0 35 -27.86 61.01 -67.66 61.01 c
-66.67 0 -118.45 -66.85 -118.45 -155.61 c
0 -129.64 106.67 -222.38 255.04 -222.38 c
141.4 0 238.99 84.64 238.99 208.12 c
0 88.62 -40.86 139.41 -146.49 182.3 c
h
f
888.98 18247 m
0 -121.42 108.66 -216.97 248.07 -216.97 c
136.42 0 245.96 95.55 245.96 214.98 c
0 119.43 -109.54 215.03 -246.95 215.03 c
-136.42 0 -247.07 -95.59 -247.07 -213.04 c
h
931.99 18247 m
0 69.34 72.68 108.04 204.03 108.04 c
132.34 0 203.98 -38.69 203.98 -110.02 c
0 -71.33 -71.64 -109.96 -202.99 -109.96 c
-135.32 0 -205.02 37.64 -205.02 111.94 c
h
f
1375.04 18906 -6.97 181.81 -42.84 0 0 -24.96 P
0 -54.86 -8.96 -62.84 -72.73 -62.84 c
-348.75 0 10.98 -187.17 42.82 0 0 50.53 p
0 36.67 6.97 42.63 49.79 42.63 c
122.48 0 p
56.75 0 89.62 -5.99 122.48 -20.92 c
43.82 -20.89 69.7 -60.7 69.7 -109.45 c
0 -30.85 -10.95 -56.72 -30.87 -69.66 c
-18.92 -12.93 -28.87 -14.92 -83.64 -14.92 c
-303.74 0 11.02 -174.1 42.84 0 0 37.56 p
0 36.57 6.98 42.52 49.81 42.52 c
215.2 0 p
50.81 0 73.72 3.98 96.64 18.93 c
40.85 26.9 63.76 74.73 63.76 134.53 c
0 65.77 -26.9 111.61 -90.66 155.5 c
h
f
904.02 19305 10.95 -172.11 42.8 0 0 35.59 P
0 36.57 6.97 42.5 49.77 42.5 c
277.69 0 p
39.81 0 46.78 -10.87 46.78 -74.14 c
0 -3.95 36 0 0 252.05 ^ 0 -4.01 p
0 -64.95 -6.96 -75.94 -46.75 -75.94 c
-143.21 0 p
-48.73 0 -93.49 6.96 -116.36 17.91 c
-44.75 20.9 -75.68 65.69 -75.68 108.49 c
0 25.88 15.01 55.73 34.9 70.66 c
20.89 14.93 51.71 21.93 99.45 21.93 c
200.9 0 p
39.79 0 46.75 -10.9 46.75 -75.31 c
0 -3.96 36 0 0 252.05 ^ 0 -3.99 p
0 -63.81 -6.97 -74.78 -46.78 -74.78 c
-196.07 0 p
-71.66 0 -89.57 -3.03 -123.42 -20.96 c
-47.77 -24.92 -76.74 -75.75 -76.74 -134.56 c
0 -63.79 29.96 -113.63 95.66 -157.48 c
h
f
903.99 19909 -197.51 0 0 -40.8 P
129.71 -9.95 195.55 -53.72 201.53 -134.3 c
38.98 0 0 81.08 253.88 0 p
69.67 0 94.55 2 117.45 11.98 c
41.8 15.98 64.69 55.92 64.69 113.82 c
0 38.94 -11.96 72.89 -33.88 95.85 c
-31.89 32.95 -84.7 51.94 -139.51 51.94 c
-5.98 0 -12.95 0 -22.94 -1.03 c
0 -41.89 p
89.56 -2.99 135.32 -28.93 135.32 -77.8 c
0 -22.94 -11.93 -42.89 -28.84 -49.87 c
-13.93 -5.98 -38.79 -8.97 -74.59 -8.97 c
-271.57 0 0 146.7 -43 0 h
f
893.03 20494.5 0 -34.9 35.62 -28.87 P
-27.76 -35.84 -39.66 -71.68 -39.66 -121.45 c
0 -87.61 57.79 -145.35 144.39 -145.35 c
38.83 0 71.68 12.95 91.59 34.88 c
20.91 22.92 30.86 45.84 44.8 105.63 c
11.95 52.82 p
18.92 78.72 38.83 106.68 78.64 106.68 c
46.79 0 79.64 -40.9 79.64 -99.73 c
0 -83.77 -53.75 -143.6 -153.32 -167.54 c
0 -39.89 188.29 0 0 34.92 -40.84 34.92 p
32.92 40.91 48.88 86.8 48.88 136.69 c
0 97.78 -60.73 162.64 -153.31 162.64 c
-43.8 0 -77.65 -14.02 -100.55 -41.92 c
-20.9 -23.92 -28.87 -43.85 -41.81 -104.64 c
-10.95 -49.82 p
-11.95 -54.8 -11.95 -54.8 -21.9 -72.74 c
-9.95 -21.93 -30.86 -34.87 -52.76 -34.87 c
-39.82 0 -68.73 37.79 -68.73 92.49 c
0 37.79 12.93 68.63 39.75 96.47 c
21.86 21.88 41.72 32.82 87.41 48.73 c
0 34.87 h
f
6077 23781 0 -252.18 P
0 -41.85 -8.98 -46.83 -89.82 -46.83 c
-17.96 0 0 -47.01 326.77 0 ^ -17.84 0 p
-80.23 0 -89.14 4.97 -89.14 46.77 c
0 531.36 p
0 41.79 8.91 46.86 89.14 46.86 c
17.84 0 0 47.01 -322.79 0 ^ 13.97 0 p
80.84 0 89.83 -5.01 89.83 -46.69 c
0 -225.27 -334 0 ^ p
0 41.68 8.97 46.69 89.71 46.69 c
18.95 0 0 47.01 -327.77 0 ^ 17.85 0 p
80.32 0 89.25 -5.06 89.25 -46.86 c
0 -531.36 p
0 -41.79 -8.93 -46.77 -89.25 -46.77 c
-17.85 0 0 -47.01 327.77 0 ^ -18.95 0 p
-80.74 0 -89.71 4.98 -89.71 46.83 c
0 252.18 h
f
6961.51 24161 -37.84 0 -39.83 -58.53 P
-70.7 51.8 -109.53 66.75 -176.25 66.75 c
-96.59 0 -176.25 -38.92 -243.96 -119.61 c
-63.73 -75.71 -93.6 -159.4 -93.6 -262.02 c
0 -214.2 140.4 -367.62 336.57 -367.62 c
159.32 0 260.89 93.65 283.91 261.02 c
-46.91 8.03 p
-9.96 -52.8 -21.93 -88.65 -39.87 -118.51 c
-40.86 -68.69 -104.66 -103.54 -185.39 -103.54 c
-147.52 0 -217.29 102.54 -217.29 316.58 c
0 112.5 14.95 188.16 48.84 247.89 c
30.9 55.75 92.7 90.59 156.49 90.59 c
69.77 0 131.57 -36.83 169.45 -100.55 c
18.94 -32.86 33.89 -71.68 56.82 -148.34 c
43.92 0 h
f
7675.64 24154 -596.77 0 -14.94 -276.65 42.84 0 P
6.97 49.7 15.94 87.48 26.9 119.29 c
25.9 72.57 73.72 110.36 141.47 110.36 c
32.88 0 46.82 -11.04 46.82 -35.91 c
0 -542.3 p
0 -41.79 -8.96 -46.77 -89.66 -46.77 c
-25.9 0 0 -47.01 341.72 0 ^ -25.81 0 p
-79.39 0 -88.32 4.97 -88.32 46.77 c
0 542.3 p
0 24.88 13.92 35.91 46.74 35.91 c
60.66 0 109.4 -33.81 134.27 -93.46 c
14.91 -36.78 24.86 -79.53 32.82 -136.19 c
42.77 0 h
f
7813.44 23546 m
-34.87 0 -62.76 -28 -62.76 -62.01 c
0 -35 27.89 -63.01 61.77 -63.01 c
34.87 0 62.77 28.01 62.77 63.01 c
0 34 -27.89 62.01 -61.77 62.01 c
h
7813.44 23906 m
-34.87 0 -62.76 -28 -62.76 -62.01 c
0 -35 27.89 -63.01 61.77 -63.01 c
34.87 0 62.77 28 62.77 63.01 c
0 34.01 -27.89 62.01 -61.77 62.01 c
h
f
8448.11 23650.2 -43.84 0 -9.96 -50.67 P
-12.95 -63.56 -20.92 -70.51 -82.69 -70.51 c
-223.16 0 p
68.71 71.64 91.61 92.54 155.34 142.29 c
90.62 69.65 129.45 104.48 152.36 134.33 c
31.86 43.78 47.85 88.56 47.85 136.32 c
0 112.44 -94.59 194.04 -224.02 194.04 c
-126.43 0 -223.99 -81.63 -223.99 -187.08 c
0 -62.68 31.78 -105.45 79.45 -105.45 c
36.74 0 61.57 24.85 61.57 60.64 c
0 24.85 -13.91 47.71 -35.75 56.66 c
-36.73 15.91 -38.71 16.9 -38.71 29.82 c
0 14.91 9.94 37.77 23.86 54.67 c
24.85 29.82 66.6 47.73 113.32 47.73 c
81.52 0 131.25 -50.86 131.25 -134.47 c
0 -73.65 -34.85 -140.34 -117.39 -227.92 c
-58.68 -61.71 -77.57 -83.6 p
-35.81 -41.8 -53.71 -64.7 -97.46 -122.42 c
0 -27.87 449.31 0 h
f
8777.94 24136 m
-139.41 0 -240.97 -152.39 -240.97 -360.51 c
0 -205.13 98.58 -355.49 233.01 -355.49 c
139.41 0 237.04 145.38 237.04 352.5 c
0 105.55 -21.95 193.18 -63.77 261.89 c
-38.84 62.73 -102.57 101.61 -165.3 101.61 c
h
8770.98 24093 m
32.73 0 64.47 -22.02 88.28 -61.82 c
26.79 -45.77 35.75 -104.48 35.75 -240.8 c
0 -139.31 -6.98 -204.98 -26.82 -248.76 c
-22.81 -48.76 -58.52 -78.61 -96.21 -78.61 c
-32.73 0 -64.47 21.89 -88.28 61.69 c
-27.77 46.77 -35.71 109.46 -35.71 271.65 c
0 115.43 6.94 174.13 26.78 216.92 c
22.82 50.75 58.52 79.73 96.21 79.73 c
h
f
9327.94 24136 m
-139.41 0 -240.97 -152.39 -240.97 -360.51 c
0 -205.13 98.58 -355.49 233.01 -355.49 c
139.41 0 237.04 145.38 237.04 352.5 c
0 105.55 -21.95 193.18 -63.77 261.89 c
-38.84 62.73 -102.57 101.61 -165.3 101.61 c
h
9320.98 24093 m
32.73 0 64.47 -22.02 88.28 -61.82 c
26.79 -45.77 35.75 -104.48 35.75 -240.8 c
0 -139.31 -6.98 -204.98 -26.82 -248.76 c
-22.81 -48.76 -58.52 -78.61 -96.21 -78.61 c
-32.73 0 -64.47 21.89 -88.28 61.69 c
-27.77 46.77 -35.71 109.46 -35.71 271.65 c
0 115.43 6.94 174.13 26.78 216.92 c
22.82 50.75 58.52 79.73 96.21 79.73 c
h
f
9967.6 23823.3 m
74.59 40.83 109.4 89.62 109.4 154.35 c
0 91.61 -83.64 158.37 -198.08 158.37 c
-121.39 0 -209.95 -80.66 -209.95 -190.16 c
0 -42.81 15.9 -87.61 43.73 -118.47 c
16.89 -19.91 32.8 -30.86 68.6 -49.78 c
-43.81 -16.93 -62.72 -26.88 -84.62 -44.8 c
-38.81 -31.86 -60.71 -79.64 -60.71 -130.42 c
0 -53.76 26.88 -107.51 68.71 -139.37 c
38.83 -28 92.61 -43.01 156.34 -43.01 c
73.69 0 135.43 19.91 176.25 56.76 c
42.82 36.85 68.75 97.59 68.75 158.33 c
0 56.75 -21.91 107.54 -62.74 143.39 c
-19.91 16.93 -37.84 27.88 -75.68 44.81 c
h
9861.07 23862.3 m
-80.36 29.82 -115.09 67.6 -115.09 125.25 c
0 62.63 51.59 105.39 129.96 105.39 c
76.4 0 127.04 -48.73 127.04 -121.3 c
0 -51.7 -19.89 -85.49 -76.44 -133.2 c
h
9918.69 23724.9 m
75.52 -26.89 107.32 -65.72 107.32 -131.45 c
0 -79.66 -62.61 -130.45 -159.97 -130.45 c
-92.41 0 -147.05 51.78 -147.05 139.41 c
0 74.69 30.8 119.5 108.3 155.38 c
h
f
10427.9 24136 m
-139.41 0 -240.97 -152.39 -240.97 -360.51 c
0 -205.13 98.58 -355.49 233.01 -355.49 c
139.41 0 237.04 145.38 237.04 352.5 c
0 105.55 -21.95 193.18 -63.77 261.89 c
-38.84 62.73 -102.57 101.61 -165.3 101.61 c
h
10421 24093 m
32.73 0 64.47 -22.02 88.28 -61.82 c
26.79 -45.77 35.75 -104.48 35.75 -240.8 c
0 -139.31 -6.98 -204.98 -26.82 -248.76 c
-22.81 -48.76 -58.52 -78.61 -96.21 -78.61 c
-32.73 0 -64.47 21.89 -88.28 61.69 c
-27.77 46.77 -35.71 109.46 -35.71 271.65 c
0 115.43 6.94 174.13 26.78 216.92 c
22.82 50.75 58.52 79.73 96.21 79.73 c
h
f
11097.5 23780.7 m
-12.95 -120.54 -17.93 -150.41 -35.87 -201.2 c
-25.9 -73.69 -80.7 -116.5 -147.45 -116.5 c
-32.88 0 -55.79 9.96 -55.79 24.89 c
0 3.98 2.06 8.96 6.18 16.93 c
12.36 23.89 14.43 29.86 14.43 43.8 c
0 32.85 -26 58.74 -59.01 58.74 c
-38.01 0 -68.01 -31.91 -68.01 -71.77 c
0 -65.77 69.68 -115.59 161.27 -115.59 c
90.59 0 168.25 40.82 217.03 114.51 c
48.78 73.69 75.75 170.28 75.75 272.84 c
0 200.15 -95.64 328.65 -244.01 328.65 c
-127.46 0 -228.03 -105.55 -228.03 -239.94 c
0 -118.47 83.64 -206.07 197.16 -206.07 c
70.7 0 112.52 22.92 166.35 90.72 c
h
10966 24093 m
73.4 0 122.02 -73.61 122.02 -184.94 c
0 -40.76 -7.95 -77.54 -22.82 -100.4 c
-22.82 -35.79 -61.5 -57.65 -104.15 -57.65 c
-75.39 0 -118.04 58.64 -118.04 164.02 c
0 47.71 10.91 94.43 29.75 124.26 c
22.81 38.77 49.6 54.72 93.24 54.72 c
h
f
11565.8 24136 m
-33.87 -40.44 -125.53 -71.01 -217.18 -72.98 c
0 -43.01 87.63 0 p
57.75 0 61.75 -4.01 61.75 -62.79 c
0 -428.39 p
0 -41.84 -8.98 -46.82 -88.64 -46.82 c
-64.72 0 0 -47.01 394.52 0 ^ -54.68 0 p
-52.68 0 -74.55 3.98 -82.51 13.93 c
-6.96 6.97 -6.96 6.97 -6.96 61.71 c
0 411.05 p
0 48.77 1.9 96.54 6.66 167.29 c
h
f
12161.6 24136 -338.73 -470.98 0 -56.01 280.07 0 0 -80.37 P
0 -41.67 -8.98 -46.63 -89.77 -46.63 c
-10.97 0 0 -47.01 290.91 0 ^ -3.96 0 p
-80.27 0 -89.18 4.96 -89.18 46.63 c
0 80.37 120.05 0 0 56.01 ^ 0 271.78 p
0 124.45 0 124.45 4.48 199.21 c
h
12103 23665 -219.3 0 219.3 301.99 H
f
cleartomark end end pagesave restore
 showpage
%%PageTrailer
%%Trailer
cleartomark
countdictstack
exch sub { end } repeat
restore
%%Pages: 1
%%EOF
