%!PS-Adobe-3.0 EPSF-3.0
%%Title: JHK_CC.eps
%%Creator: matplotlib version 1.1.0, http://matplotlib.sourceforge.net/
%%CreationDate: Sun May 12 19:13:47 2013
%%Orientation: portrait
%%BoundingBox: 140 231 471 560
%%EndComments
%%BeginProlog
/mpldict 8 dict def
mpldict begin
/m { moveto } bind def
/l { lineto } bind def
/r { rlineto } bind def
/c { curveto } bind def
/cl { closepath } bind def
/box {
m
1 index 0 r
0 exch r
neg 0 r
cl
} bind def
/clipbox {
box
clip
newpath
} bind def
%!PS-Adobe-3.0 Resource-Font
%%Title: Bitstream Vera Serif
%%Copyright: Copyright (c) 2003 by Bitstream, Inc. All Rights Reserved.
%%Creator: Converted from TrueType to type 3 by PPR
25 dict begin
/_d{bind def}bind def
/_m{moveto}_d
/_l{lineto}_d
/_cl{closepath eofill}_d
/_c{curveto}_d
/_sc{7 -1 roll{setcachedevice}{pop pop pop pop pop pop}ifelse}_d
/_e{exec}_d
/FontName /BitstreamVeraSerif-Roman def
/PaintType 0 def
/FontMatrix[.001 0 0 .001 0 0]def
/FontBBox[-183 -236 1287 928]def
/FontType 3 def
/Encoding [ /space /parenleft /parenright /hyphen /period /zero /one /two /three /five /seven /eight /nine /A /C /H /I /J /K /M /O /R /S /T /c /t ] def
/FontInfo 10 dict dup begin
/FamilyName (Bitstream Vera Serif) def
/FullName (Bitstream Vera Serif) def
/Notice (Copyright (c) 2003 by Bitstream, Inc. All Rights Reserved. Bitstream Vera is a trademark of Bitstream, Inc.) def
/Weight (Roman) def
/Version (Release 1.10) def
/ItalicAngle 0.0 def
/isFixedPitch false def
/UnderlinePosition -213 def
/UnderlineThickness 133 def
end readonly def
/CharStrings 26 dict dup begin
/space{318 0 0 0 0 0 _sc
}_d
/parenleft{390 0 79 -155 319 760 _sc
319 -155 _m
239 -119 179 -63 139 13 _c
99 89 79 186 79 302 _c
79 418 99 514 139 591 _c
179 668 239 724 319 760 _c
319 712 _l
269 677 233 628 211 566 _c
189 503 178 415 178 302 _c
178 188 189 100 211 38 _c
233 -24 269 -72 319 -107 _c
319 -155 _l
_cl}_d
/parenright{390 0 71 -155 311 760 _sc
71 -155 _m
71 -107 _l
121 -72 157 -24 179 38 _c
201 100 212 188 212 302 _c
212 415 201 503 179 566 _c
157 628 121 677 71 712 _c
71 760 _l
150 724 210 668 250 591 _c
290 514 311 418 311 302 _c
311 186 290 89 250 13 _c
210 -63 150 -119 71 -155 _c
_cl}_d
/hyphen{338 0 44 230 294 306 _sc
44 306 _m
294 306 _l
294 230 _l
44 230 _l
44 306 _l
_cl}_d
/period{318 0 94 -13 224 116 _sc
94 51 _m
94 69 100 84 112 97 _c
124 109 140 116 159 116 _c
177 116 192 109 205 97 _c
217 84 224 69 224 51 _c
224 33 217 17 205 5 _c
192 -7 177 -13 159 -13 _c
140 -13 124 -7 112 5 _c
100 17 94 32 94 51 _c
_cl}_d
/zero{636 0 66 -13 570 742 _sc
318 34 _m
368 34 405 61 430 116 _c
454 170 467 253 467 364 _c
467 474 454 557 430 612 _c
405 666 368 694 318 694 _c
268 694 230 666 206 612 _c
181 557 169 474 169 364 _c
169 253 181 170 206 116 _c
230 61 268 34 318 34 _c
318 -13 _m
238 -13 176 20 132 86 _c
88 152 66 244 66 364 _c
66 483 88 576 132 642 _c
176 708 238 742 318 742 _c
397 742 459 708 503 642 _c
547 576 570 483 570 364 _c
570 244 547 152 503 86 _c
459 20 397 -13 318 -13 _c
_cl}_d
/one{636 0 122 0 494 742 _sc
142 0 _m
142 52 _l
269 52 _l
269 658 _l
122 563 _l
122 627 _l
300 742 _l
367 742 _l
367 52 _l
494 52 _l
494 0 _l
142 0 _l
_cl}_d
/two{{636 0 68 0 538 742 _sc
128 555 _m
73 555 _l
73 685 _l
107 703 142 717 178 727 _c
213 737 248 742 282 742 _c
358 742 418 723 462 687 _c
506 650 528 600 528 537 _c
528 465 478 380 378 281 _c
370 273 365 268 361 264 _c
177 80 _l
481 80 _l
481 170 _l
538 170 _l
538 0 _l
68 0 _l
68 53 _l
289 274 _l
337 322 372 367 393 408 _c
414 449 425 492 425 537 _c
425 586 412 624 386 652 _c
360 680 325 694 281 694 _c
234 694 198 682 173 659 _c
147 636 132 601 128 555 _c
_cl}_e}_d
/three{{636 0 76 -13 562 742 _sc
97 698 _m
135 712 171 723 206 731 _c
241 738 274 742 305 742 _c
376 742 432 726 472 696 _c
512 665 532 622 532 568 _c
532 524 518 487 490 458 _c
462 428 423 408 373 398 _c
433 389 479 367 512 332 _c
545 297 562 252 562 197 _c
562 129 539 77 493 41 _c
447 5 382 -13 296 -13 _c
258 -13 220 -9 184 -1 _c
148 6 112 18 76 35 _c
76 177 _l
131 177 _l
134 129 150 94 178 70 _c
206 46 246 34 298 34 _c
348 34 387 48 416 77 _c
444 106 459 146 459 196 _c
459 253 444 296 414 326 _c
384 355 341 370 284 370 _c
238 370 _l
238 420 _l
262 420 _l
319 420 362 431 390 455 _c
418 479 433 514 433 562 _c
}_e{433 604 421 637 398 660 _c
374 682 341 694 297 694 _c
253 694 218 683 194 662 _c
170 641 156 610 152 570 _c
97 570 _l
97 698 _l
_cl}_e}_d
/five{{636 0 85 -13 559 729 _sc
503 729 _m
503 649 _l
169 649 _l
169 440 _l
185 452 205 460 228 466 _c
250 472 276 475 304 475 _c
382 475 444 453 490 409 _c
536 365 559 306 559 231 _c
559 153 536 93 490 51 _c
444 8 379 -13 296 -13 _c
262 -13 228 -9 193 -1 _c
157 6 121 18 85 35 _c
85 177 _l
140 177 _l
143 130 158 94 184 70 _c
210 46 248 34 296 34 _c
347 34 386 51 414 85 _c
442 119 456 167 456 231 _c
456 294 442 342 415 376 _c
387 410 348 427 296 427 _c
266 427 240 421 218 411 _c
196 401 176 385 159 363 _c
117 363 _l
117 729 _l
503 729 _l
_cl}_e}_d
/seven{636 0 84 0 564 729 _sc
564 679 _m
279 0 _l
206 0 _l
478 649 _l
141 649 _l
141 559 _l
84 559 _l
84 729 _l
564 729 _l
564 679 _l
_cl}_d
/eight{{636 0 67 -13 569 742 _sc
466 199 _m
466 251 453 291 427 320 _c
401 349 364 364 318 364 _c
271 364 235 349 209 320 _c
183 291 170 251 170 199 _c
170 147 183 106 209 77 _c
235 48 271 34 318 34 _c
364 34 401 48 427 77 _c
453 106 466 147 466 199 _c
393 388 _m
448 380 491 360 522 327 _c
553 293 569 251 569 199 _c
569 131 547 78 504 42 _c
460 5 398 -13 318 -13 _c
237 -13 175 5 132 42 _c
88 78 67 131 67 199 _c
67 251 82 293 113 327 _c
144 360 187 380 243 388 _c
193 396 156 415 130 444 _c
104 472 91 509 91 553 _c
91 611 111 657 151 691 _c
191 725 247 742 318 742 _c
388 742 444 725 484 691 _c
524 657 545 611 545 553 _c
545 509 531 472 505 444 _c
479 415 441 396 393 388 _c
}_e{446 553 _m
446 597 434 632 412 657 _c
389 681 358 694 318 694 _c
278 694 246 681 224 657 _c
201 632 190 597 190 553 _c
190 508 201 473 224 449 _c
246 424 278 412 318 412 _c
358 412 389 424 412 449 _c
434 473 446 508 446 553 _c
_cl}_e}_d
/nine{{636 0 63 -13 569 742 _sc
468 327 _m
446 302 420 284 392 272 _c
364 260 332 254 297 254 _c
224 254 167 275 125 319 _c
83 363 63 422 63 498 _c
63 572 85 631 131 675 _c
176 719 237 742 313 742 _c
395 742 459 711 503 650 _c
547 588 569 501 569 387 _c
569 259 542 161 490 91 _c
438 21 364 -13 269 -13 _c
243 -13 216 -10 188 -6 _c
160 -2 131 5 101 15 _c
101 136 _l
156 136 _l
160 103 172 78 194 60 _c
215 42 243 34 279 34 _c
342 34 389 57 420 105 _c
450 153 466 227 468 327 _c
309 694 _m
263 694 227 677 203 643 _c
178 609 166 561 166 498 _c
166 434 178 386 203 352 _c
227 318 263 302 309 302 _c
355 302 390 318 415 351 _c
439 383 452 430 452 492 _c
}_e{452 556 439 606 415 641 _c
390 676 355 694 309 694 _c
_cl}_e}_d
/A{722 0 -5 0 732 729 _sc
200 264 _m
468 264 _l
334 611 _l
200 264 _l
-5 0 _m
-5 52 _l
58 52 _l
318 729 _l
400 729 _l
660 52 _l
732 52 _l
732 0 _l
467 0 _l
467 52 _l
548 52 _l
487 212 _l
180 212 _l
119 52 _l
199 52 _l
199 0 _l
-5 0 _l
_cl}_d
/C{{765 0 56 -13 705 742 _sc
705 193 _m
683 125 647 73 597 39 _c
546 4 482 -13 405 -13 _c
357 -13 312 -5 272 11 _c
231 27 195 50 164 82 _c
127 118 100 160 82 206 _c
64 252 56 305 56 364 _c
56 477 88 568 154 638 _c
219 707 305 742 413 742 _c
453 742 495 736 540 726 _c
584 716 633 700 685 679 _c
685 511 _l
630 511 _l
618 572 593 617 557 646 _c
521 675 470 690 405 690 _c
327 690 268 662 228 607 _c
188 551 168 470 168 364 _c
168 257 188 176 228 121 _c
268 65 327 38 405 38 _c
459 38 503 51 539 77 _c
574 103 599 141 615 193 _c
705 193 _l
_cl}_e}_d
/H{{872 0 55 0 817 729 _sc
55 0 _m
55 52 _l
148 52 _l
148 677 _l
55 677 _l
55 729 _l
340 729 _l
340 677 _l
247 677 _l
247 425 _l
625 425 _l
625 677 _l
532 677 _l
532 729 _l
817 729 _l
817 677 _l
724 677 _l
724 52 _l
817 52 _l
817 0 _l
532 0 _l
532 52 _l
625 52 _l
625 365 _l
247 365 _l
247 52 _l
340 52 _l
340 0 _l
55 0 _l
_cl}_e}_d
/I{395 0 55 0 340 729 _sc
247 52 _m
340 52 _l
340 0 _l
55 0 _l
55 52 _l
148 52 _l
148 677 _l
55 677 _l
55 729 _l
340 729 _l
340 677 _l
247 677 _l
247 52 _l
_cl}_d
/J{401 0 -83 -207 355 729 _sc
-83 -174 _m
-83 -59 _l
-27 -59 _l
-26 -91 -19 -115 -5 -131 _c
9 -147 30 -155 59 -155 _c
97 -155 124 -142 140 -118 _c
155 -94 163 -46 163 24 _c
163 677 _l
50 677 _l
50 729 _l
355 729 _l
355 677 _l
262 677 _l
262 20 _l
262 -60 246 -117 214 -153 _c
182 -189 130 -207 58 -207 _c
34 -207 11 -204 -12 -198 _c
-35 -192 -59 -184 -83 -174 _c
_cl}_d
/K{747 0 55 0 762 729 _sc
55 0 _m
55 52 _l
148 52 _l
148 677 _l
55 677 _l
55 729 _l
340 729 _l
340 677 _l
247 677 _l
247 401 _l
561 677 _l
482 677 _l
482 729 _l
724 729 _l
724 677 _l
642 677 _l
329 402 _l
679 52 _l
762 52 _l
762 0 _l
593 0 _l
247 346 _l
247 52 _l
340 52 _l
340 0 _l
55 0 _l
_cl}_d
/M{1024 0 50 0 973 729 _sc
55 0 _m
55 52 _l
148 52 _l
148 677 _l
50 677 _l
50 729 _l
262 729 _l
518 210 _l
774 729 _l
973 729 _l
973 677 _l
876 677 _l
876 52 _l
969 52 _l
969 0 _l
684 0 _l
684 52 _l
777 52 _l
777 615 _l
527 107 _l
458 107 _l
208 615 _l
208 52 _l
301 52 _l
301 0 _l
55 0 _l
_cl}_d
/O{{820 0 56 -13 764 742 _sc
410 38 _m
490 38 550 65 591 120 _c
631 175 652 256 652 364 _c
652 471 631 552 591 607 _c
550 662 490 690 410 690 _c
330 690 269 662 229 607 _c
188 552 168 471 168 364 _c
168 256 188 175 229 120 _c
269 65 330 38 410 38 _c
410 -13 _m
360 -13 315 -5 273 11 _c
231 27 195 50 164 82 _c
127 118 100 160 82 206 _c
64 252 56 304 56 364 _c
56 422 64 475 82 521 _c
100 567 127 609 164 646 _c
196 678 232 702 273 718 _c
314 734 360 742 410 742 _c
516 742 601 707 666 638 _c
731 568 764 477 764 364 _c
764 305 755 252 737 206 _c
719 159 692 118 656 82 _c
624 50 587 26 546 10 _c
505 -5 460 -13 410 -13 _c
_cl}_e}_d
/R{{753 0 55 0 777 729 _sc
479 362 _m
501 356 521 345 538 330 _c
554 315 569 294 582 268 _c
688 52 _l
777 52 _l
777 0 _l
605 0 _l
491 232 _l
469 276 449 305 431 319 _c
413 332 388 339 356 339 _c
247 339 _l
247 52 _l
350 52 _l
350 0 _l
55 0 _l
55 52 _l
148 52 _l
148 677 _l
55 677 _l
55 729 _l
425 729 _l
495 729 550 712 589 678 _c
627 644 647 596 647 534 _c
647 484 633 444 605 416 _c
577 387 535 369 479 362 _c
247 391 _m
391 391 _l
440 391 476 402 500 426 _c
523 449 535 485 535 534 _c
}_e{535 582 523 618 500 642 _c
476 665 440 677 391 677 _c
247 677 _l
247 391 _l
_cl}_e}_d
/S{{685 0 84 -13 612 742 _sc
93 35 _m
93 201 _l
149 201 _l
150 145 166 104 197 78 _c
227 51 274 38 336 38 _c
394 38 438 49 468 72 _c
498 95 514 129 514 173 _c
514 208 504 235 486 254 _c
468 272 429 291 370 309 _c
274 338 _l
204 359 154 385 126 417 _c
98 448 84 491 84 547 _c
84 609 106 657 150 691 _c
194 725 255 742 335 742 _c
369 742 406 738 446 731 _c
486 723 529 713 575 699 _c
575 544 _l
520 544 _l
514 595 497 632 468 655 _c
439 678 395 690 337 690 _c
285 690 246 679 219 658 _c
192 637 179 607 179 567 _c
179 532 189 505 209 485 _c
229 465 272 445 338 426 _c
428 399 _l
494 379 541 353 569 323 _c
597 292 612 251 612 199 _c
}_e{612 128 589 75 544 40 _c
498 4 431 -13 342 -13 _c
302 -13 261 -9 219 -1 _c
177 6 135 18 93 35 _c
_cl}_e}_d
/T{667 0 10 0 657 729 _sc
191 0 _m
191 52 _l
284 52 _l
284 671 _l
70 671 _l
70 557 _l
10 557 _l
10 729 _l
657 729 _l
657 557 _l
597 557 _l
597 671 _l
383 671 _l
383 52 _l
476 52 _l
476 0 _l
191 0 _l
_cl}_d
/c{{560 0 50 -13 514 533 _sc
514 156 _m
501 100 477 58 441 30 _c
405 1 358 -13 301 -13 _c
225 -13 165 11 119 61 _c
73 111 50 177 50 260 _c
50 342 73 408 119 458 _c
165 508 225 533 301 533 _c
333 533 366 529 399 521 _c
431 513 464 502 497 487 _c
497 354 _l
445 354 _l
438 399 423 432 400 453 _c
377 474 344 485 302 485 _c
253 485 216 466 192 428 _c
167 390 155 334 155 260 _c
155 184 167 128 192 90 _c
216 52 253 34 302 34 _c
340 34 371 44 394 64 _c
417 84 433 115 442 156 _c
514 156 _l
_cl}_e}_d
/t{402 0 29 -13 394 680 _sc
108 467 _m
29 467 _l
29 519 _l
108 519 _l
108 680 _l
198 680 _l
198 519 _l
367 519 _l
367 467 _l
198 467 _l
198 137 _l
198 93 202 64 211 52 _c
219 40 235 34 258 34 _c
281 34 298 41 309 55 _c
319 69 325 91 326 122 _c
394 122 _l
391 74 378 40 355 19 _c
332 -2 297 -13 250 -13 _c
198 -13 161 -1 140 21 _c
118 43 108 82 108 137 _c
108 467 _l
_cl}_d
end readonly def

/BuildGlyph
 {exch begin
 CharStrings exch
 2 copy known not{pop /.notdef}if
 true 3 1 roll get exec
 end}_d

/BuildChar {
 1 index /Encoding get exch get
 1 index /BuildGlyph get exec
}_d

FontName currentdict end definefont pop
end
%%EndProlog
mpldict begin
140.046 231.39 translate
331.908 329.22 0 0 clipbox
gsave
2.22045e-16 0 m
331.908 0 l
331.908 329.22 l
2.22045e-16 329.22 l
cl
1.000 setgray
fill
grestore
gsave
39.6531 30.9969 m
318.653 30.9969 l
318.653 318.997 l
39.6531 318.997 l
cl
1.000 setgray
fill
grestore
0.500 setlinewidth
1 setlinejoin
0 setlinecap
[] 0 setdash
0.000 setgray
gsave
279 288 39.65 31 clipbox
/o {
gsave
newpath
translate
0 -3 m
0.795609 -3 1.55874 -2.6839 2.12132 -2.12132 c
2.6839 -1.55874 3 -0.795609 3 0 c
3 0.795609 2.6839 1.55874 2.12132 2.12132 c
1.55874 2.6839 0.795609 3 0 3 c
-0.795609 3 -1.55874 2.6839 -2.12132 2.12132 c
-2.6839 1.55874 -3 0.795609 -3 0 c
-3 -0.795609 -2.6839 -1.55874 -2.12132 -2.12132 c
-1.55874 -2.6839 -0.795609 -3 0 -3 c
cl
gsave
1.000 0.000 0.000 setrgbcolor
fill
grestore
stroke
grestore
} bind def
244.226 293.168 o
189.066 206.355 o
170.359 222.199 o
198.979 239.116 o
197.22 213.039 o
198.259 221.539 o
193.943 222.447 o
201.137 219.146 o
184.11 223.685 o
203.216 213.452 o
grestore
gsave
279 288 39.65 31 clipbox
/o {
gsave
newpath
translate
-3 -3 m
3 -3 l
3 3 l
-3 3 l
cl
gsave
0.000 0.502 0.000 setrgbcolor
fill
grestore
stroke
grestore
} bind def
228.638 208.748 o
219.924 219.063 o
209.132 214.855 o
grestore
gsave
279 288 39.65 31 clipbox
/o {
gsave
newpath
translate
0 -3 m
0.795609 -3 1.55874 -2.6839 2.12132 -2.12132 c
2.6839 -1.55874 3 -0.795609 3 0 c
3 0.795609 2.6839 1.55874 2.12132 2.12132 c
1.55874 2.6839 0.795609 3 0 3 c
-0.795609 3 -1.55874 2.6839 -2.12132 2.12132 c
-2.6839 1.55874 -3 0.795609 -3 0 c
-3 -0.795609 -2.6839 -1.55874 -2.12132 -2.12132 c
-1.55874 -2.6839 -0.795609 -3 0 -3 c
cl
gsave
0.000 setgray
fill
grestore
stroke
grestore
} bind def
229.917 284.338 o
grestore
1.000 setlinewidth
2 setlinecap
gsave
279 288 39.65 31 clipbox
76.107 67.5209 m
78.825 71.2839 l
79.2168 72.7858 l
79.9922 75.7978 l
80.7677 78.0506 l
81.1514 81.0544 l
81.5431 83.6868 l
81.9268 88.5721 l
82.3185 92.7064 l
82.7103 94.2166 l
82.8622 95.3389 l
83.094 96.0898 l
83.4857 99.1019 l
84.6449 105.118 l
85.812 108.872 l
86.9792 114.888 l
87.3629 117.141 l
88.9138 120.904 l
91.6319 123.528 l
94.3499 122.398 l
95.1254 121.275 l
98.2351 117.892 l
100.17 116.39 l
103.663 117.892 l
107.548 120.904 l
stroke
grestore
0 setlinecap
[3 5 1 5] 0 setdash
gsave
279 288 39.65 31 clipbox
83.8614 99.0771 m
85.0606 106.587 l
85.4603 108.897 l
85.4603 108.897 l
86.1798 111.868 l
86.5795 114.921 l
87.7786 118.635 l
89.6973 122.431 l
90.4967 126.144 l
91.6159 130.683 l
93.5345 133.654 l
94.7336 135.222 l
95.5331 136.707 l
97.052 138.935 l
97.8514 141.163 l
100.969 142.731 l
102.088 143.474 l
102.888 143.474 l
stroke
grestore
[1 3] 0 setdash
gsave
279 288 39.65 31 clipbox
110.802 133.489 m
112.401 134.479 l
114 135.387 l
115.599 136.377 l
117.198 137.285 l
118.796 138.275 l
120.395 139.265 l
121.994 140.173 l
123.593 141.163 l
125.192 142.071 l
126.791 143.061 l
128.39 144.051 l
129.988 144.959 l
131.587 145.949 l
133.186 146.857 l
134.785 147.847 l
136.384 148.838 l
137.983 149.745 l
139.581 150.736 l
141.18 151.643 l
142.779 152.634 l
144.378 153.624 l
145.977 154.532 l
147.576 155.522 l
149.175 156.43 l
150.773 157.42 l
152.372 158.41 l
153.971 159.318 l
155.57 160.308 l
157.169 161.216 l
158.768 162.206 l
stroke
grestore
[6 6] 0 setdash
gsave
279 288 39.65 31 clipbox
97.8514 141.163 m
123.833 186.55 l
149.814 231.937 l
175.796 277.324 l
201.777 322.71 l
206.076 330.22 l
stroke
grestore
gsave
279 288 39.65 31 clipbox
78.825 71.2674 m
104.806 116.654 l
130.788 162.041 l
156.769 207.428 l
182.751 252.815 l
209.531 298.201 l
227.296 330.22 l
stroke
grestore
gsave
279 288 39.65 31 clipbox
158.768 162.206 m
184.749 207.593 l
210.73 252.98 l
236.712 298.367 l
254.946 330.22 l
stroke
grestore
0.500 setlinewidth
[] 0 setdash
gsave
279 288 39.65 31 clipbox
/o {
gsave
newpath
translate
-3 -3 m
3 3 l
-3 3 m
3 -3 l
gsave
0.000 setgray
fill
grestore
stroke
grestore
} bind def
97.8514 141.163 o
123.833 186.55 o
149.814 231.937 o
175.796 277.324 o
201.777 322.71 o
227.758 368.097 o
253.74 413.484 o
279.721 458.871 o
305.702 504.258 o
331.684 549.644 o
357.665 595.031 o
grestore
gsave
279 288 39.65 31 clipbox
/o {
gsave
newpath
translate
-3 -3 m
3 3 l
-3 3 m
3 -3 l
gsave
0.000 setgray
fill
grestore
stroke
grestore
} bind def
78.825 71.2674 o
104.806 116.654 o
130.788 162.041 o
156.769 207.428 o
182.751 252.815 o
209.531 298.201 o
234.713 343.588 o
260.695 388.975 o
286.676 434.362 o
312.657 479.749 o
338.639 525.136 o
grestore
gsave
279 288 39.65 31 clipbox
/o {
gsave
newpath
translate
-3 -3 m
3 3 l
-3 3 m
3 -3 l
gsave
0.000 setgray
fill
grestore
stroke
grestore
} bind def
158.768 162.206 o
184.749 207.593 o
210.73 252.98 o
236.712 298.367 o
262.693 343.753 o
288.675 389.14 o
314.656 434.527 o
340.637 479.914 o
366.619 525.301 o
392.6 570.687 o
418.581 616.074 o
grestore
gsave
279 288 39.65 31 clipbox
/o {
gsave
newpath
translate
0 -3 m
0.795609 -3 1.55874 -2.6839 2.12132 -2.12132 c
2.6839 -1.55874 3 -0.795609 3 0 c
3 0.795609 2.6839 1.55874 2.12132 2.12132 c
1.55874 2.6839 0.795609 3 0 3 c
-0.795609 3 -1.55874 2.6839 -2.12132 2.12132 c
-2.6839 1.55874 -3 0.795609 -3 0 c
-3 -0.795609 -2.6839 -1.55874 -2.12132 -2.12132 c
-1.55874 -2.6839 -0.795609 -3 0 -3 c
cl
gsave
1.000 0.000 0.000 setrgbcolor
fill
grestore
stroke
grestore
} bind def
206.733 137.45 o
grestore
gsave
279 288 39.65 31 clipbox
/o {
gsave
newpath
translate
-3 -3 m
3 -3 l
3 3 l
-3 3 l
cl
gsave
0.000 0.502 0.000 setrgbcolor
fill
grestore
stroke
grestore
} bind def
206.733 120.945 o
grestore
gsave
/o {
gsave
newpath
translate
0 0 m
0 4 l
gsave
0.000 setgray
fill
grestore
stroke
grestore
} bind def
78.825 30.9969 o
grestore
gsave
/o {
gsave
newpath
translate
0 0 m
0 -4 l
gsave
0.000 setgray
fill
grestore
stroke
grestore
} bind def
78.825 318.997 o
grestore
/BitstreamVeraSerif-Roman findfont
8.328 scalefont
setfont
gsave
72.723482 20.950000 translate
0.000000 rotate
0.000000 0.109375 m /zero glyphshow
5.288666 0.109375 m /period glyphshow
7.930969 0.109375 m /zero glyphshow
grestore
gsave
/o {
gsave
newpath
translate
0 0 m
0 4 l
gsave
0.000 setgray
fill
grestore
stroke
grestore
} bind def
118.796 30.9969 o
grestore
gsave
/o {
gsave
newpath
translate
0 0 m
0 -4 l
gsave
0.000 setgray
fill
grestore
stroke
grestore
} bind def
118.796 318.997 o
grestore
gsave
112.733891 20.950000 translate
0.000000 rotate
0.000000 0.109375 m /zero glyphshow
5.288666 0.109375 m /period glyphshow
7.930969 0.109375 m /five glyphshow
grestore
gsave
/o {
gsave
newpath
translate
0 0 m
0 4 l
gsave
0.000 setgray
fill
grestore
stroke
grestore
} bind def
158.768 30.9969 o
grestore
gsave
/o {
gsave
newpath
translate
0 0 m
0 -4 l
gsave
0.000 setgray
fill
grestore
stroke
grestore
} bind def
158.768 318.997 o
grestore
gsave
152.900551 20.950000 translate
0.000000 rotate
0.000000 0.109375 m /one glyphshow
5.288666 0.109375 m /period glyphshow
7.930969 0.109375 m /zero glyphshow
grestore
gsave
/o {
gsave
newpath
translate
0 0 m
0 4 l
gsave
0.000 setgray
fill
grestore
stroke
grestore
} bind def
198.739 30.9969 o
grestore
gsave
/o {
gsave
newpath
translate
0 0 m
0 -4 l
gsave
0.000 setgray
fill
grestore
stroke
grestore
} bind def
198.739 318.997 o
grestore
gsave
192.910960 20.950000 translate
0.000000 rotate
0.000000 0.109375 m /one glyphshow
5.288666 0.109375 m /period glyphshow
7.930969 0.109375 m /five glyphshow
grestore
gsave
/o {
gsave
newpath
translate
0 0 m
0 4 l
gsave
0.000 setgray
fill
grestore
stroke
grestore
} bind def
238.71 30.9969 o
grestore
gsave
/o {
gsave
newpath
translate
0 0 m
0 -4 l
gsave
0.000 setgray
fill
grestore
stroke
grestore
} bind def
238.71 318.997 o
grestore
gsave
232.616682 20.950000 translate
0.000000 rotate
0.000000 0.109375 m /two glyphshow
5.288666 0.109375 m /period glyphshow
7.930969 0.109375 m /zero glyphshow
grestore
gsave
/o {
gsave
newpath
translate
0 0 m
0 4 l
gsave
0.000 setgray
fill
grestore
stroke
grestore
} bind def
278.682 30.9969 o
grestore
gsave
/o {
gsave
newpath
translate
0 0 m
0 -4 l
gsave
0.000 setgray
fill
grestore
stroke
grestore
} bind def
278.682 318.997 o
grestore
gsave
272.627091 20.950000 translate
0.000000 rotate
0.000000 0.109375 m /two glyphshow
5.288666 0.109375 m /period glyphshow
7.930969 0.109375 m /five glyphshow
grestore
gsave
/o {
gsave
newpath
translate
0 0 m
0 4 l
gsave
0.000 setgray
fill
grestore
stroke
grestore
} bind def
318.653 30.9969 o
grestore
gsave
/o {
gsave
newpath
translate
0 0 m
0 -4 l
gsave
0.000 setgray
fill
grestore
stroke
grestore
} bind def
318.653 318.997 o
grestore
gsave
312.598437 20.950000 translate
0.000000 rotate
0.000000 0.109375 m /three glyphshow
5.288666 0.109375 m /period glyphshow
7.930969 0.109375 m /zero glyphshow
grestore
/BitstreamVeraSerif-Roman findfont
12.000 scalefont
setfont
gsave
167.645312 7.200000 translate
0.000000 rotate
0.000000 0.000000 m /H glyphshow
10.464844 0.000000 m /hyphen glyphshow
14.519531 0.000000 m /K glyphshow
grestore
gsave
/o {
gsave
newpath
translate
0 0 m
4 0 l
gsave
0.000 setgray
fill
grestore
stroke
grestore
} bind def
39.6531 71.4324 o
grestore
gsave
/o {
gsave
newpath
translate
0 0 m
-4 0 l
gsave
0.000 setgray
fill
grestore
stroke
grestore
} bind def
318.653 71.4324 o
grestore
/BitstreamVeraSerif-Roman findfont
8.328 scalefont
setfont
gsave
23.450000 68.408968 translate
0.000000 rotate
0.000000 0.109375 m /zero glyphshow
5.288666 0.109375 m /period glyphshow
7.930969 0.109375 m /zero glyphshow
grestore
gsave
/o {
gsave
newpath
translate
0 0 m
4 0 l
gsave
0.000 setgray
fill
grestore
stroke
grestore
} bind def
39.6531 112.693 o
grestore
gsave
/o {
gsave
newpath
translate
0 0 m
-4 0 l
gsave
0.000 setgray
fill
grestore
stroke
grestore
} bind def
318.653 112.693 o
grestore
gsave
23.528125 109.669713 translate
0.000000 rotate
0.000000 0.109375 m /zero glyphshow
5.288666 0.109375 m /period glyphshow
7.930969 0.109375 m /five glyphshow
grestore
gsave
/o {
gsave
newpath
translate
0 0 m
4 0 l
gsave
0.000 setgray
fill
grestore
stroke
grestore
} bind def
39.6531 153.954 o
grestore
gsave
/o {
gsave
newpath
translate
0 0 m
-4 0 l
gsave
0.000 setgray
fill
grestore
stroke
grestore
} bind def
318.653 153.954 o
grestore
gsave
23.918750 150.930458 translate
0.000000 rotate
0.000000 0.109375 m /one glyphshow
5.288666 0.109375 m /period glyphshow
7.930969 0.109375 m /zero glyphshow
grestore
gsave
/o {
gsave
newpath
translate
0 0 m
4 0 l
gsave
0.000 setgray
fill
grestore
stroke
grestore
} bind def
39.6531 195.215 o
grestore
gsave
/o {
gsave
newpath
translate
0 0 m
-4 0 l
gsave
0.000 setgray
fill
grestore
stroke
grestore
} bind def
318.653 195.215 o
grestore
gsave
23.996875 192.191203 translate
0.000000 rotate
0.000000 0.109375 m /one glyphshow
5.288666 0.109375 m /period glyphshow
7.930969 0.109375 m /five glyphshow
grestore
gsave
/o {
gsave
newpath
translate
0 0 m
4 0 l
gsave
0.000 setgray
fill
grestore
stroke
grestore
} bind def
39.6531 236.475 o
grestore
gsave
/o {
gsave
newpath
translate
0 0 m
-4 0 l
gsave
0.000 setgray
fill
grestore
stroke
grestore
} bind def
318.653 236.475 o
grestore
gsave
23.465625 233.451948 translate
0.000000 rotate
0.000000 0.109375 m /two glyphshow
5.288666 0.109375 m /period glyphshow
7.930969 0.109375 m /zero glyphshow
grestore
gsave
/o {
gsave
newpath
translate
0 0 m
4 0 l
gsave
0.000 setgray
fill
grestore
stroke
grestore
} bind def
39.6531 277.736 o
grestore
gsave
/o {
gsave
newpath
translate
0 0 m
-4 0 l
gsave
0.000 setgray
fill
grestore
stroke
grestore
} bind def
318.653 277.736 o
grestore
gsave
23.543750 274.712693 translate
0.000000 rotate
0.000000 0.109375 m /two glyphshow
5.288666 0.109375 m /period glyphshow
7.930969 0.109375 m /five glyphshow
grestore
gsave
/o {
gsave
newpath
translate
0 0 m
4 0 l
gsave
0.000 setgray
fill
grestore
stroke
grestore
} bind def
39.6531 318.997 o
grestore
gsave
/o {
gsave
newpath
translate
0 0 m
-4 0 l
gsave
0.000 setgray
fill
grestore
stroke
grestore
} bind def
318.653 318.997 o
grestore
gsave
23.543750 315.973437 translate
0.000000 rotate
0.000000 0.109375 m /three glyphshow
5.288666 0.109375 m /period glyphshow
7.930969 0.109375 m /zero glyphshow
grestore
/BitstreamVeraSerif-Roman findfont
12.000 scalefont
setfont
gsave
18.450000 165.153125 translate
90.000000 rotate
0.000000 2.500000 m /J glyphshow
4.810547 2.500000 m /hyphen glyphshow
8.865234 2.500000 m /H glyphshow
grestore
1.000 setlinewidth
2 setlinecap
gsave
39.6531 318.997 m
318.653 318.997 l
stroke
grestore
gsave
318.653 30.9969 m
318.653 318.997 l
stroke
grestore
gsave
39.6531 30.9969 m
318.653 30.9969 l
stroke
grestore
gsave
39.6531 30.9969 m
39.6531 318.997 l
stroke
grestore
/BitstreamVeraSerif-Roman findfont
10.000 scalefont
setfont
gsave
249.102982 285.084178 translate
0.000000 rotate
0.000000 1.562500 m /parenleft glyphshow
3.901367 1.562500 m /two glyphshow
10.263672 1.562500 m /zero glyphshow
16.625977 1.562500 m /zero glyphshow
22.988281 1.562500 m /seven glyphshow
29.350586 1.562500 m /space glyphshow
32.529297 1.562500 m /O glyphshow
40.727539 1.562500 m /c glyphshow
46.328125 1.562500 m /t glyphshow
50.346680 1.562500 m /space glyphshow
53.525391 1.562500 m /two glyphshow
59.887695 1.562500 m /eight glyphshow
66.250000 1.562500 m /parenright glyphshow
grestore
gsave
230.716162 270.173630 translate
0.000000 rotate
0.000000 0.140625 m /two glyphshow
6.362305 0.140625 m /M glyphshow
16.601562 0.140625 m /A glyphshow
23.823242 0.140625 m /S glyphshow
30.548828 0.140625 m /S glyphshow
37.399414 0.140625 m /space glyphshow
grestore
gsave
230.716162 257.145505 translate
0.000000 rotate
0.000000 1.562500 m /space glyphshow
3.178711 1.562500 m /parenleft glyphshow
7.080078 1.562500 m /one glyphshow
13.442383 1.562500 m /nine glyphshow
19.804688 1.562500 m /nine glyphshow
26.166992 1.562500 m /eight glyphshow
32.529297 1.562500 m /space glyphshow
35.708008 1.562500 m /O glyphshow
43.906250 1.562500 m /c glyphshow
49.506836 1.562500 m /t glyphshow
53.525391 1.562500 m /space glyphshow
56.704102 1.562500 m /seven glyphshow
63.066406 1.562500 m /parenright glyphshow
grestore
gsave
182.750546 186.058390 translate
0.000000 rotate
0.000000 1.562500 m /parenleft glyphshow
3.901367 1.562500 m /two glyphshow
10.263672 1.562500 m /zero glyphshow
16.625977 1.562500 m /zero glyphshow
22.988281 1.562500 m /eight glyphshow
29.350586 1.562500 m /hyphen glyphshow
32.729492 1.562500 m /two glyphshow
39.091797 1.562500 m /zero glyphshow
45.454102 1.562500 m /one glyphshow
51.816406 1.562500 m /three glyphshow
58.178711 1.562500 m /parenright glyphshow
grestore
1.000 0.000 0.000 setrgbcolor
gsave
214.727624 129.887097 translate
0.000000 rotate
0.000000 0.140625 m /H glyphshow
8.720703 0.140625 m /C glyphshow
16.372070 0.140625 m /T glyphshow
grestore
0.000 0.502 0.000 setrgbcolor
gsave
214.727624 113.382799 translate
0.000000 rotate
0.000000 0.140625 m /T glyphshow
6.669922 0.140625 m /I glyphshow
10.620117 0.140625 m /R glyphshow
18.149414 0.140625 m /C glyphshow
25.800781 0.140625 m /A glyphshow
33.022461 0.140625 m /M glyphshow
43.261719 0.140625 m /two glyphshow
grestore

end
showpage
