%!PS-Adobe-3.0 EPSF-3.0
%%Title: /mnt/sda1/JoeFiles/Joe_Home/TIRSPEC/Paper_2014/Proof/Mag_Vs_MagError_AS40_field_1fwhm.eps
%%Creator: matplotlib version 1.3.1, http://matplotlib.org/
%%CreationDate: Sat Sep  6 10:38:42 2014
%%Orientation: portrait
%%BoundingBox: 14 230 597 561
%%EndComments
%%BeginProlog
/mpldict 8 dict def
mpldict begin
/m { moveto } bind def
/l { lineto } bind def
/r { rlineto } bind def
/c { curveto } bind def
/cl { closepath } bind def
/box {
m
1 index 0 r
0 exch r
neg 0 r
cl
} bind def
/clipbox {
box
clip
newpath
} bind def
%!PS-Adobe-3.0 Resource-Font
%%Title: Bitstream Vera Sans
%%Copyright: Copyright (c) 2003 by Bitstream, Inc. All Rights Reserved.
%%Creator: Converted from TrueType to type 3 by PPR
25 dict begin
/_d{bind def}bind def
/_m{moveto}_d
/_l{lineto}_d
/_cl{closepath eofill}_d
/_c{curveto}_d
/_sc{7 -1 roll{setcachedevice}{pop pop pop pop pop pop}ifelse}_d
/_e{exec}_d
/FontName /BitstreamVeraSans-Roman def
/PaintType 0 def
/FontMatrix[.001 0 0 .001 0 0]def
/FontBBox[-183 -236 1287 928]def
/FontType 3 def
/Encoding [ /space /period /zero /one /two /three /four /five /six /seven /eight /E /H /J /K /M /a /d /e /g /i /n /o /r /s /t /u ] def
/FontInfo 10 dict dup begin
/FamilyName (Bitstream Vera Sans) def
/FullName (Bitstream Vera Sans) def
/Notice (Copyright (c) 2003 by Bitstream, Inc. All Rights Reserved. Bitstream Vera is a trademark of Bitstream, Inc.) def
/Weight (Roman) def
/Version (Release 1.10) def
/ItalicAngle 0.0 def
/isFixedPitch false def
/UnderlinePosition -213 def
/UnderlineThickness 143 def
end readonly def
/CharStrings 27 dict dup begin
/space{318 0 0 0 0 0 _sc
}_d
/period{318 0 107 0 210 124 _sc
107 124 _m
210 124 _l
210 0 _l
107 0 _l
107 124 _l
_cl}_d
/zero{636 0 66 -13 570 742 _sc
318 664 _m
267 664 229 639 203 589 _c
177 539 165 464 165 364 _c
165 264 177 189 203 139 _c
229 89 267 64 318 64 _c
369 64 407 89 433 139 _c
458 189 471 264 471 364 _c
471 464 458 539 433 589 _c
407 639 369 664 318 664 _c
318 742 _m
399 742 461 709 505 645 _c
548 580 570 486 570 364 _c
570 241 548 147 505 83 _c
461 19 399 -13 318 -13 _c
236 -13 173 19 130 83 _c
87 147 66 241 66 364 _c
66 486 87 580 130 645 _c
173 709 236 742 318 742 _c
_cl}_d
/one{636 0 110 0 544 729 _sc
124 83 _m
285 83 _l
285 639 _l
110 604 _l
110 694 _l
284 729 _l
383 729 _l
383 83 _l
544 83 _l
544 0 _l
124 0 _l
124 83 _l
_cl}_d
/two{{636 0 73 0 536 742 _sc
192 83 _m
536 83 _l
536 0 _l
73 0 _l
73 83 _l
110 121 161 173 226 239 _c
290 304 331 346 348 365 _c
380 400 402 430 414 455 _c
426 479 433 504 433 528 _c
433 566 419 598 392 622 _c
365 646 330 659 286 659 _c
255 659 222 653 188 643 _c
154 632 117 616 78 594 _c
78 694 _l
118 710 155 722 189 730 _c
223 738 255 742 284 742 _c
}_e{359 742 419 723 464 685 _c
509 647 532 597 532 534 _c
532 504 526 475 515 449 _c
504 422 484 390 454 354 _c
446 344 420 317 376 272 _c
332 227 271 164 192 83 _c
_cl}_e}_d
/three{{636 0 76 -13 556 742 _sc
406 393 _m
453 383 490 362 516 330 _c
542 298 556 258 556 212 _c
556 140 531 84 482 45 _c
432 6 362 -13 271 -13 _c
240 -13 208 -10 176 -4 _c
144 1 110 10 76 22 _c
76 117 _l
103 101 133 89 166 81 _c
198 73 232 69 268 69 _c
330 69 377 81 409 105 _c
441 129 458 165 458 212 _c
458 254 443 288 413 312 _c
383 336 341 349 287 349 _c
}_e{202 349 _l
202 430 _l
291 430 _l
339 430 376 439 402 459 _c
428 478 441 506 441 543 _c
441 580 427 609 401 629 _c
374 649 336 659 287 659 _c
260 659 231 656 200 650 _c
169 644 135 635 98 623 _c
98 711 _l
135 721 170 729 203 734 _c
235 739 266 742 296 742 _c
370 742 429 725 473 691 _c
517 657 539 611 539 553 _c
539 513 527 479 504 451 _c
481 423 448 403 406 393 _c
_cl}_e}_d
/four{636 0 49 0 580 729 _sc
378 643 _m
129 254 _l
378 254 _l
378 643 _l
352 729 _m
476 729 _l
476 254 _l
580 254 _l
580 172 _l
476 172 _l
476 0 _l
378 0 _l
378 172 _l
49 172 _l
49 267 _l
352 729 _l
_cl}_d
/five{{636 0 77 -13 549 729 _sc
108 729 _m
495 729 _l
495 646 _l
198 646 _l
198 467 _l
212 472 227 476 241 478 _c
255 480 270 482 284 482 _c
365 482 429 459 477 415 _c
525 370 549 310 549 234 _c
549 155 524 94 475 51 _c
426 8 357 -13 269 -13 _c
238 -13 207 -10 175 -6 _c
143 -1 111 6 77 17 _c
77 116 _l
106 100 136 88 168 80 _c
199 72 232 69 267 69 _c
}_e{323 69 368 83 401 113 _c
433 143 450 183 450 234 _c
450 284 433 324 401 354 _c
368 384 323 399 267 399 _c
241 399 214 396 188 390 _c
162 384 135 375 108 363 _c
108 729 _l
_cl}_e}_d
/six{{636 0 70 -13 573 742 _sc
330 404 _m
286 404 251 388 225 358 _c
199 328 186 286 186 234 _c
186 181 199 139 225 109 _c
251 79 286 64 330 64 _c
374 64 409 79 435 109 _c
461 139 474 181 474 234 _c
474 286 461 328 435 358 _c
409 388 374 404 330 404 _c
526 713 _m
526 623 _l
501 635 476 644 451 650 _c
425 656 400 659 376 659 _c
310 659 260 637 226 593 _c
}_e{192 549 172 482 168 394 _c
187 422 211 444 240 459 _c
269 474 301 482 336 482 _c
409 482 467 459 509 415 _c
551 371 573 310 573 234 _c
573 159 550 99 506 54 _c
462 9 403 -13 330 -13 _c
246 -13 181 19 137 83 _c
92 147 70 241 70 364 _c
70 479 97 571 152 639 _c
206 707 280 742 372 742 _c
396 742 421 739 447 735 _c
472 730 498 723 526 713 _c
_cl}_e}_d
/seven{636 0 82 0 551 729 _sc
82 729 _m
551 729 _l
551 687 _l
286 0 _l
183 0 _l
432 646 _l
82 646 _l
82 729 _l
_cl}_d
/eight{{636 0 68 -13 568 742 _sc
318 346 _m
271 346 234 333 207 308 _c
180 283 167 249 167 205 _c
167 161 180 126 207 101 _c
234 76 271 64 318 64 _c
364 64 401 76 428 102 _c
455 127 469 161 469 205 _c
469 249 455 283 429 308 _c
402 333 365 346 318 346 _c
219 388 _m
177 398 144 418 120 447 _c
96 476 85 511 85 553 _c
85 611 105 657 147 691 _c
188 725 245 742 318 742 _c
}_e{390 742 447 725 489 691 _c
530 657 551 611 551 553 _c
551 511 539 476 515 447 _c
491 418 459 398 417 388 _c
464 377 501 355 528 323 _c
554 291 568 251 568 205 _c
568 134 546 80 503 43 _c
459 5 398 -13 318 -13 _c
237 -13 175 5 132 43 _c
89 80 68 134 68 205 _c
68 251 81 291 108 323 _c
134 355 171 377 219 388 _c
183 544 _m
183 506 194 476 218 455 _c
}_e{242 434 275 424 318 424 _c
360 424 393 434 417 455 _c
441 476 453 506 453 544 _c
453 582 441 611 417 632 _c
393 653 360 664 318 664 _c
275 664 242 653 218 632 _c
194 611 183 582 183 544 _c
_cl}_e}_d
/E{632 0 98 0 568 729 _sc
98 729 _m
559 729 _l
559 646 _l
197 646 _l
197 430 _l
544 430 _l
544 347 _l
197 347 _l
197 83 _l
568 83 _l
568 0 _l
98 0 _l
98 729 _l
_cl}_d
/H{752 0 98 0 654 729 _sc
98 729 _m
197 729 _l
197 430 _l
555 430 _l
555 729 _l
654 729 _l
654 0 _l
555 0 _l
555 347 _l
197 347 _l
197 0 _l
98 0 _l
98 729 _l
_cl}_d
/J{295 0 -51 -199 197 729 _sc
98 729 _m
197 729 _l
197 51 _l
197 -36 180 -99 147 -139 _c
113 -179 60 -199 -13 -199 _c
-51 -199 _l
-51 -116 _l
-20 -116 _l
22 -116 53 -103 71 -79 _c
89 -55 98 -11 98 51 _c
98 729 _l
_cl}_d
/K{656 0 98 0 677 729 _sc
98 729 _m
197 729 _l
197 421 _l
524 729 _l
651 729 _l
289 389 _l
677 0 _l
547 0 _l
197 351 _l
197 0 _l
98 0 _l
98 729 _l
_cl}_d
/M{863 0 98 0 765 729 _sc
98 729 _m
245 729 _l
431 233 _l
618 729 _l
765 729 _l
765 0 _l
669 0 _l
669 640 _l
481 140 _l
382 140 _l
194 640 _l
194 0 _l
98 0 _l
98 729 _l
_cl}_d
/a{{613 0 60 -13 522 560 _sc
343 275 _m
270 275 220 266 192 250 _c
164 233 150 205 150 165 _c
150 133 160 107 181 89 _c
202 70 231 61 267 61 _c
317 61 357 78 387 114 _c
417 149 432 196 432 255 _c
432 275 _l
343 275 _l
522 312 _m
522 0 _l
432 0 _l
432 83 _l
411 49 385 25 355 10 _c
325 -5 287 -13 243 -13 _c
187 -13 142 2 109 33 _c
76 64 60 106 60 159 _c
}_e{60 220 80 266 122 298 _c
163 329 224 345 306 345 _c
432 345 _l
432 354 _l
432 395 418 427 391 450 _c
364 472 326 484 277 484 _c
245 484 215 480 185 472 _c
155 464 127 453 100 439 _c
100 522 _l
132 534 164 544 195 550 _c
226 556 256 560 286 560 _c
365 560 424 539 463 498 _c
502 457 522 395 522 312 _c
_cl}_e}_d
/d{{635 0 55 -13 544 760 _sc
454 464 _m
454 760 _l
544 760 _l
544 0 _l
454 0 _l
454 82 _l
435 49 411 25 382 10 _c
353 -5 319 -13 279 -13 _c
213 -13 159 13 117 65 _c
75 117 55 187 55 273 _c
55 359 75 428 117 481 _c
159 533 213 560 279 560 _c
319 560 353 552 382 536 _c
411 520 435 496 454 464 _c
148 273 _m
148 207 161 155 188 117 _c
215 79 253 61 301 61 _c
}_e{348 61 385 79 413 117 _c
440 155 454 207 454 273 _c
454 339 440 390 413 428 _c
385 466 348 485 301 485 _c
253 485 215 466 188 428 _c
161 390 148 339 148 273 _c
_cl}_e}_d
/e{{615 0 55 -13 562 560 _sc
562 296 _m
562 252 _l
149 252 _l
153 190 171 142 205 110 _c
238 78 284 62 344 62 _c
378 62 412 66 444 74 _c
476 82 509 95 541 113 _c
541 28 _l
509 14 476 3 442 -3 _c
408 -9 373 -13 339 -13 _c
251 -13 182 12 131 62 _c
80 112 55 181 55 268 _c
55 357 79 428 127 481 _c
175 533 241 560 323 560 _c
397 560 455 536 498 489 _c
}_e{540 441 562 377 562 296 _c
472 322 _m
471 371 457 410 431 440 _c
404 469 368 484 324 484 _c
274 484 234 469 204 441 _c
174 413 156 373 152 322 _c
472 322 _l
_cl}_e}_d
/g{{635 0 55 -207 544 560 _sc
454 280 _m
454 344 440 395 414 431 _c
387 467 349 485 301 485 _c
253 485 215 467 188 431 _c
161 395 148 344 148 280 _c
148 215 161 165 188 129 _c
215 93 253 75 301 75 _c
349 75 387 93 414 129 _c
440 165 454 215 454 280 _c
544 68 _m
544 -24 523 -93 482 -139 _c
440 -184 377 -207 292 -207 _c
260 -207 231 -204 203 -200 _c
175 -195 147 -188 121 -178 _c
}_e{121 -91 _l
147 -105 173 -115 199 -122 _c
225 -129 251 -133 278 -133 _c
336 -133 380 -117 410 -87 _c
439 -56 454 -10 454 52 _c
454 96 _l
435 64 411 40 382 24 _c
353 8 319 0 279 0 _c
211 0 157 25 116 76 _c
75 127 55 195 55 280 _c
55 364 75 432 116 483 _c
157 534 211 560 279 560 _c
319 560 353 552 382 536 _c
411 520 435 496 454 464 _c
454 547 _l
544 547 _l
}_e{544 68 _l
_cl}_e}_d
/i{278 0 94 0 184 760 _sc
94 547 _m
184 547 _l
184 0 _l
94 0 _l
94 547 _l
94 760 _m
184 760 _l
184 646 _l
94 646 _l
94 760 _l
_cl}_d
/n{634 0 91 0 549 560 _sc
549 330 _m
549 0 _l
459 0 _l
459 327 _l
459 379 448 417 428 443 _c
408 469 378 482 338 482 _c
289 482 251 466 223 435 _c
195 404 181 362 181 309 _c
181 0 _l
91 0 _l
91 547 _l
181 547 _l
181 462 _l
202 494 227 519 257 535 _c
286 551 320 560 358 560 _c
420 560 468 540 500 501 _c
532 462 549 405 549 330 _c
_cl}_d
/o{612 0 55 -13 557 560 _sc
306 484 _m
258 484 220 465 192 427 _c
164 389 150 338 150 273 _c
150 207 163 156 191 118 _c
219 80 257 62 306 62 _c
354 62 392 80 420 118 _c
448 156 462 207 462 273 _c
462 337 448 389 420 427 _c
392 465 354 484 306 484 _c
306 560 _m
384 560 445 534 490 484 _c
534 433 557 363 557 273 _c
557 183 534 113 490 63 _c
445 12 384 -13 306 -13 _c
227 -13 165 12 121 63 _c
77 113 55 183 55 273 _c
55 363 77 433 121 484 _c
165 534 227 560 306 560 _c
_cl}_d
/r{411 0 91 0 411 560 _sc
411 463 _m
401 469 390 473 378 476 _c
366 478 353 480 339 480 _c
288 480 249 463 222 430 _c
194 397 181 350 181 288 _c
181 0 _l
91 0 _l
91 547 _l
181 547 _l
181 462 _l
199 495 224 520 254 536 _c
284 552 321 560 365 560 _c
371 560 378 559 386 559 _c
393 558 401 557 411 555 _c
411 463 _l
_cl}_d
/s{{521 0 54 -13 472 560 _sc
443 531 _m
443 446 _l
417 458 391 468 364 475 _c
336 481 308 485 279 485 _c
234 485 200 478 178 464 _c
156 450 145 430 145 403 _c
145 382 153 366 169 354 _c
185 342 217 330 265 320 _c
296 313 _l
360 299 405 279 432 255 _c
458 230 472 195 472 151 _c
472 100 452 60 412 31 _c
372 1 316 -13 246 -13 _c
216 -13 186 -10 154 -5 _c
}_e{122 0 89 8 54 20 _c
54 113 _l
87 95 120 82 152 74 _c
184 65 216 61 248 61 _c
290 61 323 68 346 82 _c
368 96 380 117 380 144 _c
380 168 371 187 355 200 _c
339 213 303 226 247 238 _c
216 245 _l
160 257 119 275 95 299 _c
70 323 58 356 58 399 _c
58 450 76 490 112 518 _c
148 546 200 560 268 560 _c
301 560 332 557 362 552 _c
391 547 418 540 443 531 _c
}_e{_cl}_e}_d
/t{392 0 27 0 368 702 _sc
183 702 _m
183 547 _l
368 547 _l
368 477 _l
183 477 _l
183 180 _l
183 135 189 106 201 94 _c
213 81 238 75 276 75 _c
368 75 _l
368 0 _l
276 0 _l
206 0 158 13 132 39 _c
106 65 93 112 93 180 _c
93 477 _l
27 477 _l
27 547 _l
93 547 _l
93 702 _l
183 702 _l
_cl}_d
/u{634 0 85 -13 543 547 _sc
85 216 _m
85 547 _l
175 547 _l
175 219 _l
175 167 185 129 205 103 _c
225 77 255 64 296 64 _c
344 64 383 79 411 110 _c
439 141 453 183 453 237 _c
453 547 _l
543 547 _l
543 0 _l
453 0 _l
453 84 _l
431 50 405 26 377 10 _c
348 -5 315 -13 277 -13 _c
214 -13 166 6 134 45 _c
101 83 85 140 85 216 _c
_cl}_d
end readonly def

/BuildGlyph
 {exch begin
 CharStrings exch
 2 copy known not{pop /.notdef}if
 true 3 1 roll get exec
 end}_d

/BuildChar {
 1 index /Encoding get exch get
 1 index /BuildGlyph get exec
}_d

FontName currentdict end definefont pop
end
%%EndProlog
mpldict begin
14.4 230.4 translate
583.2 331.2 0 0 clipbox
gsave
0 0 m
583.2 0 l
583.2 331.2 l
0 331.2 l
cl
1.000 setgray
fill
grestore
gsave
68.0117 43.4519 m
535.592 43.4519 l
535.592 301.266 l
68.0117 301.266 l
cl
1.000 setgray
fill
grestore
0.500 setlinewidth
1 setlinejoin
0 setlinecap
[] 0 setdash
1.000 0.000 0.000 setrgbcolor
gsave
467.6 257.8 68.01 43.45 clipbox
/o {
gsave
newpath
translate
0.5 setlinewidth
1 setlinejoin
0 setlinecap
0 -1.5 m
0.397805 -1.5 0.77937 -1.34195 1.06066 -1.06066 c
1.34195 -0.77937 1.5 -0.397805 1.5 0 c
1.5 0.397805 1.34195 0.77937 1.06066 1.06066 c
0.77937 1.34195 0.397805 1.5 0 1.5 c
-0.397805 1.5 -0.77937 1.34195 -1.06066 1.06066 c
-1.34195 0.77937 -1.5 0.397805 -1.5 0 c
-1.5 -0.397805 -1.34195 -0.77937 -1.06066 -1.06066 c
-0.77937 -1.34195 -0.397805 -1.5 0 -1.5 c
cl
gsave
1.000 0.000 0.000 setrgbcolor
fill
grestore
stroke
grestore
} bind def
405.045 71.6914 o
304.884 47.4552 o
414.503 79.2455 o
353.569 55.3241 o
448.924 116.701 o
512.843 377.634 o
353.104 54.6946 o
432.838 89.0029 o
391.362 63.193 o
291.046 47.1404 o
421.209 91.521 o
327.793 49.029 o
426.869 94.9833 o
406.053 68.2291 o
394.308 64.7668 o
412.449 78.3012 o
393.843 64.1372 o
325.234 49.029 o
309.187 47.7699 o
420.667 78.616 o
586.956 1853.84 o
405.782 71.6914 o
416.635 83.6521 o
386.905 63.8225 o
579.591 1410.03 o
341.825 51.547 o
348.84 51.2323 o
373.183 56.8979 o
373.571 58.1569 o
353.569 53.1208 o
386.75 60.0454 o
461.057 131.81 o
444.622 99.7046 o
404.387 69.4881 o
436.52 93.0948 o
396.402 66.6553 o
326.746 48.7142 o
459.739 131.81 o
226.43 45.5667 o
431.869 89.3177 o
446.947 103.796 o
408.767 72.9504 o
421.481 77.6717 o
428.225 85.2259 o
435.28 98.7604 o
390.122 63.5077 o
551.14 821.44 o
407.332 71.3766 o
364.074 54.0651 o
523.037 410.998 o
415.666 74.8389 o
398.417 63.193 o
355.779 53.4355 o
385.548 61.3044 o
394.657 66.6553 o
438.226 99.0751 o
447.994 109.777 o
416.984 75.4684 o
318.877 48.3995 o
369.191 56.8979 o
463.189 138.105 o
394.153 64.7668 o
481.988 192.872 o
304.148 47.4552 o
479.662 199.482 o
424.388 85.8554 o
468.344 151.01 o
470.088 151.639 o
433.613 95.6128 o
325.273 49.029 o
375.16 57.2126 o
399.541 67.5996 o
330.273 49.6585 o
422.488 82.7078 o
329.343 49.3437 o
369.152 55.9536 o
425.473 81.1341 o
273.138 46.5109 o
399.813 69.4881 o
410.24 73.2652 o
555.946 858.896 o
203.056 45.5667 o
394.967 65.711 o
366.245 54.3798 o
316.087 48.3995 o
436.094 92.78 o
400.006 66.97 o
411.48 71.3766 o
376.71 58.7864 o
402.216 65.3963 o
362.95 54.6946 o
498.113 313.739 o
300.117 47.1404 o
393.766 63.5077 o
501.873 285.096 o
439.776 101.278 o
291.395 47.1404 o
486.911 216.164 o
414.387 76.098 o
547.767 729.216 o
503.269 291.391 o
426.442 89.0029 o
288.372 46.8257 o
357.213 54.0651 o
343.569 50.9175 o
442.606 103.482 o
338.375 50.288 o
341.902 51.8618 o
282.906 46.5109 o
419.736 80.5045 o
249.338 45.8814 o
370.935 56.2683 o
632.152 5320.56 o
511.641 350.88 o
413.689 85.8554 o
410.937 75.1537 o
398.223 64.1372 o
447.374 133.384 o
323.413 48.7142 o
130.571 45.2519 o
378.959 58.7864 o
419.775 81.1341 o
473.228 168.007 o
426.752 84.9111 o
353.763 51.8618 o
380.935 58.4716 o
418.302 79.875 o
383.455 59.1011 o
302.946 48.0847 o
298.14 47.1404 o
76.1105 45.2519 o
399.968 65.3963 o
285.542 46.8257 o
425.085 83.3373 o
316.203 48.3995 o
349.073 51.2323 o
442.916 99.0751 o
436.133 113.554 o
327.715 49.9732 o
447.102 130.865 o
384.734 70.4324 o
308.799 48.7142 o
382.37 64.1372 o
375.78 55.9536 o
447.49 104.741 o
369.501 59.7307 o
443.149 112.295 o
378.842 63.5077 o
397.022 65.3963 o
396.673 64.7668 o
366.865 55.6388 o
401.906 65.711 o
296.395 47.1404 o
363.415 54.3798 o
490.361 223.404 o
458.808 131.495 o
475.089 172.098 o
372.447 56.2683 o
312.598 47.7699 o
273.138 46.5109 o
487.647 227.81 o
361.865 58.4716 o
387.254 60.3602 o
452.529 115.757 o
442.528 104.111 o
385.509 60.3602 o
477.337 180.597 o
412.604 72.9504 o
397.603 65.0815 o
372.873 56.5831 o
340.274 50.6027 o
412.527 71.6914 o
215.189 45.5667 o
426.791 81.7636 o
506.525 311.535 o
449.699 114.183 o
402.487 67.9143 o
338.452 49.9732 o
369.927 56.8979 o
367.136 55.0093 o
381.091 60.3602 o
336.01 50.288 o
394.231 62.8782 o
299.961 47.1404 o
322.405 48.3995 o
310.195 48.0847 o
371.129 55.9536 o
260.153 46.1962 o
470.321 168.321 o
349.693 52.1765 o
406.48 70.1176 o
394.153 63.5077 o
363.337 54.3798 o
288.643 46.8257 o
240.772 45.8814 o
416.945 79.875 o
387.835 60.9897 o
373.532 56.8979 o
356.283 52.1765 o
325.777 49.029 o
327.638 49.029 o
284.263 46.8257 o
434.078 90.8915 o
229.686 45.5667 o
471.639 176.82 o
335.971 49.3437 o
340.817 50.6027 o
396.208 63.5077 o
420.085 81.7636 o
444.583 111.351 o
343.956 51.2323 o
404.619 70.1176 o
428.768 87.7439 o
441.559 101.593 o
400.51 66.3405 o
449.351 119.219 o
346.321 50.9175 o
332.405 49.9732 o
522.998 433.031 o
368.221 54.6946 o
434.272 94.039 o
506.641 284.466 o
255.501 45.8814 o
172.008 45.2519 o
282.596 46.8257 o
386.595 62.5635 o
392.719 61.6192 o
303.644 47.4552 o
418.535 78.616 o
461.25 134.643 o
307.481 47.7699 o
417.256 75.7832 o
392.913 62.5635 o
524.937 471.746 o
517.145 369.136 o
354.461 52.4913 o
412.139 71.0619 o
444.932 106.944 o
391.362 61.6192 o
452.219 112.924 o
238.02 45.8814 o
545.946 676.967 o
292.054 46.8257 o
325.079 48.7142 o
409.232 72.6356 o
420.938 78.616 o
252.4 45.8814 o
358.492 53.4355 o
415.046 74.8389 o
418.806 79.5603 o
383.416 59.7307 o
343.259 50.288 o
393.533 61.9339 o
419.039 76.4127 o
402.759 66.6553 o
385.509 59.1011 o
568.738 1131.16 o
338.801 49.9732 o
362.02 53.7503 o
389.579 61.3044 o
333.064 49.9732 o
340.507 50.288 o
449.893 110.092 o
392.06 63.5077 o
353.724 52.806 o
408.03 70.4324 o
337.755 49.9732 o
301.977 47.4552 o
464.39 157.934 o
318.025 48.3995 o
368.803 54.0651 o
405.278 67.9143 o
356.438 53.1208 o
373.726 56.5831 o
412.798 71.3766 o
376.594 56.5831 o
435.745 102.537 o
499.47 290.761 o
420.434 78.9308 o
384.385 58.7864 o
350.003 51.2323 o
360.12 53.4355 o
410.899 73.8947 o
351.438 52.4913 o
396.13 66.97 o
373.571 56.5831 o
403.611 68.5438 o
373.416 56.2683 o
371.788 55.6388 o
301.551 47.1404 o
461.522 145.974 o
372.679 55.6388 o
400.355 67.5996 o
484.895 203.574 o
414 84.5964 o
302.597 47.4552 o
407.681 73.5799 o
304.923 47.4552 o
402.371 65.711 o
412.565 74.2094 o
420.473 80.1898 o
302.055 47.4552 o
314.11 47.7699 o
207.243 45.5667 o
361.051 53.1208 o
122.896 45.2519 o
244.493 45.8814 o
343.375 50.288 o
261.548 45.8814 o
321.319 48.3995 o
419.349 77.357 o
233.136 45.8814 o
403.766 66.0258 o
287.751 46.5109 o
390.781 60.6749 o
137.936 45.2519 o
424 81.1341 o
383.106 58.1569 o
383.533 58.4716 o
405.123 70.7471 o
380.897 58.1569 o
387.215 58.7864 o
406.751 68.5438 o
383.533 62.2487 o
376.129 56.2683 o
334.809 49.3437 o
339.421 50.6027 o
347.561 50.6027 o
319.11 48.0847 o
297.868 47.4552 o
430.318 90.262 o
299.884 47.1404 o
431.714 83.9669 o
402.565 65.0815 o
593.894 1961.48 o
343.104 50.288 o
346.088 50.288 o
422.837 79.875 o
301.628 47.1404 o
411.209 73.2652 o
321.552 48.3995 o
365.159 54.0651 o
385.277 59.4159 o
299.729 47.1404 o
369.191 56.2683 o
376.245 55.3241 o
317.366 48.0847 o
426.326 82.0783 o
391.169 61.3044 o
388.92 62.2487 o
157.201 45.2519 o
399.076 64.7668 o
392.37 63.193 o
390.897 60.9897 o
372.098 55.0093 o
343.879 50.9175 o
289.263 46.8257 o
318.451 48.0847 o
359.965 53.1208 o
414.116 72.9504 o
396.053 66.0258 o
345.391 50.6027 o
328.645 49.3437 o
352.755 51.2323 o
391.285 60.6749 o
395.394 61.3044 o
365.198 56.8979 o
377.369 56.2683 o
415.666 77.0422 o
374.811 55.9536 o
437.024 100.334 o
423.147 76.7275 o
420.356 88.0587 o
382.835 57.2126 o
367.446 54.3798 o
432.76 92.78 o
303.217 47.7699 o
460.592 124.57 o
449.971 117.331 o
455.979 126.459 o
433.458 98.4456 o
340.119 50.288 o
179.14 45.5667 o
381.052 57.8421 o
373.958 56.8979 o
434.737 99.3899 o
412.72 70.1176 o
381.478 59.7307 o
373.764 56.5831 o
395.161 65.711 o
378.571 59.1011 o
183.481 45.5667 o
367.446 54.0651 o
366.787 55.6388 o
159.449 45.2519 o
379.23 58.4716 o
433.225 85.5406 o
379.191 55.9536 o
426.791 78.9308 o
423.961 84.9111 o
374.152 57.2126 o
385.277 60.3602 o
370.121 56.2683 o
396.828 64.452 o
392.215 64.7668 o
604.205 2523.95 o
343.801 51.547 o
462.84 141.567 o
399.076 63.5077 o
361.322 53.7503 o
398.185 64.1372 o
490.865 200.741 o
368.88 57.2126 o
355.042 52.1765 o
416.248 73.8947 o
338.181 49.9732 o
403.573 67.5996 o
357.717 51.8618 o
319.11 48.0847 o
426.055 83.6521 o
408.224 66.6553 o
345.662 50.288 o
265.269 46.1962 o
362.02 54.0651 o
372.485 55.0093 o
415.24 75.1537 o
392.215 65.711 o
418.031 79.2455 o
401.867 66.0258 o
276.859 46.1962 o
384.114 61.6192 o
381.517 58.1569 o
334.227 49.6585 o
311.513 47.7699 o
476.406 167.377 o
388.261 60.6749 o
344.654 50.9175 o
347.019 52.1765 o
393.339 62.2487 o
444.622 100.649 o
423.69 87.1144 o
416.597 75.7832 o
319.536 48.0847 o
396.479 60.9897 o
284.534 46.5109 o
409.929 71.0619 o
349.306 50.9175 o
416.364 75.1537 o
392.758 59.7307 o
127.742 45.2519 o
561.761 1000.85 o
356.864 53.4355 o
386.478 59.7307 o
501.137 269.043 o
387.99 61.6192 o
394.735 60.9897 o
459.002 127.088 o
326.32 48.7142 o
403.262 66.97 o
325.389 48.7142 o
410.085 70.4324 o
359.733 52.4913 o
325.699 48.7142 o
297.791 46.8257 o
313.451 47.7699 o
468.809 174.302 o
385.161 58.1569 o
304.807 47.4552 o
412.449 71.3766 o
378.145 56.2683 o
485.322 190.354 o
366.477 56.5831 o
354.383 51.8618 o
389.463 60.0454 o
333.84 49.029 o
384.23 58.7864 o
357.872 52.1765 o
331.94 49.029 o
236.198 45.8814 o
235.306 45.8814 o
355.973 51.547 o
385.975 62.8782 o
393.417 61.9339 o
421.364 76.098 o
383.61 61.6192 o
380.432 59.1011 o
340.313 49.9732 o
408.03 67.5996 o
271.704 46.1962 o
347.523 51.2323 o
177.59 45.5667 o
387.331 61.3044 o
354.655 52.1765 o
377.951 56.5831 o
305.776 47.1404 o
355.042 52.4913 o
395.432 64.452 o
281.627 46.5109 o
356.205 53.1208 o
335.816 49.029 o
339.46 50.288 o
380.509 58.1569 o
366.942 53.4355 o
350.003 51.547 o
346.553 50.288 o
410.821 69.4881 o
432.838 97.5013 o
488.655 206.722 o
395.277 64.452 o
354.306 51.547 o
395.859 65.711 o
402.022 69.8028 o
318.645 48.7142 o
495.671 216.164 o
382.37 58.1569 o
384.773 59.1011 o
328.8 48.7142 o
389.114 59.1011 o
311.047 47.7699 o
361.903 52.1765 o
387.254 60.3602 o
407.449 66.3405 o
377.253 55.9536 o
444.35 109.147 o
376.865 56.5831 o
413.767 69.4881 o
333.723 49.3437 o
372.795 55.9536 o
283.333 46.5109 o
grestore
0.000 0.502 0.000 setrgbcolor
gsave
467.6 257.8 68.01 43.45 clipbox
/o {
gsave
newpath
translate
0.5 setlinewidth
1 setlinejoin
0 setlinecap
0 -1.5 m
0.397805 -1.5 0.77937 -1.34195 1.06066 -1.06066 c
1.34195 -0.77937 1.5 -0.397805 1.5 0 c
1.5 0.397805 1.34195 0.77937 1.06066 1.06066 c
0.77937 1.34195 0.397805 1.5 0 1.5 c
-0.397805 1.5 -0.77937 1.34195 -1.06066 1.06066 c
-1.34195 0.77937 -1.5 0.397805 -1.5 0 c
-1.5 -0.397805 -1.34195 -0.77937 -1.06066 -1.06066 c
-0.77937 -1.34195 -0.397805 -1.5 0 -1.5 c
cl
gsave
0.000 0.502 0.000 setrgbcolor
fill
grestore
stroke
grestore
} bind def
404.393 61.3044 o
430.131 77.9865 o
438.232 84.2816 o
310.085 46.8257 o
468.04 116.072 o
407.184 64.452 o
515.912 253.935 o
415.518 65.711 o
392.803 56.8979 o
302.022 46.8257 o
438.155 84.9111 o
390.865 59.1011 o
448.892 88.0587 o
331.598 48.0847 o
431.178 79.875 o
387.57 55.3241 o
427.883 68.5438 o
426.759 72.6356 o
445.016 82.3931 o
393.423 58.1569 o
420.867 76.7275 o
329.466 48.0847 o
312.721 46.8257 o
469.63 123.941 o
414.51 63.8225 o
431.837 77.0422 o
395.284 59.1011 o
347.607 49.6585 o
443.233 85.8554 o
453.195 95.2981 o
353.809 49.6585 o
374.042 53.1208 o
389.586 57.2126 o
360.398 51.2323 o
390.439 55.3241 o
464.319 102.852 o
462.536 106.315 o
416.332 68.8586 o
328.885 47.7699 o
229.266 45.5667 o
426.798 71.3766 o
511.454 226.866 o
423.115 68.8586 o
396.214 59.4159 o
424.666 68.2291 o
520.369 313.424 o
411.564 63.5077 o
500.562 212.072 o
443.078 83.3373 o
373.19 51.8618 o
432.961 75.7832 o
398.579 57.2126 o
522.191 306.499 o
363.964 51.8618 o
502.384 187.836 o
420.479 66.6553 o
399.742 59.4159 o
399.354 60.3602 o
444.202 86.1701 o
452.109 93.4095 o
476.684 134.643 o
467.149 111.351 o
537.037 366.618 o
426.41 70.7471 o
476.917 134.013 o
438.891 83.9669 o
324.311 47.4552 o
375.128 54.0651 o
451.218 94.3538 o
508.702 224.033 o
403.269 61.3044 o
309.969 46.8257 o
431.992 75.7832 o
434.24 78.3012 o
336.637 48.3995 o
382.725 54.6946 o
334.583 48.3995 o
441.062 81.7636 o
411.332 65.0815 o
335.009 48.3995 o
332.567 48.0847 o
467.537 123.311 o
390.633 56.5831 o
276.052 46.1962 o
446.799 82.7078 o
400.711 62.5635 o
454.047 90.262 o
503.004 200.112 o
408.812 63.8225 o
392.958 59.1011 o
378.229 52.806 o
205.582 45.5667 o
403.928 61.3044 o
322.721 47.4552 o
424.123 67.5996 o
381.95 55.9536 o
412.649 62.2487 o
364.817 51.8618 o
302.72 46.5109 o
412.417 63.5077 o
419.045 65.0815 o
296.751 46.5109 o
415.44 66.3405 o
420.828 71.3766 o
520.175 261.804 o
463.001 101.278 o
558.976 854.174 o
297.061 46.5109 o
371.174 53.1208 o
357.53 50.288 o
343.769 48.7142 o
513.043 246.381 o
351.095 50.9175 o
291.867 46.1962 o
444.628 87.1144 o
405.866 65.711 o
254.113 45.8814 o
386.563 55.6388 o
345.203 50.9175 o
479.592 134.957 o
407.533 69.8028 o
436.178 76.7275 o
520.679 287.929 o
408.463 60.6749 o
445.365 108.203 o
424.201 92.78 o
324.466 49.3437 o
297.293 47.1404 o
327.373 47.7699 o
137.439 45.2519 o
469.048 121.423 o
386.756 55.6388 o
349.157 52.1765 o
508.275 219.941 o
433.116 77.0422 o
358.576 50.288 o
388.888 55.6388 o
394.199 56.8979 o
429.666 74.8389 o
437.263 78.616 o
309.155 47.4552 o
399.277 58.4716 o
305.55 46.8257 o
82.1252 45.2519 o
289.502 46.1962 o
292.758 46.8257 o
353.925 49.6585 o
442.419 82.7078 o
325.977 47.7699 o
502.616 194.446 o
485.793 141.252 o
427.999 84.9111 o
334.311 49.029 o
386.33 62.5635 o
473.7 114.813 o
429.821 83.9669 o
381.872 58.1569 o
386.989 54.6946 o
449.435 85.2259 o
347.219 50.9175 o
372.996 56.2683 o
476.103 146.288 o
378.112 57.8421 o
411.564 64.452 o
374.391 53.4355 o
410.44 63.193 o
400.013 59.7307 o
414.316 63.8225 o
303.418 46.8257 o
372.066 52.1765 o
445.558 114.498 o
453.195 94.9833 o
430.596 73.5799 o
513.818 253.305 o
377.841 53.4355 o
318.884 47.4552 o
278.92 46.1962 o
433.814 75.4684 o
364.546 55.6388 o
399.083 59.1011 o
389.198 55.6388 o
396.602 58.4716 o
432.534 74.8389 o
421.022 66.97 o
386.059 54.3798 o
347.529 49.029 o
482.227 133.069 o
408.386 62.5635 o
427.495 69.4881 o
224.731 45.5667 o
517.54 275.024 o
342.606 48.7142 o
486.607 162.656 o
375.05 54.3798 o
375.593 53.4355 o
389.702 56.5831 o
458.699 104.111 o
344.583 49.3437 o
304.813 46.8257 o
399.935 59.1011 o
327.877 47.7699 o
315.24 47.4552 o
494.941 168.951 o
377.686 53.7503 o
269.734 45.8814 o
627.701 3530.54 o
358.809 50.6027 o
453.388 92.78 o
419.665 66.6553 o
409.781 63.193 o
452.148 89.9472 o
393.423 56.5831 o
294.813 46.5109 o
372.647 52.1765 o
250.081 45.5667 o
431.759 76.7275 o
393.346 56.8979 o
383.345 54.6946 o
363.034 50.6027 o
470.521 127.718 o
425.79 69.8028 o
492.189 163.6 o
318.341 47.4552 o
530.602 331.05 o
336.753 48.0847 o
331.637 48.0847 o
291.944 46.5109 o
546.921 502.907 o
239.189 45.5667 o
543.782 449.084 o
340.126 48.3995 o
343.886 49.029 o
403.191 59.4159 o
442.961 81.7636 o
422.495 71.0619 o
469.087 112.61 o
420.712 68.2291 o
350.669 49.6585 o
405.246 61.3044 o
350.553 49.3437 o
421.216 66.97 o
432.961 75.4684 o
471.064 112.295 o
510.601 225.292 o
472.421 116.072 o
379.585 53.4355 o
415.634 66.3405 o
484.786 144.4 o
267.175 45.8814 o
179.069 45.2519 o
411.37 63.193 o
289.386 46.1962 o
437.07 79.5603 o
397.455 58.7864 o
405.207 59.7307 o
306.286 46.8257 o
457.768 100.964 o
413.153 65.3963 o
436.837 76.4127 o
313.845 47.1404 o
400.866 58.4716 o
414.355 63.193 o
428.232 73.8947 o
475.018 135.587 o
361.6 50.9175 o
554.79 549.176 o
481.297 136.216 o
426.139 69.1733 o
445.171 83.6521 o
420.596 67.5996 o
396.408 56.8979 o
491.957 159.193 o
477.421 127.088 o
456.063 92.4653 o
246.787 45.5667 o
456.799 94.9833 o
296.596 46.5109 o
483.972 134.643 o
408.502 60.3602 o
328.381 47.7699 o
422.883 70.7471 o
428.813 76.098 o
494.515 165.489 o
426.953 71.0619 o
262.524 45.8814 o
368.306 52.1765 o
423.658 70.1176 o
385.09 55.3241 o
351.095 49.029 o
435.868 75.1537 o
390.4 55.9536 o
418.192 65.3963 o
485.6 148.177 o
507.113 211.128 o
345.281 48.7142 o
367.724 51.2323 o
454.978 96.2423 o
379.624 53.4355 o
395.555 57.2126 o
346.25 48.7142 o
454.939 95.2981 o
426.294 71.6914 o
398.966 58.4716 o
362.995 51.8618 o
342.064 48.7142 o
323.69 47.4552 o
306.441 46.8257 o
442.341 84.2816 o
377.105 52.4913 o
381.834 53.7503 o
365.088 51.8618 o
383.81 54.3798 o
509.981 246.696 o
427.418 70.1176 o
387.183 55.0093 o
356.057 50.288 o
365.631 51.547 o
403.967 61.9339 o
360.204 51.2323 o
481.297 151.01 o
379.585 53.4355 o
414.665 64.1372 o
440.093 84.2816 o
487.034 159.193 o
376.484 53.1208 o
383.113 54.6946 o
307.643 46.5109 o
412.456 63.5077 o
533.471 398.723 o
454.668 98.7604 o
407.068 63.5077 o
418.27 67.2848 o
307.294 46.8257 o
411.835 69.1733 o
309.891 46.8257 o
456.257 98.4456 o
405.517 59.4159 o
436.062 78.3012 o
440.597 82.0783 o
305.899 46.8257 o
316.83 47.1404 o
417.999 62.8782 o
359.274 51.2323 o
123.135 45.2519 o
217.986 45.5667 o
369.042 51.2323 o
255.004 45.8814 o
409.161 69.4881 o
350.436 49.3437 o
328.885 47.7699 o
267.563 45.8814 o
426.759 71.3766 o
425.518 72.0061 o
230.351 45.5667 o
412.146 62.5635 o
297.565 46.5109 o
451.838 92.78 o
394.858 56.5831 o
144.338 45.2519 o
390.826 56.2683 o
420.518 70.1176 o
385.438 54.0651 o
432.883 78.3012 o
491.724 167.692 o
392.028 56.5831 o
399.47 58.1569 o
412.727 62.8782 o
485.135 162.341 o
395.129 63.193 o
344.079 49.029 o
346.715 49.3437 o
325.551 47.4552 o
355.592 49.6585 o
305.123 46.8257 o
305.627 46.5109 o
387.764 55.6388 o
408.114 60.9897 o
526.842 312.165 o
350.901 49.029 o
446.954 85.5406 o
306.054 46.5109 o
348.266 49.9732 o
424.588 70.4324 o
474.514 120.793 o
413.231 64.1372 o
504.787 199.797 o
326.481 47.4552 o
371.368 52.1765 o
480.173 129.921 o
372.337 53.1208 o
392.842 56.8979 o
380.361 52.4913 o
323.923 47.4552 o
305.821 46.8257 o
437.225 77.357 o
400.091 59.4159 o
163.371 45.2519 o
407.029 63.8225 o
411.564 60.9897 o
392.687 57.5274 o
439.085 77.6717 o
409.82 60.3602 o
397.842 57.8421 o
382.609 53.4355 o
354.002 50.6027 o
295.51 46.1962 o
328.691 47.7699 o
363.344 50.9175 o
437.961 80.5045 o
491.763 154.157 o
402.222 60.3602 o
392.687 56.2683 o
433.658 73.8947 o
448.117 94.039 o
357.685 50.288 o
335.552 48.7142 o
363.228 50.288 o
427.146 77.357 o
409.587 60.6749 o
392.997 56.2683 o
371.174 54.6946 o
389.276 54.6946 o
428.852 71.3766 o
380.051 53.4355 o
396.408 60.0454 o
425.829 74.2094 o
439.085 77.0422 o
464.901 111.665 o
427.534 67.9143 o
416.332 69.4881 o
430.17 71.3766 o
508.275 209.869 o
379.74 53.7503 o
390.245 55.3241 o
449.59 92.1505 o
504.709 189.41 o
309.775 47.1404 o
432.961 75.1537 o
349.894 49.3437 o
189.225 45.2519 o
430.713 69.8028 o
386.291 54.6946 o
378.733 54.0651 o
386.175 55.6388 o
429.162 69.4881 o
389.625 56.2683 o
407.843 62.8782 o
390.051 57.8421 o
192.752 45.5667 o
566.806 793.112 o
376.911 52.806 o
170.348 45.2519 o
374.779 53.7503 o
441.876 78.3012 o
387.299 55.9536 o
383.927 53.1208 o
431.875 77.357 o
430.751 71.0619 o
387.066 55.9536 o
421.759 68.2291 o
399.664 58.7864 o
396.99 60.3602 o
387.066 55.9536 o
376.019 53.4355 o
456.606 99.0751 o
454.512 101.908 o
570.876 919.014 o
355.437 50.9175 o
408.89 60.6749 o
417.766 65.711 o
368.306 52.1765 o
432.457 71.3766 o
376.523 54.6946 o
414.82 63.8225 o
360.398 50.288 o
344.816 49.029 o
416.254 66.6553 o
410.711 62.5635 o
505.64 198.223 o
369.662 51.2323 o
324.853 47.4552 o
427.34 72.0061 o
423.658 66.0258 o
580.412 1143.12 o
350.01 48.7142 o
275.277 45.8814 o
458.35 94.6685 o
369.391 52.4913 o
378.384 52.806 o
417.805 66.6553 o
405.517 64.1372 o
420.441 74.2094 o
413.231 63.5077 o
428.387 69.1733 o
286.866 46.1962 o
424.394 66.97 o
391.253 56.2683 o
389.935 57.8421 o
341.909 48.7142 o
314.969 46.8257 o
450.83 83.9669 o
396.951 57.2126 o
349.777 49.3437 o
353.537 50.6027 o
401.137 59.1011 o
418.231 67.9143 o
434.24 73.5799 o
561.457 654.304 o
324.97 47.4552 o
423.929 69.1733 o
402.959 58.1569 o
292.797 46.5109 o
412.649 70.1176 o
357.065 49.6585 o
134.764 45.2519 o
409.393 59.7307 o
371.639 53.1208 o
395.439 57.2126 o
403.695 60.0454 o
406.564 59.1011 o
435.597 75.1537 o
334.738 48.0847 o
471.529 107.574 o
330.861 47.7699 o
413.308 63.193 o
367.879 51.2323 o
482.499 128.033 o
330.9 47.7699 o
302.294 46.5109 o
507.617 193.187 o
313.496 46.8257 o
392.958 55.6388 o
311.829 46.8257 o
456.528 106.315 o
421.797 66.6553 o
386.369 54.3798 o
371.019 54.0651 o
367.104 51.2323 o
394.082 56.5831 o
338.536 48.0847 o
395.362 56.5831 o
444.473 85.2259 o
340.009 48.3995 o
437.108 75.4684 o
244.422 45.5667 o
239.771 45.5667 o
364.817 50.6027 o
394.082 59.7307 o
399.47 58.1569 o
427.728 70.4324 o
391.989 59.1011 o
394.005 57.5274 o
350.32 49.3437 o
412.96 61.3044 o
276.052 45.8814 o
354.584 49.9732 o
188.992 45.2519 o
369.507 51.8618 o
397.338 58.4716 o
381.911 53.7503 o
312.101 46.8257 o
358.227 50.6027 o
286.556 46.1962 o
359.197 50.9175 o
359.429 49.6585 o
340.746 48.3995 o
377.376 52.4913 o
390.4 55.9536 o
358.615 50.6027 o
429.317 69.4881 o
418.968 64.7668 o
353.886 49.3437 o
401.68 59.4159 o
579.83 922.476 o
420.983 69.1733 o
432.689 81.4488 o
488.352 173.987 o
405.905 61.6192 o
363.693 50.6027 o
399.121 60.0454 o
324.97 48.0847 o
416.099 68.5438 o
396.137 58.1569 o
389.237 55.0093 o
392.609 55.9536 o
338.808 48.0847 o
436.411 77.9865 o
316.597 47.1404 o
377.298 53.1208 o
399.121 58.7864 o
449.861 97.5013 o
405.323 59.1011 o
382.958 53.7503 o
413.735 61.6192 o
337.606 48.0847 o
378.926 53.7503 o
286.866 46.1962 o
grestore
0.000 0.000 1.000 setrgbcolor
gsave
467.6 257.8 68.01 43.45 clipbox
/o {
gsave
newpath
translate
0.5 setlinewidth
1 setlinejoin
0 setlinecap
0 -1.5 m
0.397805 -1.5 0.77937 -1.34195 1.06066 -1.06066 c
1.34195 -0.77937 1.5 -0.397805 1.5 0 c
1.5 0.397805 1.34195 0.77937 1.06066 1.06066 c
0.77937 1.34195 0.397805 1.5 0 1.5 c
-0.397805 1.5 -0.77937 1.34195 -1.06066 1.06066 c
-1.34195 0.77937 -1.5 0.397805 -1.5 0 c
-1.5 -0.397805 -1.34195 -0.77937 -1.06066 -1.06066 c
-0.77937 -1.34195 -0.397805 -1.5 0 -1.5 c
cl
gsave
0.000 0.000 1.000 setrgbcolor
fill
grestore
stroke
grestore
} bind def
591.817 765.728 o
332.731 47.1404 o
458.746 78.3012 o
441.536 70.7471 o
467.197 86.1701 o
464.406 81.7636 o
483.864 105.055 o
519.138 191.928 o
537.86 307.443 o
436.846 63.5077 o
322.188 46.8257 o
470.879 96.5571 o
480.453 104.111 o
563.908 493.779 o
548.442 316.886 o
606.275 1256.43 o
469.251 84.2816 o
467.08 87.7439 o
477.507 101.593 o
350.174 47.7699 o
501.85 152.898 o
449.599 78.3012 o
478.476 114.498 o
411.495 55.9536 o
445.412 68.8586 o
461.809 86.4849 o
420.798 60.6749 o
359.205 49.029 o
320.133 46.5109 o
500.416 135.902 o
442.621 69.4881 o
477.856 105.055 o
497.237 130.236 o
572.319 536.9 o
412.542 57.8421 o
497.664 141.252 o
555.613 405.332 o
378.897 50.6027 o
369.284 49.6585 o
416.922 58.7864 o
393.045 52.806 o
593.057 947.657 o
378.431 51.2323 o
404.286 54.0651 o
584.413 665.635 o
602.05 1011.55 o
435.14 64.452 o
482.973 103.167 o
422.155 62.2487 o
344.515 47.4552 o
510.843 171.154 o
234.198 45.5667 o
445.916 69.1733 o
421.961 60.6749 o
467.778 83.3373 o
423.434 60.9897 o
545.38 320.348 o
496.656 136.216 o
458.708 80.8193 o
385.951 51.547 o
423.202 57.5274 o
559.101 439.326 o
382.618 51.8618 o
493.167 112.295 o
419.946 60.0454 o
437.66 64.1372 o
434.675 67.5996 o
526.503 224.663 o
477.546 98.4456 o
501.385 137.475 o
519.758 194.446 o
391.843 53.1208 o
337.576 47.4552 o
559.567 408.795 o
526.348 224.033 o
423.783 60.3602 o
557.628 419.496 o
598.135 1003.05 o
329.204 46.8257 o
444.249 71.3766 o
480.066 110.721 o
477.469 107.259 o
363.508 49.029 o
397.425 53.1208 o
351.143 48.0847 o
506.424 156.046 o
423.667 62.2487 o
346.143 47.7699 o
344.786 47.7699 o
386.959 51.547 o
458.94 78.9308 o
280.751 45.8814 o
518.595 204.518 o
432.233 67.2848 o
436.536 66.6553 o
211.793 45.5667 o
414.907 59.1011 o
334.243 47.1404 o
455.258 76.098 o
443.164 70.1176 o
447.312 70.7471 o
388.083 52.1765 o
459.56 83.9669 o
403.472 55.6388 o
499.563 138.734 o
427.078 60.9897 o
381.532 51.2323 o
455.607 74.8389 o
309.474 46.1962 o
457.157 79.5603 o
444.211 68.8586 o
488.787 112.295 o
566.272 467.969 o
311.14 46.5109 o
501.927 146.603 o
481.151 107.259 o
451.769 75.1537 o
521.115 259.915 o
568.327 515.812 o
519.719 203.889 o
518.091 199.167 o
454.831 78.9308 o
550.341 342.696 o
325.327 46.8257 o
398.549 54.6946 o
382.579 51.547 o
358.818 48.3995 o
503.439 145.974 o
374.284 51.8618 o
319.436 46.5109 o
519.37 187.836 o
462.623 81.4488 o
499.369 136.216 o
430.954 69.1733 o
266.099 45.5667 o
471.926 91.2062 o
416.69 58.1569 o
427.117 69.1733 o
469.6 110.092 o
447.738 85.2259 o
460.452 83.9669 o
415.372 66.0258 o
462.894 86.4849 o
429.21 60.6749 o
426.109 69.4881 o
484.058 138.105 o
411.147 63.193 o
495.997 165.803 o
352.112 49.6585 o
553.403 353.083 o
342.732 47.4552 o
162.41 45.2519 o
477.197 129.921 o
394.634 57.5274 o
438.629 77.9865 o
443.242 68.5438 o
400.099 54.6946 o
370.408 51.547 o
377.966 50.288 o
422.62 60.6749 o
409.79 55.6388 o
517.471 189.41 o
508.594 157.305 o
500.687 151.325 o
582.708 693.334 o
385.215 54.6946 o
329.591 47.7699 o
424.093 60.0454 o
326.296 46.8257 o
471.809 89.9472 o
503.827 156.361 o
108.299 45.2519 o
305.636 46.1962 o
513.13 183.115 o
460.723 83.6521 o
353.042 48.7142 o
370.795 49.3437 o
461.227 81.4488 o
443.513 78.9308 o
351.608 48.7142 o
400.565 59.7307 o
495.881 117.96 o
405.681 59.7307 o
402.154 53.7503 o
389.517 55.0093 o
473.437 100.334 o
393.897 57.5274 o
438.009 68.2291 o
425.992 61.9339 o
393.51 52.806 o
393.742 52.1765 o
326.955 47.1404 o
535.65 264.322 o
509.68 162.341 o
609.919 1270.91 o
471.809 105.685 o
597.088 1037.36 o
473.05 122.052 o
341.414 47.4552 o
295.636 45.8814 o
401.301 54.3798 o
385.602 55.6388 o
450.529 72.0061 o
503.71 149.436 o
425.915 60.9897 o
417.891 57.8421 o
459.057 81.4488 o
466.228 83.0226 o
420.023 58.7864 o
506.424 161.082 o
452.506 74.8389 o
363.702 49.029 o
427.31 62.5635 o
253.579 45.5667 o
506.579 166.118 o
709.615 13306.9 o
619.105 1521.46 o
355.562 48.0847 o
444.598 67.9143 o
661.743 4844.02 o
613.795 1347.71 o
507.47 169.58 o
392.541 53.7503 o
399.983 53.7503 o
416.186 58.1569 o
564.141 502.277 o
479.445 100.019 o
373.005 49.9732 o
310.171 46.5109 o
416.573 57.2126 o
346.995 47.7699 o
333.855 47.1404 o
396.96 53.7503 o
298.31 46.1962 o
384.672 51.547 o
460.956 83.0226 o
517.51 195.39 o
499.64 131.18 o
650.541 3268.67 o
439.714 66.0258 o
528.906 250.473 o
431.807 65.3963 o
416.767 56.8979 o
478.321 98.4456 o
310.21 46.5109 o
393.704 52.1765 o
277.96 45.8814 o
554.993 365.358 o
458.281 82.0783 o
484.058 111.98 o
488.554 111.665 o
598.755 1037.05 o
416.883 57.2126 o
407.774 55.6388 o
410.178 56.2683 o
381.765 50.6027 o
336.646 47.4552 o
366.26 49.029 o
347.616 48.0847 o
316.412 46.5109 o
263.153 45.5667 o
451.653 75.4684 o
354.903 47.7699 o
429.055 63.8225 o
536.775 278.801 o
367.19 49.3437 o
433.9 63.193 o
495.454 121.423 o
456.149 79.875 o
582.979 740.547 o
558.481 422.959 o
359.205 48.7142 o
426.031 60.6749 o
445.412 68.5438 o
376.106 50.288 o
438.823 66.3405 o
567.086 507.943 o
492.159 134.957 o
625.152 1969.04 o
522.2 184.689 o
491.81 117.646 o
411.224 55.9536 o
454.173 78.616 o
475.53 94.9833 o
642.672 2374.44 o
295.868 45.8814 o
205.398 45.5667 o
440.063 66.97 o
530.418 240.715 o
314.125 46.5109 o
412.775 57.8421 o
421.651 59.4159 o
313.35 46.1962 o
496.888 130.865 o
566.079 419.811 o
438.28 66.3405 o
456.111 75.7832 o
538.48 265.581 o
328.932 47.1404 o
422.271 60.0454 o
502.199 133.069 o
429.985 63.193 o
598.212 911.46 o
554.45 420.756 o
605.577 984.168 o
733.686 23930.2 o
374.943 50.288 o
506.114 148.492 o
519.099 191.299 o
412.62 56.2683 o
560.846 408.795 o
523.014 194.761 o
500.299 131.81 o
271.913 45.8814 o
304.163 46.1962 o
428.822 59.4159 o
470.569 86.7997 o
482.856 97.1866 o
337.692 47.1404 o
436.652 65.0815 o
518.983 178.708 o
459.095 77.0422 o
481.112 106.629 o
292.767 45.8814 o
497.547 127.403 o
448.319 68.8586 o
431.342 60.9897 o
534.216 241.345 o
384.478 51.547 o
444.947 67.9143 o
495.454 136.531 o
414.054 56.2683 o
366.338 48.7142 o
447.583 71.3766 o
454.017 74.2094 o
459.289 74.8389 o
414.868 55.6388 o
490.066 115.128 o
395.797 52.806 o
363.12 48.3995 o
398.084 52.1765 o
456.692 72.6356 o
413.279 55.3241 o
353.74 47.7699 o
418.201 57.5274 o
428.163 60.0454 o
378.897 50.9175 o
347.499 47.4552 o
330.599 47.1404 o
319.358 46.5109 o
473.747 93.0948 o
406.999 53.7503 o
449.482 69.4881 o
387.075 51.547 o
397.929 52.4913 o
403.859 53.7503 o
455.142 72.3209 o
432.737 66.3405 o
452.7 71.0619 o
465.607 79.2455 o
405.914 54.0651 o
370.02 49.6585 o
460.374 81.4488 o
390.06 51.8618 o
384.905 51.2323 o
419.132 58.7864 o
403.2 52.806 o
442.35 65.3963 o
385.99 50.9175 o
400.991 53.1208 o
319.009 46.5109 o
437.466 66.0258 o
319.358 46.5109 o
428.008 62.2487 o
322.692 46.5109 o
433.319 60.3602 o
467.468 83.3373 o
363.624 49.3437 o
323.893 46.5109 o
441.962 62.5635 o
323.622 46.5109 o
251.563 45.5667 o
126.052 45.2519 o
386.765 50.288 o
282.767 45.8814 o
366.26 48.3995 o
351.375 47.4552 o
286.371 45.8814 o
445.335 66.0258 o
375.563 50.9175 o
238.617 45.5667 o
426.962 58.4716 o
325.676 46.5109 o
415.062 54.3798 o
169.31 45.2519 o
431.187 59.7307 o
436.613 65.3963 o
401.34 51.8618 o
409.984 54.3798 o
437.466 65.3963 o
493.594 111.665 o
461.421 80.1898 o
436.652 63.8225 o
418.434 56.2683 o
423.047 56.8979 o
437.776 61.6192 o
417.232 60.9897 o
417.581 61.3044 o
361.841 48.3995 o
363.237 48.7142 o
373.974 49.029 o
336.142 46.8257 o
317.614 46.5109 o
476.461 116.387 o
315.792 46.1962 o
405.371 53.1208 o
427.698 57.5274 o
459.754 74.5242 o
372.113 48.7142 o
383.47 51.2323 o
450.955 70.1176 o
320.753 46.5109 o
478.399 87.1144 o
442.273 66.6553 o
340.638 47.1404 o
390.021 50.9175 o
521.037 159.823 o
414.441 55.3241 o
390.758 51.547 o
407.581 52.4913 o
346.918 47.4552 o
317.924 46.1962 o
459.599 73.2652 o
420.721 57.8421 o
422.543 59.1011 o
187.606 45.2519 o
428.124 59.7307 o
478.205 86.1701 o
411.263 55.6388 o
435.916 59.7307 o
409.712 53.4355 o
305.365 46.1962 o
397.386 51.547 o
371.299 49.3437 o
524.564 203.574 o
353.701 47.7699 o
360.368 48.0847 o
493.4 119.219 o
380.253 49.6585 o
452.273 71.6914 o
423.938 59.1011 o
373.896 49.3437 o
470.763 88.6882 o
348.391 47.7699 o
390.68 50.6027 o
446.653 66.6553 o
435.373 60.9897 o
408.239 53.7503 o
400.642 56.2683 o
413.007 54.0651 o
461.925 74.5242 o
396.417 51.8618 o
419.403 58.4716 o
450.219 72.3209 o
457.506 71.6914 o
461.344 72.6356 o
447.079 64.452 o
416.186 55.0093 o
409.364 54.0651 o
477.662 91.521 o
318.001 46.5109 o
214.119 45.5667 o
376.338 49.3437 o
406.573 53.4355 o
406.185 54.0651 o
445.18 63.8225 o
416.535 56.5831 o
404.208 53.7503 o
422.078 60.0454 o
459.057 70.4324 o
429.21 60.9897 o
414.984 56.8979 o
223.034 45.5667 o
389.866 50.6027 o
454.211 69.1733 o
205.242 45.2519 o
401.572 53.4355 o
400.254 53.4355 o
462.584 72.9504 o
404.673 51.8618 o
465.22 81.1341 o
336.878 46.8257 o
454.599 70.7471 o
545.38 235.05 o
442.932 65.0815 o
416.263 56.5831 o
400.875 53.4355 o
419.752 57.2126 o
388.548 50.9175 o
419.442 59.1011 o
465.84 74.8389 o
472.042 88.0587 o
380.37 50.6027 o
424.481 57.5274 o
428.822 59.4159 o
380.486 50.288 o
430.45 61.9339 o
490.531 101.278 o
395.758 53.1208 o
432.543 59.7307 o
376.726 49.3437 o
363.004 48.3995 o
458.514 70.7471 o
428.822 59.4159 o
386.727 49.9732 o
433.977 64.7668 o
340.716 47.1404 o
444.172 62.2487 o
366.803 48.0847 o
517.238 151.954 o
303.272 46.1962 o
390.797 51.2323 o
395.138 51.2323 o
437.97 63.193 o
530.146 227.495 o
447.544 71.6914 o
440.296 69.4881 o
441.652 66.3405 o
424.403 57.8421 o
443.978 63.5077 o
315.598 46.1962 o
446.653 64.7668 o
402.27 52.806 o
419.829 59.1011 o
366.88 48.3995 o
320.288 46.5109 o
409.015 53.4355 o
369.167 48.7142 o
365.679 49.029 o
419.519 56.5831 o
450.451 70.1176 o
449.288 67.9143 o
330.87 46.5109 o
419.17 55.0093 o
444.908 65.3963 o
315.249 46.1962 o
439.133 71.0619 o
452.002 69.4881 o
373.005 49.029 o
160.782 45.2519 o
429.404 57.2126 o
368.47 49.3437 o
411.069 54.3798 o
459.095 73.5799 o
422.659 57.8421 o
465.956 77.357 o
415.565 54.0651 o
441.807 64.1372 o
353.004 47.4552 o
580.227 533.123 o
349.011 47.4552 o
381.184 49.3437 o
449.288 68.5438 o
350.29 47.4552 o
308.931 46.1962 o
327.537 46.5109 o
404.053 52.1765 o
327.11 46.5109 o
454.638 69.1733 o
435.761 61.3044 o
409.053 56.5831 o
405.487 52.4913 o
389.246 52.4913 o
390.37 50.9175 o
420.45 56.2683 o
407.154 53.1208 o
356.918 47.7699 o
409.402 53.7503 o
394.711 50.9175 o
368.857 48.7142 o
468.243 78.3012 o
268.27 45.5667 o
250.865 45.5667 o
393.316 50.6027 o
414.17 58.4716 o
421.612 56.8979 o
459.095 74.2094 o
442.815 64.1372 o
417.969 57.2126 o
464.018 80.8193 o
366.028 48.3995 o
427.969 57.2126 o
281.216 45.8814 o
222.337 45.5667 o
375.602 49.6585 o
425.372 58.7864 o
387.308 50.9175 o
402.619 52.806 o
320.637 46.1962 o
369.284 49.029 o
428.59 60.9897 o
299.434 46.1962 o
372.966 49.9732 o
553.481 349.621 o
400.565 51.2323 o
382.23 49.9732 o
383.742 49.9732 o
446.653 63.5077 o
400.913 52.4913 o
377.424 49.3437 o
436.73 60.6749 o
364.593 48.0847 o
418.86 56.2683 o
391.998 51.2323 o
439.327 64.1372 o
439.792 65.3963 o
428.279 60.6749 o
410.294 56.2683 o
375.408 49.029 o
434.171 64.1372 o
332.305 47.1404 o
411.34 55.0093 o
479.639 90.5767 o
398.045 52.1765 o
410.875 54.0651 o
457.777 74.2094 o
362.888 48.0847 o
460.917 75.1537 o
433.939 60.6749 o
322.963 46.5109 o
423.279 58.4716 o
428.706 57.8421 o
383.47 50.288 o
418.008 55.9536 o
453.436 73.5799 o
429.21 57.2126 o
354.05 47.4552 o
395.526 52.1765 o
293.039 45.8814 o
429.675 58.7864 o
453.862 68.2291 o
grestore
[1 3] 0 setdash
0.000 setgray
gsave
467.6 257.8 68.01 43.45 clipbox
69.8117 43.4519 m
69.8117 301.266 l
stroke
grestore
[] 0 setdash
gsave
/o {
gsave
newpath
translate
0.5 setlinewidth
1 setlinejoin
0 setlinecap
0 0 m
0 4 l
gsave
0.000 setgray
fill
grestore
stroke
grestore
} bind def
69.8117 43.4519 o
grestore
gsave
/o {
gsave
newpath
translate
0.5 setlinewidth
1 setlinejoin
0 setlinecap
0 0 m
0 -4 l
gsave
0.000 setgray
fill
grestore
stroke
grestore
} bind def
69.8117 301.266 o
grestore
/BitstreamVeraSans-Roman findfont
12.000 scalefont
setfont
gsave
66.811662 30.326895 translate
0.000000 rotate
0.000000 0.000000 m /eight glyphshow
grestore
[1 3] 0 setdash
gsave
467.6 257.8 68.01 43.45 clipbox
147.336 43.4519 m
147.336 301.266 l
stroke
grestore
[] 0 setdash
gsave
/o {
gsave
newpath
translate
0.5 setlinewidth
1 setlinejoin
0 setlinecap
0 0 m
0 4 l
gsave
0.000 setgray
fill
grestore
stroke
grestore
} bind def
147.336 43.4519 o
grestore
gsave
/o {
gsave
newpath
translate
0.5 setlinewidth
1 setlinejoin
0 setlinecap
0 0 m
0 -4 l
gsave
0.000 setgray
fill
grestore
stroke
grestore
} bind def
147.336 301.266 o
grestore
gsave
140.749874 30.326895 translate
0.000000 rotate
0.000000 0.000000 m /one glyphshow
7.634766 0.000000 m /zero glyphshow
grestore
[1 3] 0 setdash
gsave
467.6 257.8 68.01 43.45 clipbox
224.86 43.4519 m
224.86 301.266 l
stroke
grestore
[] 0 setdash
gsave
/o {
gsave
newpath
translate
0.5 setlinewidth
1 setlinejoin
0 setlinecap
0 0 m
0 4 l
gsave
0.000 setgray
fill
grestore
stroke
grestore
} bind def
224.86 43.4519 o
grestore
gsave
/o {
gsave
newpath
translate
0.5 setlinewidth
1 setlinejoin
0 setlinecap
0 0 m
0 -4 l
gsave
0.000 setgray
fill
grestore
stroke
grestore
} bind def
224.86 301.266 o
grestore
gsave
218.477148 30.326895 translate
0.000000 rotate
0.000000 0.000000 m /one glyphshow
7.634766 0.000000 m /two glyphshow
grestore
[1 3] 0 setdash
gsave
467.6 257.8 68.01 43.45 clipbox
302.384 43.4519 m
302.384 301.266 l
stroke
grestore
[] 0 setdash
gsave
/o {
gsave
newpath
translate
0.5 setlinewidth
1 setlinejoin
0 setlinecap
0 0 m
0 4 l
gsave
0.000 setgray
fill
grestore
stroke
grestore
} bind def
302.384 43.4519 o
grestore
gsave
/o {
gsave
newpath
translate
0.5 setlinewidth
1 setlinejoin
0 setlinecap
0 0 m
0 -4 l
gsave
0.000 setgray
fill
grestore
stroke
grestore
} bind def
302.384 301.266 o
grestore
gsave
295.735673 30.326895 translate
0.000000 rotate
0.000000 0.000000 m /one glyphshow
7.634766 0.000000 m /four glyphshow
grestore
[1 3] 0 setdash
gsave
467.6 257.8 68.01 43.45 clipbox
379.908 43.4519 m
379.908 301.266 l
stroke
grestore
[] 0 setdash
gsave
/o {
gsave
newpath
translate
0.5 setlinewidth
1 setlinejoin
0 setlinecap
0 0 m
0 4 l
gsave
0.000 setgray
fill
grestore
stroke
grestore
} bind def
379.908 43.4519 o
grestore
gsave
/o {
gsave
newpath
translate
0.5 setlinewidth
1 setlinejoin
0 setlinecap
0 0 m
0 -4 l
gsave
0.000 setgray
fill
grestore
stroke
grestore
} bind def
379.908 301.266 o
grestore
gsave
373.306698 30.326895 translate
0.000000 rotate
0.000000 0.000000 m /one glyphshow
7.634766 0.000000 m /six glyphshow
grestore
[1 3] 0 setdash
gsave
467.6 257.8 68.01 43.45 clipbox
457.432 43.4519 m
457.432 301.266 l
stroke
grestore
[] 0 setdash
gsave
/o {
gsave
newpath
translate
0.5 setlinewidth
1 setlinejoin
0 setlinecap
0 0 m
0 4 l
gsave
0.000 setgray
fill
grestore
stroke
grestore
} bind def
457.432 43.4519 o
grestore
gsave
/o {
gsave
newpath
translate
0.5 setlinewidth
1 setlinejoin
0 setlinecap
0 0 m
0 -4 l
gsave
0.000 setgray
fill
grestore
stroke
grestore
} bind def
457.432 301.266 o
grestore
gsave
450.862097 30.326895 translate
0.000000 rotate
0.000000 0.000000 m /one glyphshow
7.634766 0.000000 m /eight glyphshow
grestore
[1 3] 0 setdash
gsave
467.6 257.8 68.01 43.45 clipbox
534.957 43.4519 m
534.957 301.266 l
stroke
grestore
[] 0 setdash
gsave
/o {
gsave
newpath
translate
0.5 setlinewidth
1 setlinejoin
0 setlinecap
0 0 m
0 4 l
gsave
0.000 setgray
fill
grestore
stroke
grestore
} bind def
534.957 43.4519 o
grestore
gsave
/o {
gsave
newpath
translate
0.5 setlinewidth
1 setlinejoin
0 setlinecap
0 0 m
0 -4 l
gsave
0.000 setgray
fill
grestore
stroke
grestore
} bind def
534.957 301.266 o
grestore
gsave
528.151872 30.326895 translate
0.000000 rotate
0.000000 0.000000 m /two glyphshow
7.634766 0.000000 m /zero glyphshow
grestore
gsave
270.903312 13.701895 translate
0.000000 rotate
0.000000 0.000000 m /M glyphshow
10.353516 0.000000 m /a glyphshow
17.707031 0.000000 m /g glyphshow
25.324219 0.000000 m /n glyphshow
32.929688 0.000000 m /i glyphshow
36.263672 0.000000 m /t glyphshow
40.968750 0.000000 m /u glyphshow
48.574219 0.000000 m /d glyphshow
56.191406 0.000000 m /e glyphshow
grestore
[1 3] 0 setdash
gsave
467.6 257.8 68.01 43.45 clipbox
68.0117 45.2519 m
535.592 45.2519 l
stroke
grestore
[] 0 setdash
gsave
/o {
gsave
newpath
translate
0.5 setlinewidth
1 setlinejoin
0 setlinecap
0 0 m
4 0 l
gsave
0.000 setgray
fill
grestore
stroke
grestore
} bind def
68.0117 45.2519 o
grestore
gsave
/o {
gsave
newpath
translate
0.5 setlinewidth
1 setlinejoin
0 setlinecap
0 0 m
-4 0 l
gsave
0.000 setgray
fill
grestore
stroke
grestore
} bind def
535.592 45.2519 o
grestore
gsave
46.511662 41.939395 translate
0.000000 rotate
0.000000 0.000000 m /zero glyphshow
7.634766 0.000000 m /period glyphshow
11.449219 0.000000 m /zero glyphshow
grestore
[1 3] 0 setdash
gsave
467.6 257.8 68.01 43.45 clipbox
68.0117 76.7275 m
535.592 76.7275 l
stroke
grestore
[] 0 setdash
gsave
/o {
gsave
newpath
translate
0.5 setlinewidth
1 setlinejoin
0 setlinecap
0 0 m
4 0 l
gsave
0.000 setgray
fill
grestore
stroke
grestore
} bind def
68.0117 76.7275 o
grestore
gsave
/o {
gsave
newpath
translate
0.5 setlinewidth
1 setlinejoin
0 setlinecap
0 0 m
-4 0 l
gsave
0.000 setgray
fill
grestore
stroke
grestore
} bind def
535.592 76.7275 o
grestore
gsave
46.824162 73.414970 translate
0.000000 rotate
0.000000 0.000000 m /zero glyphshow
7.634766 0.000000 m /period glyphshow
11.449219 0.000000 m /one glyphshow
grestore
[1 3] 0 setdash
gsave
467.6 257.8 68.01 43.45 clipbox
68.0117 108.203 m
535.592 108.203 l
stroke
grestore
[] 0 setdash
gsave
/o {
gsave
newpath
translate
0.5 setlinewidth
1 setlinejoin
0 setlinecap
0 0 m
4 0 l
gsave
0.000 setgray
fill
grestore
stroke
grestore
} bind def
68.0117 108.203 o
grestore
gsave
/o {
gsave
newpath
translate
0.5 setlinewidth
1 setlinejoin
0 setlinecap
0 0 m
-4 0 l
gsave
0.000 setgray
fill
grestore
stroke
grestore
} bind def
535.592 108.203 o
grestore
gsave
46.917912 104.890545 translate
0.000000 rotate
0.000000 0.000000 m /zero glyphshow
7.634766 0.000000 m /period glyphshow
11.449219 0.000000 m /two glyphshow
grestore
[1 3] 0 setdash
gsave
467.6 257.8 68.01 43.45 clipbox
68.0117 139.679 m
535.592 139.679 l
stroke
grestore
[] 0 setdash
gsave
/o {
gsave
newpath
translate
0.5 setlinewidth
1 setlinejoin
0 setlinecap
0 0 m
4 0 l
gsave
0.000 setgray
fill
grestore
stroke
grestore
} bind def
68.0117 139.679 o
grestore
gsave
/o {
gsave
newpath
translate
0.5 setlinewidth
1 setlinejoin
0 setlinecap
0 0 m
-4 0 l
gsave
0.000 setgray
fill
grestore
stroke
grestore
} bind def
535.592 139.679 o
grestore
gsave
46.683537 136.366119 translate
0.000000 rotate
0.000000 0.000000 m /zero glyphshow
7.634766 0.000000 m /period glyphshow
11.449219 0.000000 m /three glyphshow
grestore
[1 3] 0 setdash
gsave
467.6 257.8 68.01 43.45 clipbox
68.0117 171.154 m
535.592 171.154 l
stroke
grestore
[] 0 setdash
gsave
/o {
gsave
newpath
translate
0.5 setlinewidth
1 setlinejoin
0 setlinecap
0 0 m
4 0 l
gsave
0.000 setgray
fill
grestore
stroke
grestore
} bind def
68.0117 171.154 o
grestore
gsave
/o {
gsave
newpath
translate
0.5 setlinewidth
1 setlinejoin
0 setlinecap
0 0 m
-4 0 l
gsave
0.000 setgray
fill
grestore
stroke
grestore
} bind def
535.592 171.154 o
grestore
gsave
46.386662 167.841694 translate
0.000000 rotate
0.000000 0.000000 m /zero glyphshow
7.634766 0.000000 m /period glyphshow
11.449219 0.000000 m /four glyphshow
grestore
[1 3] 0 setdash
gsave
467.6 257.8 68.01 43.45 clipbox
68.0117 202.63 m
535.592 202.63 l
stroke
grestore
[] 0 setdash
gsave
/o {
gsave
newpath
translate
0.5 setlinewidth
1 setlinejoin
0 setlinecap
0 0 m
4 0 l
gsave
0.000 setgray
fill
grestore
stroke
grestore
} bind def
68.0117 202.63 o
grestore
gsave
/o {
gsave
newpath
translate
0.5 setlinewidth
1 setlinejoin
0 setlinecap
0 0 m
-4 0 l
gsave
0.000 setgray
fill
grestore
stroke
grestore
} bind def
535.592 202.63 o
grestore
gsave
46.761662 199.317269 translate
0.000000 rotate
0.000000 0.000000 m /zero glyphshow
7.634766 0.000000 m /period glyphshow
11.449219 0.000000 m /five glyphshow
grestore
[1 3] 0 setdash
gsave
467.6 257.8 68.01 43.45 clipbox
68.0117 234.105 m
535.592 234.105 l
stroke
grestore
[] 0 setdash
gsave
/o {
gsave
newpath
translate
0.5 setlinewidth
1 setlinejoin
0 setlinecap
0 0 m
4 0 l
gsave
0.000 setgray
fill
grestore
stroke
grestore
} bind def
68.0117 234.105 o
grestore
gsave
/o {
gsave
newpath
translate
0.5 setlinewidth
1 setlinejoin
0 setlinecap
0 0 m
-4 0 l
gsave
0.000 setgray
fill
grestore
stroke
grestore
} bind def
535.592 234.105 o
grestore
gsave
46.480412 230.792844 translate
0.000000 rotate
0.000000 0.000000 m /zero glyphshow
7.634766 0.000000 m /period glyphshow
11.449219 0.000000 m /six glyphshow
grestore
[1 3] 0 setdash
gsave
467.6 257.8 68.01 43.45 clipbox
68.0117 265.581 m
535.592 265.581 l
stroke
grestore
[] 0 setdash
gsave
/o {
gsave
newpath
translate
0.5 setlinewidth
1 setlinejoin
0 setlinecap
0 0 m
4 0 l
gsave
0.000 setgray
fill
grestore
stroke
grestore
} bind def
68.0117 265.581 o
grestore
gsave
/o {
gsave
newpath
translate
0.5 setlinewidth
1 setlinejoin
0 setlinecap
0 0 m
-4 0 l
gsave
0.000 setgray
fill
grestore
stroke
grestore
} bind def
535.592 265.581 o
grestore
gsave
46.746037 262.268418 translate
0.000000 rotate
0.000000 0.000000 m /zero glyphshow
7.634766 0.000000 m /period glyphshow
11.449219 0.000000 m /seven glyphshow
grestore
[1 3] 0 setdash
gsave
467.6 257.8 68.01 43.45 clipbox
68.0117 297.056 m
535.592 297.056 l
stroke
grestore
[] 0 setdash
gsave
/o {
gsave
newpath
translate
0.5 setlinewidth
1 setlinejoin
0 setlinecap
0 0 m
4 0 l
gsave
0.000 setgray
fill
grestore
stroke
grestore
} bind def
68.0117 297.056 o
grestore
gsave
/o {
gsave
newpath
translate
0.5 setlinewidth
1 setlinejoin
0 setlinecap
0 0 m
-4 0 l
gsave
0.000 setgray
fill
grestore
stroke
grestore
} bind def
535.592 297.056 o
grestore
gsave
46.542912 293.743993 translate
0.000000 rotate
0.000000 0.000000 m /zero glyphshow
7.634766 0.000000 m /period glyphshow
11.449219 0.000000 m /eight glyphshow
grestore
gsave
38.886662 143.163871 translate
90.000000 rotate
0.000000 0.000000 m /M glyphshow
10.353516 0.000000 m /a glyphshow
17.707031 0.000000 m /g glyphshow
25.324219 0.000000 m /space glyphshow
29.138672 0.000000 m /E glyphshow
36.720703 0.000000 m /r glyphshow
41.404297 0.000000 m /r glyphshow
46.087891 0.000000 m /o glyphshow
53.429688 0.000000 m /r glyphshow
grestore
1.000 setlinewidth
gsave
68.0117 301.266 m
535.592 301.266 l
stroke
grestore
gsave
535.592 43.4519 m
535.592 301.266 l
stroke
grestore
gsave
68.0117 43.4519 m
535.592 43.4519 l
stroke
grestore
gsave
68.0117 43.4519 m
68.0117 301.266 l
stroke
grestore
gsave
461.755 227.506 m
528.392 227.506 l
528.392 294.066 l
461.755 294.066 l
461.755 227.506 l
cl
gsave
1.000 setgray
fill
grestore
stroke
grestore
0.500 setlinewidth
1.000 0.000 0.000 setrgbcolor
gsave
/o {
gsave
newpath
translate
0.5 setlinewidth
1 setlinejoin
0 setlinecap
0 -1.5 m
0.397805 -1.5 0.77937 -1.34195 1.06066 -1.06066 c
1.34195 -0.77937 1.5 -0.397805 1.5 0 c
1.5 0.397805 1.34195 0.77937 1.06066 1.06066 c
0.77937 1.34195 0.397805 1.5 0 1.5 c
-0.397805 1.5 -0.77937 1.34195 -1.06066 1.06066 c
-1.34195 0.77937 -1.5 0.397805 -1.5 0 c
-1.5 -0.397805 -1.34195 -0.77937 -1.06066 -1.06066 c
-0.77937 -1.34195 -0.397805 -1.5 0 -1.5 c
cl
gsave
1.000 0.000 0.000 setrgbcolor
fill
grestore
stroke
grestore
} bind def
481.915 282.706 o
grestore
0.000 setgray
/BitstreamVeraSans-Roman findfont
14.400 scalefont
setfont
gsave
507.834962 277.665847 translate
0.000000 rotate
0.000000 0.000000 m /K glyphshow
9.426575 0.000000 m /s glyphshow
grestore
0.000 0.502 0.000 setrgbcolor
gsave
/o {
gsave
newpath
translate
0.5 setlinewidth
1 setlinejoin
0 setlinecap
0 -1.5 m
0.397805 -1.5 0.77937 -1.34195 1.06066 -1.06066 c
1.34195 -0.77937 1.5 -0.397805 1.5 0 c
1.5 0.397805 1.34195 0.77937 1.06066 1.06066 c
0.77937 1.34195 0.397805 1.5 0 1.5 c
-0.397805 1.5 -0.77937 1.34195 -1.06066 1.06066 c
-1.34195 0.77937 -1.5 0.397805 -1.5 0 c
-1.5 -0.397805 -1.34195 -0.77937 -1.06066 -1.06066 c
-0.77937 -1.34195 -0.397805 -1.5 0 -1.5 c
cl
gsave
0.000 0.502 0.000 setrgbcolor
fill
grestore
stroke
grestore
} bind def
481.915 261.959 o
grestore
0.000 setgray
gsave
507.834962 256.918972 translate
0.000000 rotate
0.000000 0.000000 m /H glyphshow
grestore
0.000 0.000 1.000 setrgbcolor
gsave
/o {
gsave
newpath
translate
0.5 setlinewidth
1 setlinejoin
0 setlinecap
0 -1.5 m
0.397805 -1.5 0.77937 -1.34195 1.06066 -1.06066 c
1.34195 -0.77937 1.5 -0.397805 1.5 0 c
1.5 0.397805 1.34195 0.77937 1.06066 1.06066 c
0.77937 1.34195 0.397805 1.5 0 1.5 c
-0.397805 1.5 -0.77937 1.34195 -1.06066 1.06066 c
-1.34195 0.77937 -1.5 0.397805 -1.5 0 c
-1.5 -0.397805 -1.34195 -0.77937 -1.06066 -1.06066 c
-0.77937 -1.34195 -0.397805 -1.5 0 -1.5 c
cl
gsave
0.000 0.000 1.000 setrgbcolor
fill
grestore
stroke
grestore
} bind def
481.915 241.212 o
grestore
0.000 setgray
gsave
507.834962 236.172097 translate
0.000000 rotate
0.000000 0.000000 m /J glyphshow
grestore

end
showpage
