%!PS-Adobe-3.0 EPSF-3.0 
%%BoundingBox: 0 0 648 655
%%Pages: 0
%%Creator: LibreOffice 4.2
%%Title: none
%%CreationDate: none
%%LanguageLevel: 2
%%EndComments
%%BeginProlog
%%BeginResource: procset SDRes-Prolog 1.0 0
/b4_inc_state save def
/dict_count countdictstack def
/op_count count 1 sub def
userdict begin
0 setgray 0 setlinecap 1 setlinewidth 0 setlinejoin 10 setmiterlimit[] 0 setdash newpath
/languagelevel where {pop languagelevel 1 ne {false setstrokeadjust false setoverprint} if} if
/bdef {bind def} bind def
/c {setrgbcolor} bdef
/l {neg lineto} bdef
/rl {neg rlineto} bdef
/lc {setlinecap} bdef
/lj {setlinejoin} bdef
/lw {setlinewidth} bdef
/ml {setmiterlimit} bdef
/ld {setdash} bdef
/m {neg moveto} bdef
/ct {6 2 roll neg 6 2 roll neg 6 2 roll neg curveto} bdef
/r {rotate} bdef
/t {neg translate} bdef
/s {scale} bdef
/sw {show} bdef
/gs {gsave} bdef
/gr {grestore} bdef
/f {findfont dup length dict begin
{1 index /FID ne {def} {pop pop} ifelse} forall /Encoding ISOLatin1Encoding def
currentdict end /NFont exch definefont pop /NFont findfont} bdef
/p {closepath} bdef
/sf {scalefont setfont} bdef
/ef {eofill}bdef
/pc {closepath stroke}bdef
/ps {stroke}bdef
/pum {matrix currentmatrix}bdef
/pom {setmatrix}bdef
/bs {/aString exch def /nXOfs exch def /nWidth exch def currentpoint nXOfs 0 rmoveto pum nWidth aString stringwidth pop div 1 scale aString show pom moveto} bdef
%%EndResource
%%EndProlog
%%BeginSetup
%%EndSetup
%%Page: 1 1
%%BeginPageSetup
%%EndPageSetup
pum
0.02834 0.02833 s 
0 -23114 t
/tm matrix currentmatrix def
gs
tm setmatrix
-1096 -1085 t 
1 1 s 
1096 1085 m 23955 1085 l 23955 24198 l 1096 24198 l 1096 1085 l eoclip newpath
gs
0 0 m 22859 0 l 22859 23113 l 0 23113 l 0 0 l eoclip newpath
0.449 0.625 0.812 c 9547 10313 m  9338 10313 9130 10519 9130 10726 ct 9130 12380 l 
9130 12588 9338 12795 9547 12795 ct 14954 12795 l  15163 12795 15372 12588 15372 12380 ct 
15372 10726 l  15372 10519 15163 10313 14954 10313 ct 9547 10313 l  p
9130 10313 m  9130 10313 l  p
15373 12795 m  15373 12795 l  p ef
0 lw 1 lj 0.207 0.398 0.644 c 9547 10312 m  9337 10312 9129 10518 9129 10726 ct 
9129 12380 l  9129 12587 9337 12794 9547 12794 ct 14954 12794 l  15162 12794 15371 12587 15371 12380 ct 
15371 10726 l  15371 10518 15162 10312 14954 10312 ct 9547 10312 l  pc
9129 10312 m  9129 10312 l  pc
15372 12794 m  15372 12794 l  pc
pum
9834 11356 t
0.003 0.003 0.003 c 106 -495 m  52 -495 l  52 0 l  106 0 l  106 -495 l  p ef
241 -361 m  195 -361 l  195 0 l  244 0 l  244 -197 l  244 -272 275 -317 325 -317 ct 
367 -317 386 -288 386 -222 ct 386 0 l  436 0 l  436 -245 l  436 -325 398 -371 336 -371 ct 
295 -371 267 -352 241 -308 ct 241 -361 l  p ef
725 -258 m  721 -330 681 -371 614 -371 ct 545 -371 501 -326 501 -257 ct 501 -211 523 -182 569 -169 ct 
627 -151 l  672 -138 685 -126 685 -100 ct 685 -64 659 -43 616 -43 ct 565 -43 543 -65 539 -116 ct 
491 -116 l  493 -80 496 -63 507 -44 ct 525 -9 563 10 612 10 ct 687 10 735 -36 735 -109 ct 
735 -160 712 -186 652 -204 ct 602 -219 l  558 -233 549 -242 549 -267 ct 549 -299 572 -318 610 -318 ct 
654 -318 675 -299 677 -258 ct 725 -258 l  p ef
906 -310 m  906 -360 l  858 -360 l  858 -461 l  809 -461 l  809 -360 l 
769 -360 l  769 -310 l  809 -310 l  809 -72 l  809 -20 827 5 866 5 ct 870 5 873 5 884 3 ct 
888 2 895 2 906 0 ct 906 -47 l  888 -47 l  866 -47 858 -56 858 -76 ct 858 -310 l 
906 -310 l  p ef
1105 -307 m  1105 -369 l  1101 -370 1097 -371 1092 -371 ct 1058 -371 1034 -351 1008 -299 ct 
1008 -361 l  961 -361 l  961 0 l  1011 0 l  1011 -210 l  1011 -266 1043 -307 1087 -307 ct 
1105 -307 l  p ef
1385 0 m  1385 -361 l  1336 -361 l  1336 -162 l  1336 -89 1304 -43 1254 -43 ct 
1216 -43 1197 -70 1197 -122 ct 1197 -361 l  1148 -361 l  1148 -102 l  1148 -31 1184 10 1245 10 ct 
1289 10 1312 -7 1338 -56 ct 1338 0 l  1385 0 l  p ef
1462 0 m  1511 0 l  1511 -197 l  1511 -270 1542 -317 1590 -317 ct 1619 -317 1636 -292 1636 -250 ct 
1636 0 l  1685 0 l  1685 -220 l  1685 -274 1716 -317 1756 -317 ct 1793 -317 1810 -290 1810 -233 ct 
1810 0 l  1860 0 l  1860 -250 l  1860 -325 1824 -371 1767 -371 ct 1731 -371 1712 -359 1678 -312 ct 
1659 -354 1637 -371 1600 -371 ct 1561 -371 1534 -352 1508 -308 ct 1508 -361 l 
1462 -361 l  1462 0 l  p ef
2135 -113 m  2130 -73 2097 -43 2057 -43 ct 2028 -43 2004 -56 1990 -81 ct 1978 -101 1974 -120 1973 -161 ct 
2188 -161 l  2186 -232 2180 -266 2163 -301 ct 2140 -349 2107 -371 2060 -371 ct 
1974 -371 1920 -295 1920 -174 ct 1920 -60 1971 10 2055 10 ct 2124 10 2171 -36 2184 -113 ct 
2135 -113 l  p
1973 -209 m  1976 -274 2010 -317 2058 -317 ct 2083 -317 2104 -305 2118 -283 ct 
2129 -264 2134 -246 2137 -209 ct 1973 -209 l  p ef
2296 -361 m  2250 -361 l  2250 0 l  2299 0 l  2299 -197 l  2299 -272 2330 -317 2380 -317 ct 
2422 -317 2441 -288 2441 -222 ct 2441 0 l  2491 0 l  2491 -245 l  2491 -325 2453 -371 2391 -371 ct 
2350 -371 2322 -352 2296 -308 ct 2296 -361 l  p ef
2673 -310 m  2673 -360 l  2625 -360 l  2625 -461 l  2576 -461 l  2576 -360 l 
2536 -360 l  2536 -310 l  2576 -310 l  2576 -72 l  2576 -20 2594 5 2633 5 ct 
2637 5 2640 5 2651 3 ct 2655 2 2662 2 2673 0 ct 2673 -47 l  2655 -47 l  2633 -47 2625 -56 2625 -76 ct 
2625 -310 l  2673 -310 l  p ef
3224 -346 m  3220 -385 3213 -404 3198 -429 ct 3169 -480 3119 -508 3058 -508 ct 
2943 -508 2869 -407 2869 -247 ct 2869 -88 2940 13 3051 13 ct 3096 13 3138 -4 3169 -37 ct 
3200 -68 3215 -104 3228 -182 ct 3175 -182 l  3167 -139 3160 -119 3146 -97 ct 
3123 -64 3094 -47 3056 -47 ct 2974 -47 2925 -119 2925 -245 ct 2925 -372 2976 -448 3060 -448 ct 
3088 -448 3114 -438 3133 -422 ct 3153 -404 3162 -385 3171 -346 ct 3224 -346 l 
p ef
3416 -371 m  3333 -371 3277 -294 3277 -181 ct 3277 -68 3333 10 3414 10 ct 3495 10 3551 -68 3551 -181 ct 
3551 -292 3495 -371 3416 -371 ct p
3415 -318 m  3466 -318 3500 -263 3500 -181 ct 3500 -97 3466 -43 3414 -43 ct 
3362 -43 3329 -97 3329 -181 ct 3329 -265 3362 -318 3415 -318 ct p ef
3656 -361 m  3610 -361 l  3610 0 l  3659 0 l  3659 -197 l  3659 -272 3690 -317 3740 -317 ct 
3782 -317 3801 -288 3801 -222 ct 3801 0 l  3851 0 l  3851 -245 l  3851 -325 3813 -371 3751 -371 ct 
3710 -371 3682 -352 3656 -308 ct 3656 -361 l  p ef
4033 -310 m  4033 -360 l  3985 -360 l  3985 -461 l  3936 -461 l  3936 -360 l 
3896 -360 l  3896 -310 l  3936 -310 l  3936 -72 l  3936 -20 3954 5 3993 5 ct 
3997 5 4000 5 4011 3 ct 4015 2 4022 2 4033 0 ct 4033 -47 l  4015 -47 l  3993 -47 3985 -56 3985 -76 ct 
3985 -310 l  4033 -310 l  p ef
4232 -307 m  4232 -369 l  4228 -370 4224 -371 4219 -371 ct 4185 -371 4161 -351 4135 -299 ct 
4135 -361 l  4088 -361 l  4088 0 l  4138 0 l  4138 -210 l  4138 -266 4170 -307 4214 -307 ct 
4232 -307 l  p ef
4395 -371 m  4312 -371 4256 -294 4256 -181 ct 4256 -68 4312 10 4393 10 ct 4474 10 4530 -68 4530 -181 ct 
4530 -292 4474 -371 4395 -371 ct p
4394 -318 m  4445 -318 4479 -263 4479 -181 ct 4479 -97 4445 -43 4393 -43 ct 
4341 -43 4308 -97 4308 -181 ct 4308 -265 4341 -318 4394 -318 ct p ef
4639 -495 m  4589 -495 l  4589 0 l  4639 0 l  4639 -495 l  p ef
pom
pum
10667 12215 t
339 -350 m  336 -394 331 -415 318 -439 ct 294 -483 247 -508 186 -508 ct 137 -508 100 -493 75 -462 ct 
54 -434 41 -397 41 -357 ct 41 -295 70 -255 127 -239 ct 211 -215 l  278 -196 297 -177 297 -130 ct 
297 -75 258 -44 193 -44 ct 147 -44 114 -61 95 -93 ct 84 -111 80 -128 79 -160 ct 
28 -160 l  28 -107 36 -79 57 -49 ct 88 -6 128 13 190 13 ct 289 13 350 -44 350 -136 ct 
350 -206 318 -252 258 -269 ct 142 -301 l  110 -310 94 -330 94 -366 ct 94 -419 128 -451 186 -451 ct 
224 -451 254 -436 271 -409 ct 281 -392 285 -378 287 -350 ct 339 -350 l  p ef
618 -113 m  613 -73 580 -43 540 -43 ct 511 -43 487 -56 473 -81 ct 461 -101 457 -120 456 -161 ct 
671 -161 l  669 -232 663 -266 646 -301 ct 623 -349 590 -371 543 -371 ct 457 -371 403 -295 403 -174 ct 
403 -60 454 10 538 10 ct 607 10 654 -36 667 -113 ct 618 -113 l  p
456 -209 m  459 -274 493 -317 541 -317 ct 566 -317 587 -305 601 -283 ct 612 -264 617 -246 620 -209 ct 
456 -209 l  p ef
883 -307 m  883 -369 l  879 -370 875 -371 870 -371 ct 836 -371 812 -351 786 -299 ct 
786 -361 l  739 -361 l  739 0 l  789 0 l  789 -210 l  789 -266 821 -307 865 -307 ct 
883 -307 l  p ef
1026 -65 m  949 -361 l  892 -361 l  999 0 l  1052 0 l  1165 -361 l  1110 -361 l 
1026 -65 l  p ef
1412 -113 m  1407 -73 1374 -43 1334 -43 ct 1305 -43 1281 -56 1267 -81 ct 1255 -101 1251 -120 1250 -161 ct 
1465 -161 l  1463 -232 1457 -266 1440 -301 ct 1417 -349 1384 -371 1337 -371 ct 
1251 -371 1197 -295 1197 -174 ct 1197 -60 1248 10 1332 10 ct 1401 10 1448 -36 1461 -113 ct 
1412 -113 l  p
1250 -209 m  1253 -274 1287 -317 1335 -317 ct 1360 -317 1381 -305 1395 -283 ct 
1406 -264 1411 -246 1414 -209 ct 1250 -209 l  p ef
1676 -307 m  1676 -369 l  1672 -370 1668 -371 1663 -371 ct 1629 -371 1605 -351 1579 -299 ct 
1579 -361 l  1532 -361 l  1532 0 l  1582 0 l  1582 -210 l  1582 -266 1614 -307 1658 -307 ct 
1676 -307 l  p ef
1971 -505 m  1900 -378 1876 -293 1876 -180 ct 1876 -69 1897 2 1973 143 ct 2006 143 l 
1944 -8 1929 -69 1929 -175 ct 1929 -297 1945 -367 2005 -505 ct 1971 -505 l  p ef
2133 -495 m  2079 -495 l  2079 0 l  2133 0 l  2133 -495 l  p ef
2565 -346 m  2561 -385 2554 -404 2539 -429 ct 2510 -480 2460 -508 2399 -508 ct 
2284 -508 2210 -407 2210 -247 ct 2210 -88 2281 13 2392 13 ct 2437 13 2479 -4 2510 -37 ct 
2541 -68 2556 -104 2569 -182 ct 2516 -182 l  2508 -139 2501 -119 2487 -97 ct 
2464 -64 2435 -47 2397 -47 ct 2315 -47 2266 -119 2266 -245 ct 2266 -372 2317 -448 2401 -448 ct 
2429 -448 2455 -438 2474 -422 ct 2494 -404 2503 -385 2512 -346 ct 2565 -346 l 
p ef
2937 -350 m  2934 -394 2929 -415 2916 -439 ct 2892 -483 2845 -508 2784 -508 ct 
2735 -508 2698 -493 2673 -462 ct 2652 -434 2639 -397 2639 -357 ct 2639 -295 2668 -255 2725 -239 ct 
2809 -215 l  2876 -196 2895 -177 2895 -130 ct 2895 -75 2856 -44 2791 -44 ct 
2745 -44 2712 -61 2693 -93 ct 2682 -111 2678 -128 2677 -160 ct 2626 -160 l  2626 -107 2634 -79 2655 -49 ct 
2686 -6 2726 13 2788 13 ct 2887 13 2948 -44 2948 -136 ct 2948 -206 2916 -252 2856 -269 ct 
2740 -301 l  2708 -310 2692 -330 2692 -366 ct 2692 -419 2726 -451 2784 -451 ct 
2822 -451 2852 -436 2869 -409 ct 2879 -392 2883 -378 2885 -350 ct 2937 -350 l 
p ef
3033 143 m  3104 15 3129 -70 3129 -182 ct 3129 -293 3107 -364 3031 -505 ct 2998 -505 l 
3061 -354 3075 -293 3075 -187 ct 3075 -65 3059 4 2999 143 ct 3033 143 l  p ef
pom
0.449 0.625 0.812 c 18126 10315 m  17916 10315 17708 10521 17708 10728 ct 
17708 12382 l  17708 12590 17916 12797 18126 12797 ct 22080 12797 l  22289 12797 22498 12590 22498 12382 ct 
22498 10728 l  22498 10521 22289 10315 22080 10315 ct 18126 10315 l  p
17708 10315 m  17708 10315 l  p
22498 12797 m  22498 12797 l  p ef
0.207 0.398 0.644 c 18125 10314 m  17916 10314 17708 10520 17708 10728 ct 
17708 12382 l  17708 12589 17916 12797 18125 12797 ct 22079 12797 l  22289 12797 22498 12589 22498 12382 ct 
22498 10728 l  22498 10520 22289 10314 22079 10314 ct 18125 10314 l  pc
17708 10314 m  17708 10314 l  pc
22498 12797 m  22498 12797 l  pc
pum
18032 11358 t
0.003 0.003 0.003 c 269 -144 m  309 0 l  369 0 l  223 -495 l  160 -495 l  8 0 l 
64 0 l  107 -144 l  269 -144 l  p
123 -204 m  189 -423 l  249 -204 l  123 -204 l  p ef
567 -307 m  567 -369 l  563 -370 559 -371 554 -371 ct 520 -371 496 -351 470 -299 ct 
470 -361 l  423 -361 l  423 0 l  473 0 l  473 -210 l  473 -266 505 -307 549 -307 ct 
567 -307 l  p ef
758 -307 m  758 -369 l  754 -370 750 -371 745 -371 ct 711 -371 687 -351 661 -299 ct 
661 -361 l  614 -361 l  614 0 l  664 0 l  664 -210 l  664 -266 696 -307 740 -307 ct 
758 -307 l  p ef
842 -251 m  849 -302 868 -321 911 -321 ct 956 -321 979 -300 979 -261 ct 979 -235 972 -222 953 -220 ct 
871 -207 l  814 -198 782 -158 782 -96 ct 782 -32 819 10 876 10 ct 918 10 948 -7 981 -49 ct 
984 -10 998 6 1032 6 ct 1039 6 1045 5 1055 1 ct 1058 0 1059 0 1061 -1 ct 1061 -45 l 
1050 -43 1048 -42 1043 -42 ct 1033 -42 1028 -50 1028 -63 ct 1028 -271 l  1028 -333 985 -371 915 -371 ct 
868 -371 833 -355 814 -324 ct 802 -304 798 -287 796 -251 ct 842 -251 l  p
978 -125 m  978 -80 936 -40 886 -40 ct 853 -40 833 -62 833 -101 ct 833 -137 851 -154 897 -162 ct 
953 -171 968 -175 978 -185 ct 978 -125 l  p ef
1217 -64 m  1138 -360 l  1082 -360 l  1192 10 l  1186 27 1181 42 1179 47 ct 
1168 84 1160 94 1139 94 ct 1129 94 1119 91 1109 87 ct 1109 142 l  1113 144 l 
1122 147 1126 148 1133 148 ct 1192 148 1201 136 1246 -6 ct 1352 -360 l  1297 -360 l 
1217 -64 l  p ef
1902 -346 m  1898 -385 1891 -404 1876 -429 ct 1847 -480 1797 -508 1736 -508 ct 
1621 -508 1547 -407 1547 -247 ct 1547 -88 1618 13 1729 13 ct 1774 13 1816 -4 1847 -37 ct 
1878 -68 1893 -104 1906 -182 ct 1853 -182 l  1845 -139 1838 -119 1824 -97 ct 
1801 -64 1772 -47 1734 -47 ct 1652 -47 1603 -119 1603 -245 ct 1603 -372 1654 -448 1738 -448 ct 
1766 -448 1792 -438 1811 -422 ct 1831 -404 1840 -385 1849 -346 ct 1902 -346 l 
p ef
2093 -371 m  2010 -371 1954 -294 1954 -181 ct 1954 -68 2010 10 2091 10 ct 2172 10 2228 -68 2228 -181 ct 
2228 -292 2172 -371 2093 -371 ct p
2092 -318 m  2143 -318 2177 -263 2177 -181 ct 2177 -97 2143 -43 2091 -43 ct 
2039 -43 2006 -97 2006 -181 ct 2006 -265 2039 -318 2092 -318 ct p ef
2333 -361 m  2287 -361 l  2287 0 l  2336 0 l  2336 -197 l  2336 -272 2367 -317 2417 -317 ct 
2459 -317 2478 -288 2478 -222 ct 2478 0 l  2528 0 l  2528 -245 l  2528 -325 2490 -371 2428 -371 ct 
2387 -371 2359 -352 2333 -308 ct 2333 -361 l  p ef
2710 -310 m  2710 -360 l  2662 -360 l  2662 -461 l  2613 -461 l  2613 -360 l 
2573 -360 l  2573 -310 l  2613 -310 l  2613 -72 l  2613 -20 2631 5 2670 5 ct 
2674 5 2677 5 2688 3 ct 2692 2 2699 2 2710 0 ct 2710 -47 l  2692 -47 l  2670 -47 2662 -56 2662 -76 ct 
2662 -310 l  2710 -310 l  p ef
2910 -307 m  2910 -369 l  2906 -370 2902 -371 2897 -371 ct 2863 -371 2839 -351 2813 -299 ct 
2813 -361 l  2766 -361 l  2766 0 l  2816 0 l  2816 -210 l  2816 -266 2848 -307 2892 -307 ct 
2910 -307 l  p ef
3073 -371 m  2990 -371 2934 -294 2934 -181 ct 2934 -68 2990 10 3071 10 ct 3152 10 3208 -68 3208 -181 ct 
3208 -292 3152 -371 3073 -371 ct p
3072 -318 m  3123 -318 3157 -263 3157 -181 ct 3157 -97 3123 -43 3071 -43 ct 
3019 -43 2986 -97 2986 -181 ct 2986 -265 3019 -318 3072 -318 ct p ef
3316 -495 m  3266 -495 l  3266 0 l  3316 0 l  3316 -495 l  p ef
3442 -495 m  3392 -495 l  3392 0 l  3442 0 l  3442 -495 l  p ef
3717 -113 m  3712 -73 3679 -43 3639 -43 ct 3610 -43 3586 -56 3572 -81 ct 3560 -101 3556 -120 3555 -161 ct 
3770 -161 l  3768 -232 3762 -266 3745 -301 ct 3722 -349 3689 -371 3642 -371 ct 
3556 -371 3502 -295 3502 -174 ct 3502 -60 3553 10 3637 10 ct 3706 10 3753 -36 3766 -113 ct 
3717 -113 l  p
3555 -209 m  3558 -274 3592 -317 3640 -317 ct 3665 -317 3686 -305 3700 -283 ct 
3711 -264 3716 -246 3719 -209 ct 3555 -209 l  p ef
3982 -307 m  3982 -369 l  3978 -370 3974 -371 3969 -371 ct 3935 -371 3911 -351 3885 -299 ct 
3885 -361 l  3838 -361 l  3838 0 l  3888 0 l  3888 -210 l  3888 -266 3920 -307 3964 -307 ct 
3982 -307 l  p ef
pom
pum
18407 12217 t
339 -350 m  336 -394 331 -415 318 -439 ct 294 -483 247 -508 186 -508 ct 137 -508 100 -493 75 -462 ct 
54 -434 41 -397 41 -357 ct 41 -295 70 -255 127 -239 ct 211 -215 l  278 -196 297 -177 297 -130 ct 
297 -75 258 -44 193 -44 ct 147 -44 114 -61 95 -93 ct 84 -111 80 -128 79 -160 ct 
28 -160 l  28 -107 36 -79 57 -49 ct 88 -6 128 13 190 13 ct 289 13 350 -44 350 -136 ct 
350 -206 318 -252 258 -269 ct 142 -301 l  110 -310 94 -330 94 -366 ct 94 -419 128 -451 186 -451 ct 
224 -451 254 -436 271 -409 ct 281 -392 285 -378 287 -350 ct 339 -350 l  p ef
618 -113 m  613 -73 580 -43 540 -43 ct 511 -43 487 -56 473 -81 ct 461 -101 457 -120 456 -161 ct 
671 -161 l  669 -232 663 -266 646 -301 ct 623 -349 590 -371 543 -371 ct 457 -371 403 -295 403 -174 ct 
403 -60 454 10 538 10 ct 607 10 654 -36 667 -113 ct 618 -113 l  p
456 -209 m  459 -274 493 -317 541 -317 ct 566 -317 587 -305 601 -283 ct 612 -264 617 -246 620 -209 ct 
456 -209 l  p ef
883 -307 m  883 -369 l  879 -370 875 -371 870 -371 ct 836 -371 812 -351 786 -299 ct 
786 -361 l  739 -361 l  739 0 l  789 0 l  789 -210 l  789 -266 821 -307 865 -307 ct 
883 -307 l  p ef
1026 -65 m  949 -361 l  892 -361 l  999 0 l  1052 0 l  1165 -361 l  1110 -361 l 
1026 -65 l  p ef
1412 -113 m  1407 -73 1374 -43 1334 -43 ct 1305 -43 1281 -56 1267 -81 ct 1255 -101 1251 -120 1250 -161 ct 
1465 -161 l  1463 -232 1457 -266 1440 -301 ct 1417 -349 1384 -371 1337 -371 ct 
1251 -371 1197 -295 1197 -174 ct 1197 -60 1248 10 1332 10 ct 1401 10 1448 -36 1461 -113 ct 
1412 -113 l  p
1250 -209 m  1253 -274 1287 -317 1335 -317 ct 1360 -317 1381 -305 1395 -283 ct 
1406 -264 1411 -246 1414 -209 ct 1250 -209 l  p ef
1676 -307 m  1676 -369 l  1672 -370 1668 -371 1663 -371 ct 1629 -371 1605 -351 1579 -299 ct 
1579 -361 l  1532 -361 l  1532 0 l  1582 0 l  1582 -210 l  1582 -266 1614 -307 1658 -307 ct 
1676 -307 l  p ef
1971 -505 m  1900 -378 1876 -293 1876 -180 ct 1876 -69 1897 2 1973 143 ct 2006 143 l 
1944 -8 1929 -69 1929 -175 ct 1929 -297 1945 -367 2005 -505 ct 1971 -505 l  p ef
2296 -144 m  2336 0 l  2396 0 l  2250 -495 l  2187 -495 l  2035 0 l  2091 0 l 
2134 -144 l  2296 -144 l  p
2150 -204 m  2216 -423 l  2276 -204 l  2150 -204 l  p ef
2788 -346 m  2784 -385 2777 -404 2762 -429 ct 2733 -480 2683 -508 2622 -508 ct 
2507 -508 2433 -407 2433 -247 ct 2433 -88 2504 13 2615 13 ct 2660 13 2702 -4 2733 -37 ct 
2764 -68 2779 -104 2792 -182 ct 2739 -182 l  2731 -139 2724 -119 2710 -97 ct 
2687 -64 2658 -47 2620 -47 ct 2538 -47 2489 -119 2489 -245 ct 2489 -372 2540 -448 2624 -448 ct 
2652 -448 2678 -438 2697 -422 ct 2717 -404 2726 -385 2735 -346 ct 2788 -346 l 
p ef
3160 -350 m  3157 -394 3152 -415 3139 -439 ct 3115 -483 3068 -508 3007 -508 ct 
2958 -508 2921 -493 2896 -462 ct 2875 -434 2862 -397 2862 -357 ct 2862 -295 2891 -255 2948 -239 ct 
3032 -215 l  3099 -196 3118 -177 3118 -130 ct 3118 -75 3079 -44 3014 -44 ct 
2968 -44 2935 -61 2916 -93 ct 2905 -111 2901 -128 2900 -160 ct 2849 -160 l  2849 -107 2857 -79 2878 -49 ct 
2909 -6 2949 13 3011 13 ct 3110 13 3171 -44 3171 -136 ct 3171 -206 3139 -252 3079 -269 ct 
2963 -301 l  2931 -310 2915 -330 2915 -366 ct 2915 -419 2949 -451 3007 -451 ct 
3045 -451 3075 -436 3092 -409 ct 3102 -392 3106 -378 3108 -350 ct 3160 -350 l 
p ef
3255 143 m  3326 15 3351 -70 3351 -182 ct 3351 -293 3329 -364 3253 -505 ct 3220 -505 l 
3283 -354 3297 -293 3297 -187 ct 3297 -65 3281 4 3221 143 ct 3255 143 l  p ef
pom
0.449 0.625 0.812 c 2537 10317 m  2328 10317 2119 10523 2119 10730 ct 2119 12385 l 
2119 12592 2328 12799 2537 12799 ct 6792 12799 l  7002 12799 7211 12592 7211 12385 ct 
7211 10730 l  7211 10523 7002 10317 6792 10317 ct 2537 10317 l  p
2119 10317 m  2119 10317 l  p
7211 12799 m  7211 12799 l  p ef
0.207 0.398 0.644 c 2536 10316 m  2327 10316 2119 10523 2119 10730 ct 2119 12384 l 
2119 12591 2327 12799 2536 12799 ct 6792 12799 l  7001 12799 7210 12591 7210 12384 ct 
7210 10730 l  7210 10523 7001 10316 6792 10316 ct 2536 10316 l  pc
2119 10316 m  2119 10316 l  pc
7210 12799 m  7210 12799 l  pc
pum
2136 11360 t
0.003 0.003 0.003 c 430 0 m  430 -495 l  352 -495 l  236 -74 l  120 -495 l 
41 -495 l  41 0 l  94 0 l  94 -292 l  94 -298 94 -308 94 -324 ct 94 -338 94 -375 93 -419 ct 
209 0 l  263 0 l  378 -420 l  378 -372 378 -340 377 -323 ct 377 -292 l  377 0 l 
430 0 l  p ef
711 -113 m  706 -73 673 -43 633 -43 ct 604 -43 580 -56 566 -81 ct 554 -101 550 -120 549 -161 ct 
764 -161 l  762 -232 756 -266 739 -301 ct 716 -349 683 -371 636 -371 ct 550 -371 496 -295 496 -174 ct 
496 -60 547 10 631 10 ct 700 10 747 -36 760 -113 ct 711 -113 l  p
549 -209 m  552 -274 586 -317 634 -317 ct 659 -317 680 -305 694 -283 ct 705 -264 710 -246 713 -209 ct 
549 -209 l  p ef
1058 -239 m  1049 -328 1012 -371 946 -371 ct 861 -371 806 -295 806 -174 ct 806 -62 858 10 939 10 ct 
1006 10 1047 -36 1058 -128 ct 1010 -128 l  1000 -71 976 -43 938 -43 ct 888 -43 859 -92 859 -179 ct 
859 -266 890 -317 941 -317 ct 981 -317 1002 -294 1010 -239 ct 1058 -239 l  p ef
1162 -495 m  1113 -495 l  1113 0 l  1162 0 l  1162 -197 l  1162 -273 1192 -317 1246 -317 ct 
1287 -317 1304 -293 1304 -236 ct 1304 0 l  1354 0 l  1354 -245 l  1354 -325 1316 -371 1254 -371 ct 
1214 -371 1191 -356 1162 -311 ct 1162 -495 l  p ef
1473 -251 m  1480 -302 1499 -321 1542 -321 ct 1587 -321 1610 -300 1610 -261 ct 
1610 -235 1603 -222 1584 -220 ct 1502 -207 l  1445 -198 1413 -158 1413 -96 ct 
1413 -32 1450 10 1507 10 ct 1549 10 1579 -7 1612 -49 ct 1615 -10 1629 6 1663 6 ct 
1670 6 1676 5 1686 1 ct 1689 0 1690 0 1692 -1 ct 1692 -45 l  1681 -43 1679 -42 1674 -42 ct 
1664 -42 1659 -50 1659 -63 ct 1659 -271 l  1659 -333 1616 -371 1546 -371 ct 
1499 -371 1464 -355 1445 -324 ct 1433 -304 1429 -287 1427 -251 ct 1473 -251 l 
p
1609 -125 m  1609 -80 1567 -40 1517 -40 ct 1484 -40 1464 -62 1464 -101 ct 1464 -137 1482 -154 1528 -162 ct 
1584 -171 1599 -175 1609 -185 ct 1609 -125 l  p ef
1790 -361 m  1744 -361 l  1744 0 l  1793 0 l  1793 -197 l  1793 -272 1824 -317 1874 -317 ct 
1916 -317 1935 -288 1935 -222 ct 1935 0 l  1985 0 l  1985 -245 l  1985 -325 1947 -371 1885 -371 ct 
1844 -371 1816 -352 1790 -308 ct 1790 -361 l  p ef
2111 -361 m  2061 -361 l  2061 0 l  2111 0 l  2111 -361 l  p
2111 -426 m  2111 -495 l  2061 -495 l  2061 -426 l  2111 -426 l  p ef
2400 -258 m  2396 -330 2356 -371 2289 -371 ct 2220 -371 2176 -326 2176 -257 ct 
2176 -211 2198 -182 2244 -169 ct 2302 -151 l  2347 -138 2360 -126 2360 -100 ct 
2360 -64 2334 -43 2291 -43 ct 2240 -43 2218 -65 2214 -116 ct 2166 -116 l  2168 -80 2171 -63 2182 -44 ct 
2200 -9 2238 10 2287 10 ct 2362 10 2410 -36 2410 -109 ct 2410 -160 2387 -186 2327 -204 ct 
2277 -219 l  2233 -233 2224 -242 2224 -267 ct 2224 -299 2247 -318 2285 -318 ct 
2329 -318 2350 -299 2352 -258 ct 2400 -258 l  p ef
2473 0 m  2522 0 l  2522 -197 l  2522 -270 2553 -317 2601 -317 ct 2630 -317 2647 -292 2647 -250 ct 
2647 0 l  2696 0 l  2696 -220 l  2696 -274 2727 -317 2767 -317 ct 2804 -317 2821 -290 2821 -233 ct 
2821 0 l  2871 0 l  2871 -250 l  2871 -325 2835 -371 2778 -371 ct 2742 -371 2723 -359 2689 -312 ct 
2670 -354 2648 -371 2611 -371 ct 2572 -371 2545 -352 2519 -308 ct 2519 -361 l 
2473 -361 l  2473 0 l  p ef
3446 -346 m  3442 -385 3435 -404 3420 -429 ct 3391 -480 3341 -508 3280 -508 ct 
3165 -508 3091 -407 3091 -247 ct 3091 -88 3162 13 3273 13 ct 3318 13 3360 -4 3391 -37 ct 
3422 -68 3437 -104 3450 -182 ct 3397 -182 l  3389 -139 3382 -119 3368 -97 ct 
3345 -64 3316 -47 3278 -47 ct 3196 -47 3147 -119 3147 -245 ct 3147 -372 3198 -448 3282 -448 ct 
3310 -448 3336 -438 3355 -422 ct 3375 -404 3384 -385 3393 -346 ct 3446 -346 l 
p ef
3638 -371 m  3555 -371 3499 -294 3499 -181 ct 3499 -68 3555 10 3636 10 ct 3717 10 3773 -68 3773 -181 ct 
3773 -292 3717 -371 3638 -371 ct p
3637 -318 m  3688 -318 3722 -263 3722 -181 ct 3722 -97 3688 -43 3636 -43 ct 
3584 -43 3551 -97 3551 -181 ct 3551 -265 3584 -318 3637 -318 ct p ef
3878 -361 m  3832 -361 l  3832 0 l  3881 0 l  3881 -197 l  3881 -272 3912 -317 3962 -317 ct 
4004 -317 4023 -288 4023 -222 ct 4023 0 l  4073 0 l  4073 -245 l  4073 -325 4035 -371 3973 -371 ct 
3932 -371 3904 -352 3878 -308 ct 3878 -361 l  p ef
4256 -310 m  4256 -360 l  4208 -360 l  4208 -461 l  4159 -461 l  4159 -360 l 
4119 -360 l  4119 -310 l  4159 -310 l  4159 -72 l  4159 -20 4177 5 4216 5 ct 
4220 5 4223 5 4234 3 ct 4238 2 4245 2 4256 0 ct 4256 -47 l  4238 -47 l  4216 -47 4208 -56 4208 -76 ct 
4208 -310 l  4256 -310 l  p ef
4455 -307 m  4455 -369 l  4451 -370 4447 -371 4442 -371 ct 4408 -371 4384 -351 4358 -299 ct 
4358 -361 l  4311 -361 l  4311 0 l  4361 0 l  4361 -210 l  4361 -266 4393 -307 4437 -307 ct 
4455 -307 l  p ef
4617 -371 m  4534 -371 4478 -294 4478 -181 ct 4478 -68 4534 10 4615 10 ct 4696 10 4752 -68 4752 -181 ct 
4752 -292 4696 -371 4617 -371 ct p
4616 -318 m  4667 -318 4701 -263 4701 -181 ct 4701 -97 4667 -43 4615 -43 ct 
4563 -43 4530 -97 4530 -181 ct 4530 -265 4563 -318 4616 -318 ct p ef
4862 -495 m  4812 -495 l  4812 0 l  4862 0 l  4862 -495 l  p ef
pom
pum
2923 12220 t
339 -350 m  336 -394 331 -415 318 -439 ct 294 -483 247 -508 186 -508 ct 137 -508 100 -493 75 -462 ct 
54 -434 41 -397 41 -357 ct 41 -295 70 -255 127 -239 ct 211 -215 l  278 -196 297 -177 297 -130 ct 
297 -75 258 -44 193 -44 ct 147 -44 114 -61 95 -93 ct 84 -111 80 -128 79 -160 ct 
28 -160 l  28 -107 36 -79 57 -49 ct 88 -6 128 13 190 13 ct 289 13 350 -44 350 -136 ct 
350 -206 318 -252 258 -269 ct 142 -301 l  110 -310 94 -330 94 -366 ct 94 -419 128 -451 186 -451 ct 
224 -451 254 -436 271 -409 ct 281 -392 285 -378 287 -350 ct 339 -350 l  p ef
618 -113 m  613 -73 580 -43 540 -43 ct 511 -43 487 -56 473 -81 ct 461 -101 457 -120 456 -161 ct 
671 -161 l  669 -232 663 -266 646 -301 ct 623 -349 590 -371 543 -371 ct 457 -371 403 -295 403 -174 ct 
403 -60 454 10 538 10 ct 607 10 654 -36 667 -113 ct 618 -113 l  p
456 -209 m  459 -274 493 -317 541 -317 ct 566 -317 587 -305 601 -283 ct 612 -264 617 -246 620 -209 ct 
456 -209 l  p ef
883 -307 m  883 -369 l  879 -370 875 -371 870 -371 ct 836 -371 812 -351 786 -299 ct 
786 -361 l  739 -361 l  739 0 l  789 0 l  789 -210 l  789 -266 821 -307 865 -307 ct 
883 -307 l  p ef
1026 -65 m  949 -361 l  892 -361 l  999 0 l  1052 0 l  1165 -361 l  1110 -361 l 
1026 -65 l  p ef
1412 -113 m  1407 -73 1374 -43 1334 -43 ct 1305 -43 1281 -56 1267 -81 ct 1255 -101 1251 -120 1250 -161 ct 
1465 -161 l  1463 -232 1457 -266 1440 -301 ct 1417 -349 1384 -371 1337 -371 ct 
1251 -371 1197 -295 1197 -174 ct 1197 -60 1248 10 1332 10 ct 1401 10 1448 -36 1461 -113 ct 
1412 -113 l  p
1250 -209 m  1253 -274 1287 -317 1335 -317 ct 1360 -317 1381 -305 1395 -283 ct 
1406 -264 1411 -246 1414 -209 ct 1250 -209 l  p ef
1676 -307 m  1676 -369 l  1672 -370 1668 -371 1663 -371 ct 1629 -371 1605 -351 1579 -299 ct 
1579 -361 l  1532 -361 l  1532 0 l  1582 0 l  1582 -210 l  1582 -266 1614 -307 1658 -307 ct 
1676 -307 l  p ef
1971 -505 m  1900 -378 1876 -293 1876 -180 ct 1876 -69 1897 2 1973 143 ct 2006 143 l 
1944 -8 1929 -69 1929 -175 ct 1929 -297 1945 -367 2005 -505 ct 1971 -505 l  p ef
2457 0 m  2457 -495 l  2379 -495 l  2263 -74 l  2147 -495 l  2068 -495 l 
2068 0 l  2121 0 l  2121 -292 l  2121 -298 2121 -308 2121 -324 ct 2121 -338 2121 -375 2120 -419 ct 
2236 0 l  2290 0 l  2405 -420 l  2405 -372 2405 -340 2404 -323 ct 2404 -292 l 
2404 0 l  2457 0 l  p ef
2881 -346 m  2877 -385 2870 -404 2855 -429 ct 2826 -480 2776 -508 2715 -508 ct 
2600 -508 2526 -407 2526 -247 ct 2526 -88 2597 13 2708 13 ct 2753 13 2795 -4 2826 -37 ct 
2857 -68 2872 -104 2885 -182 ct 2832 -182 l  2824 -139 2817 -119 2803 -97 ct 
2780 -64 2751 -47 2713 -47 ct 2631 -47 2582 -119 2582 -245 ct 2582 -372 2633 -448 2717 -448 ct 
2745 -448 2771 -438 2790 -422 ct 2810 -404 2819 -385 2828 -346 ct 2881 -346 l 
p ef
3253 -350 m  3250 -394 3245 -415 3232 -439 ct 3208 -483 3161 -508 3100 -508 ct 
3051 -508 3014 -493 2989 -462 ct 2968 -434 2955 -397 2955 -357 ct 2955 -295 2984 -255 3041 -239 ct 
3125 -215 l  3192 -196 3211 -177 3211 -130 ct 3211 -75 3172 -44 3107 -44 ct 
3061 -44 3028 -61 3009 -93 ct 2998 -111 2994 -128 2993 -160 ct 2942 -160 l  2942 -107 2950 -79 2971 -49 ct 
3002 -6 3042 13 3104 13 ct 3203 13 3264 -44 3264 -136 ct 3264 -206 3232 -252 3172 -269 ct 
3056 -301 l  3024 -310 3008 -330 3008 -366 ct 3008 -419 3042 -451 3100 -451 ct 
3138 -451 3168 -436 3185 -409 ct 3195 -392 3199 -378 3201 -350 ct 3253 -350 l 
p ef
3348 143 m  3419 15 3444 -70 3444 -182 ct 3444 -293 3422 -364 3346 -505 ct 3313 -505 l 
3376 -354 3390 -293 3390 -187 ct 3390 -65 3374 4 3314 143 ct 3348 143 l  p ef
pom
0.449 0.625 0.812 c 10149 6493 m  9940 6493 9731 6699 9731 6907 ct 9731 8561 l 
9731 8768 9940 8975 10149 8975 ct 14404 8975 l  14614 8975 14823 8768 14823 8561 ct 
14823 6907 l  14823 6699 14614 6493 14404 6493 ct 10149 6493 l  p
9731 6493 m  9731 6493 l  p
14823 8975 m  14823 8975 l  p ef
0.207 0.398 0.644 c 10148 6492 m  9939 6492 9731 6699 9731 6906 ct 9731 8560 l 
9731 8768 9939 8975 10148 8975 ct 14404 8975 l  14613 8975 14822 8768 14822 8560 ct 
14822 6906 l  14822 6699 14613 6492 14404 6492 ct 10148 6492 l  pc
9731 6492 m  9731 6492 l  pc
14822 8975 m  14822 8975 l  pc
pum
10127 7966 t
pom
pum
10758 7966 t
0.003 0.003 0.003 c 380 -346 m  376 -385 369 -404 354 -429 ct 325 -480 275 -508 214 -508 ct 
99 -508 25 -407 25 -247 ct 25 -88 96 13 207 13 ct 252 13 294 -4 325 -37 ct 356 -68 371 -104 384 -182 ct 
331 -182 l  323 -139 316 -119 302 -97 ct 279 -64 250 -47 212 -47 ct 130 -47 81 -119 81 -245 ct 
81 -372 132 -448 216 -448 ct 244 -448 270 -438 289 -422 ct 309 -404 318 -385 327 -346 ct 
380 -346 l  p ef
501 -495 m  451 -495 l  451 0 l  501 0 l  501 -495 l  p ef
626 -361 m  576 -361 l  576 0 l  626 0 l  626 -361 l  p
626 -426 m  626 -495 l  576 -495 l  576 -426 l  626 -426 l  p ef
901 -113 m  896 -73 863 -43 823 -43 ct 794 -43 770 -56 756 -81 ct 744 -101 740 -120 739 -161 ct 
954 -161 l  952 -232 946 -266 929 -301 ct 906 -349 873 -371 826 -371 ct 740 -371 686 -295 686 -174 ct 
686 -60 737 10 821 10 ct 890 10 937 -36 950 -113 ct 901 -113 l  p
739 -209 m  742 -274 776 -317 824 -317 ct 849 -317 870 -305 884 -283 ct 895 -264 900 -246 903 -209 ct 
739 -209 l  p ef
1062 -361 m  1016 -361 l  1016 0 l  1065 0 l  1065 -197 l  1065 -272 1096 -317 1146 -317 ct 
1188 -317 1207 -288 1207 -222 ct 1207 0 l  1257 0 l  1257 -245 l  1257 -325 1219 -371 1157 -371 ct 
1116 -371 1088 -352 1062 -308 ct 1062 -361 l  p ef
1439 -310 m  1439 -360 l  1391 -360 l  1391 -461 l  1342 -461 l  1342 -360 l 
1302 -360 l  1302 -310 l  1342 -310 l  1342 -72 l  1342 -20 1360 5 1399 5 ct 
1403 5 1406 5 1417 3 ct 1421 2 1428 2 1439 0 ct 1439 -47 l  1421 -47 l  1399 -47 1391 -56 1391 -76 ct 
1391 -310 l  1439 -310 l  p ef
1830 -208 m  1956 -208 l  1955 -148 1946 -118 1924 -89 ct 1899 -59 1868 -44 1830 -44 ct 
1741 -44 1693 -114 1693 -243 ct 1693 -369 1746 -448 1829 -448 ct 1858 -448 1887 -438 1906 -421 ct 
1928 -403 1938 -385 1948 -345 ct 2001 -345 l  1995 -383 1989 -402 1974 -426 ct 
1943 -477 1888 -508 1828 -508 ct 1714 -508 1637 -400 1637 -241 ct 1637 -157 1657 -95 1701 -43 ct 
1733 -5 1772 13 1822 13 ct 1853 13 1881 5 1907 -10 ct 1928 -24 1940 -36 1959 -64 ct 
1972 0 l  2008 0 l  2008 -265 l  1830 -265 l  1830 -208 l  p ef
2364 -495 m  2364 -182 l  2364 -96 2325 -47 2258 -47 ct 2192 -47 2155 -96 2155 -183 ct 
2155 -495 l  2100 -495 l  2100 -165 l  2100 -56 2160 13 2256 13 ct 2355 13 2419 -60 2419 -174 ct 
2419 -495 l  2364 -495 l  p ef
2574 -495 m  2520 -495 l  2520 0 l  2574 0 l  2574 -495 l  p ef
pom
1 lw 1.000 0.203 0.203 c 12268 9441 m  12260 9846 l  ps
12277 8974 m  12103 9459 l  12432 9466 l  12277 8974 l  p ef
12251 10313 m  12425 9827 l  12096 9821 l  12251 10313 l  p ef
7682 11556 m  8659 11554 l  ps
7211 11558 m  7704 11719 l  7704 11394 l  7211 11558 l  p ef
9130 11553 m  8637 11391 l  8637 11717 l  9130 11553 l  p ef
15843 11553 m  17237 11555 l  ps
15372 11553 m  15865 11716 l  15865 11390 l  15372 11553 l  p ef
17708 11555 m  17215 11393 l  17215 11718 l  17708 11555 l  p ef
0.601 1.000 0.601 c 9151 23468 m  9151 18710 l  10751 17126 l  16946 17126 l 
16946 21882 l  15344 23468 l  9151 23468 l  p
9151 17126 m  9151 17126 l  p
16946 23468 m  16946 23468 l  p ef
0 lw 0.800 1.000 0.601 c 9150 23467 m  9150 18710 l  10750 17125 l  16945 17125 l 
16945 21882 l  15344 23467 l  9150 23467 l  pc
9150 17125 m  9150 17125 l  pc
16945 23467 m  16945 23467 l  pc
0.679 1.000 0.679 c 9151 18710 m  10751 17126 l  16946 17126 l  15344 18710 l 
9151 18710 l  p
9151 17126 m  9151 17126 l  p
16946 23468 m  16946 23468 l  p ef
0.800 1.000 0.601 c 9150 18710 m  10750 17125 l  16945 17125 l  15344 18710 l 
9150 18710 l  pc
9150 17125 m  9150 17125 l  pc
16945 23467 m  16945 23467 l  pc
0.480 0.800 0.480 c 15344 23468 m  15344 18710 l  16946 17126 l  16946 21882 l 
15344 23468 l  p
9151 17126 m  9151 17126 l  p
16946 23468 m  16946 23468 l  p ef
0.800 1.000 0.601 c 15344 23467 m  15344 18710 l  16945 17125 l  16945 21882 l 
15344 23467 l  pc
9150 17125 m  9150 17125 l  pc
16945 23467 m  16945 23467 l  pc
pum
11011 21322 t
0.003 0.003 0.003 c 8 -435 m  145 -435 l  145 0 l  201 0 l  201 -435 l  338 -435 l 
338 -495 l  8 -495 l  8 -435 l  p ef
454 -495 m  400 -495 l  400 0 l  454 0 l  454 -495 l  p ef
610 -212 m  743 -212 l  794 -212 814 -187 815 -124 ct 815 -71 819 -20 824 1 ct 
892 1 l  892 -11 l  875 -22 872 -30 871 -60 ct 868 -150 l  865 -206 854 -226 819 -243 ct 
861 -275 876 -305 876 -361 ct 876 -448 829 -495 743 -495 ct 555 -495 l  555 1 l 
610 1 l  610 -212 l  p
610 -438 m  746 -438 l  795 -438 819 -411 819 -356 ct 819 -297 793 -269 737 -269 ct 
610 -269 l  610 -438 l  p ef
1257 -350 m  1254 -394 1249 -415 1236 -439 ct 1212 -483 1165 -508 1104 -508 ct 
1055 -508 1018 -493 993 -462 ct 972 -434 959 -397 959 -357 ct 959 -295 988 -255 1045 -239 ct 
1129 -215 l  1196 -196 1215 -177 1215 -130 ct 1215 -75 1176 -44 1111 -44 ct 
1065 -44 1032 -61 1013 -93 ct 1002 -111 998 -128 997 -160 ct 946 -160 l  946 -107 954 -79 975 -49 ct 
1006 -6 1046 13 1108 13 ct 1207 13 1268 -44 1268 -136 ct 1268 -206 1236 -252 1176 -269 ct 
1060 -301 l  1028 -310 1012 -330 1012 -366 ct 1012 -419 1046 -451 1104 -451 ct 
1142 -451 1172 -436 1189 -409 ct 1199 -392 1203 -378 1205 -350 ct 1257 -350 l 
p ef
1403 -209 m  1530 -209 l  1603 -209 1650 -267 1650 -355 ct 1650 -439 1602 -495 1530 -495 ct 
1348 -495 l  1348 0 l  1403 0 l  1403 -209 l  p
1403 -438 m  1513 -438 l  1568 -438 1594 -410 1594 -353 ct 1594 -295 1566 -266 1511 -266 ct 
1403 -266 l  1403 -438 l  p ef
2027 -60 m  1783 -60 l  1783 -224 l  2004 -224 l  2004 -284 l  1783 -284 l 
1783 -435 l  2023 -435 l  2023 -495 l  1728 -495 l  1728 0 l  2027 0 l 
2027 -60 l  p ef
2440 -346 m  2436 -385 2429 -404 2414 -429 ct 2385 -480 2335 -508 2274 -508 ct 
2159 -508 2085 -407 2085 -247 ct 2085 -88 2156 13 2267 13 ct 2312 13 2354 -4 2385 -37 ct 
2416 -68 2431 -104 2444 -182 ct 2391 -182 l  2383 -139 2376 -119 2362 -97 ct 
2339 -64 2310 -47 2272 -47 ct 2190 -47 2141 -119 2141 -245 ct 2141 -372 2192 -448 2276 -448 ct 
2304 -448 2330 -438 2349 -422 ct 2369 -404 2378 -385 2387 -346 ct 2440 -346 l 
p ef
pom
0.601 1.000 1.000 c 15553 21399 m  15553 18572 l  16178 17952 l  18059 17952 l 
18059 20778 l  17432 21399 l  15553 21399 l  p
15553 17952 m  15553 17952 l  p
18059 21399 m  18059 21399 l  p ef
0.207 0.398 0.644 c 15552 21399 m  15552 18571 l  16178 17951 l  18058 17951 l 
18058 20778 l  17432 21399 l  15552 21399 l  pc
15552 17951 m  15552 17951 l  pc
18058 21399 m  18058 21399 l  pc
0.679 1.000 1.000 c 15553 18572 m  16178 17952 l  18059 17952 l  17432 18572 l 
15553 18572 l  p
15553 17952 m  15553 17952 l  p
18059 21399 m  18059 21399 l  p ef
0.207 0.398 0.644 c 15552 18571 m  16178 17951 l  18058 17951 l  17432 18571 l 
15552 18571 l  pc
15552 17951 m  15552 17951 l  pc
18058 21399 m  18058 21399 l  pc
0.480 0.800 0.800 c 17432 21399 m  17432 18572 l  18059 17952 l  18059 20778 l 
17432 21399 l  p
15553 17952 m  15553 17952 l  p
18059 21399 m  18059 21399 l  p ef
0.207 0.398 0.644 c 17432 21399 m  17432 18571 l  18058 17951 l  18058 20778 l 
17432 21399 l  pc
15552 17951 m  15552 17951 l  pc
18058 21399 m  18058 21399 l  pc
pum
15889 19358 t
0.003 0.003 0.003 c 269 -144 m  309 0 l  369 0 l  223 -495 l  160 -495 l  8 0 l 
64 0 l  107 -144 l  269 -144 l  p
123 -204 m  189 -423 l  249 -204 l  123 -204 l  p ef
485 -212 m  618 -212 l  669 -212 689 -187 690 -124 ct 690 -71 694 -20 699 1 ct 
767 1 l  767 -11 l  750 -22 747 -30 746 -60 ct 743 -150 l  740 -206 729 -226 694 -243 ct 
736 -275 751 -305 751 -361 ct 751 -448 704 -495 618 -495 ct 430 -495 l  430 1 l 
485 1 l  485 -212 l  p
485 -438 m  621 -438 l  670 -438 694 -411 694 -356 ct 694 -297 668 -269 612 -269 ct 
485 -269 l  485 -438 l  p ef
1173 -346 m  1169 -385 1162 -404 1147 -429 ct 1118 -480 1068 -508 1007 -508 ct 
892 -508 818 -407 818 -247 ct 818 -88 889 13 1000 13 ct 1045 13 1087 -4 1118 -37 ct 
1149 -68 1164 -104 1177 -182 ct 1124 -182 l  1116 -139 1109 -119 1095 -97 ct 
1072 -64 1043 -47 1005 -47 ct 923 -47 874 -119 874 -245 ct 874 -372 925 -448 1009 -448 ct 
1037 -448 1063 -438 1082 -422 ct 1102 -404 1111 -385 1120 -346 ct 1173 -346 l 
p ef
pom
pum
15796 20218 t
380 -346 m  376 -385 369 -404 354 -429 ct 325 -480 275 -508 214 -508 ct 99 -508 25 -407 25 -247 ct 
25 -88 96 13 207 13 ct 252 13 294 -4 325 -37 ct 356 -68 371 -104 384 -182 ct 331 -182 l 
323 -139 316 -119 302 -97 ct 279 -64 250 -47 212 -47 ct 130 -47 81 -119 81 -245 ct 
81 -372 132 -448 216 -448 ct 244 -448 270 -438 289 -422 ct 309 -404 318 -385 327 -346 ct 
380 -346 l  p ef
572 -371 m  489 -371 433 -294 433 -181 ct 433 -68 489 10 570 10 ct 651 10 707 -68 707 -181 ct 
707 -292 651 -371 572 -371 ct p
571 -318 m  622 -318 656 -263 656 -181 ct 656 -97 622 -43 570 -43 ct 518 -43 485 -97 485 -181 ct 
485 -265 518 -318 571 -318 ct p ef
812 -361 m  766 -361 l  766 0 l  815 0 l  815 -197 l  815 -272 846 -317 896 -317 ct 
938 -317 957 -288 957 -222 ct 957 0 l  1007 0 l  1007 -245 l  1007 -325 969 -371 907 -371 ct 
866 -371 838 -352 812 -308 ct 812 -361 l  p ef
1189 -310 m  1189 -360 l  1141 -360 l  1141 -461 l  1092 -461 l  1092 -360 l 
1052 -360 l  1052 -310 l  1092 -310 l  1092 -72 l  1092 -20 1110 5 1149 5 ct 
1153 5 1156 5 1167 3 ct 1171 2 1178 2 1189 0 ct 1189 -47 l  1171 -47 l  1149 -47 1141 -56 1141 -76 ct 
1141 -310 l  1189 -310 l  p ef
1364 -222 m  1226 -222 l  1226 -160 l  1364 -160 l  1364 -222 l  p ef
pom
pum
15862 21078 t
187 -307 m  187 -369 l  183 -370 179 -371 174 -371 ct 140 -371 116 -351 90 -299 ct 
90 -361 l  43 -361 l  43 0 l  93 0 l  93 -210 l  93 -266 125 -307 169 -307 ct 
187 -307 l  p ef
350 -371 m  267 -371 211 -294 211 -181 ct 211 -68 267 10 348 10 ct 429 10 485 -68 485 -181 ct 
485 -292 429 -371 350 -371 ct p
349 -318 m  400 -318 434 -263 434 -181 ct 434 -97 400 -43 348 -43 ct 296 -43 263 -97 263 -181 ct 
263 -265 296 -318 349 -318 ct p ef
593 -495 m  543 -495 l  543 0 l  593 0 l  593 -495 l  p ef
719 -495 m  669 -495 l  669 0 l  719 0 l  719 -495 l  p ef
994 -113 m  989 -73 956 -43 916 -43 ct 887 -43 863 -56 849 -81 ct 837 -101 833 -120 832 -161 ct 
1047 -161 l  1045 -232 1039 -266 1022 -301 ct 999 -349 966 -371 919 -371 ct 
833 -371 779 -295 779 -174 ct 779 -60 830 10 914 10 ct 983 10 1030 -36 1043 -113 ct 
994 -113 l  p
832 -209 m  835 -274 869 -317 917 -317 ct 942 -317 963 -305 977 -283 ct 988 -264 993 -246 996 -209 ct 
832 -209 l  p ef
1259 -307 m  1259 -369 l  1255 -370 1251 -371 1246 -371 ct 1212 -371 1188 -351 1162 -299 ct 
1162 -361 l  1115 -361 l  1115 0 l  1165 0 l  1165 -210 l  1165 -266 1197 -307 1241 -307 ct 
1259 -307 l  p ef
pom
0.902 0.902 1.000 c 9796 18447 m  9796 17456 l  10129 17126 l  12353 17126 l 
12353 18116 l  12018 18447 l  9796 18447 l  p
9796 17126 m  9796 17126 l  p
12353 18447 m  12353 18447 l  p ef
0.207 0.398 0.644 c 9796 18446 m  9796 17455 l  10129 17125 l  12352 17125 l 
12352 18115 l  12018 18446 l  9796 18446 l  pc
9796 17125 m  9796 17125 l  pc
12352 18446 m  12352 18446 l  pc
0.921 0.921 1.000 c 9796 17456 m  10129 17126 l  12353 17126 l  12018 17456 l 
9796 17456 l  p
9796 17126 m  9796 17126 l  p
12353 18447 m  12353 18447 l  p ef
0.207 0.398 0.644 c 9796 17455 m  10129 17125 l  12352 17125 l  12018 17455 l 
9796 17455 l  pc
9796 17125 m  9796 17125 l  pc
12352 18446 m  12352 18446 l  pc
0.722 0.722 0.800 c 12018 18447 m  12018 17456 l  12353 17126 l  12353 18116 l 
12018 18447 l  p
9796 17126 m  9796 17126 l  p
12353 18447 m  12353 18447 l  p ef
0.207 0.398 0.644 c 12018 18446 m  12018 17455 l  12352 17125 l  12352 18115 l 
12018 18446 l  pc
9796 17125 m  9796 17125 l  pc
12352 18446 m  12352 18446 l  pc
pum
10182 18184 t
0.003 0.003 0.003 c 430 0 m  430 -495 l  352 -495 l  236 -74 l  120 -495 l 
41 -495 l  41 0 l  94 0 l  94 -292 l  94 -298 94 -308 94 -324 ct 94 -338 94 -375 93 -419 ct 
209 0 l  263 0 l  378 -420 l  378 -372 378 -340 377 -323 ct 377 -292 l  377 0 l 
430 0 l  p ef
632 -371 m  549 -371 493 -294 493 -181 ct 493 -68 549 10 630 10 ct 711 10 767 -68 767 -181 ct 
767 -292 711 -371 632 -371 ct p
631 -318 m  682 -318 716 -263 716 -181 ct 716 -97 682 -43 630 -43 ct 578 -43 545 -97 545 -181 ct 
545 -265 578 -318 631 -318 ct p ef
934 -310 m  934 -360 l  886 -360 l  886 -461 l  837 -461 l  837 -360 l 
797 -360 l  797 -310 l  837 -310 l  837 -72 l  837 -20 855 5 894 5 ct 898 5 901 5 912 3 ct 
916 2 923 2 934 0 ct 934 -47 l  916 -47 l  894 -47 886 -56 886 -76 ct 886 -310 l 
934 -310 l  p ef
1106 -371 m  1023 -371 967 -294 967 -181 ct 967 -68 1023 10 1104 10 ct 1185 10 1241 -68 1241 -181 ct 
1241 -292 1185 -371 1106 -371 ct p
1105 -318 m  1156 -318 1190 -263 1190 -181 ct 1190 -97 1156 -43 1104 -43 ct 
1052 -43 1019 -97 1019 -181 ct 1019 -265 1052 -318 1105 -318 ct p ef
1448 -307 m  1448 -369 l  1444 -370 1440 -371 1435 -371 ct 1401 -371 1377 -351 1351 -299 ct 
1351 -361 l  1304 -361 l  1304 0 l  1354 0 l  1354 -210 l  1354 -266 1386 -307 1430 -307 ct 
1448 -307 l  p ef
pom
1 lw 9313 17939 m  6214 17781 4828 16390 4676 13268 ct ps
9796 17951 m  9307 17775 l  9299 18100 l  9796 17951 l  p ef
4665 12798 m  4513 13291 l  4842 13282 l  4665 12798 l  p ef
pum
3837 16467 t
348 -60 m  104 -60 l  104 -224 l  325 -224 l  325 -284 l  104 -284 l  104 -435 l 
344 -435 l  344 -495 l  49 -495 l  49 0 l  348 0 l  348 -60 l  p ef
525 -310 m  525 -360 l  477 -360 l  477 -461 l  428 -461 l  428 -360 l 
388 -360 l  388 -310 l  428 -310 l  428 -72 l  428 -20 446 5 485 5 ct 489 5 492 5 503 3 ct 
507 2 514 2 525 0 ct 525 -47 l  507 -47 l  485 -47 477 -56 477 -76 ct 477 -310 l 
525 -310 l  p ef
624 -495 m  575 -495 l  575 0 l  624 0 l  624 -197 l  624 -273 654 -317 708 -317 ct 
749 -317 766 -293 766 -236 ct 766 0 l  816 0 l  816 -245 l  816 -325 778 -371 716 -371 ct 
676 -371 653 -356 624 -311 ct 624 -495 l  p ef
1092 -113 m  1087 -73 1054 -43 1014 -43 ct 985 -43 961 -56 947 -81 ct 935 -101 931 -120 930 -161 ct 
1145 -161 l  1143 -232 1137 -266 1120 -301 ct 1097 -349 1064 -371 1017 -371 ct 
931 -371 877 -295 877 -174 ct 877 -60 928 10 1012 10 ct 1081 10 1128 -36 1141 -113 ct 
1092 -113 l  p
930 -209 m  933 -274 967 -317 1015 -317 ct 1040 -317 1061 -305 1075 -283 ct 
1086 -264 1091 -246 1094 -209 ct 930 -209 l  p ef
1356 -307 m  1356 -369 l  1352 -370 1348 -371 1343 -371 ct 1309 -371 1285 -351 1259 -299 ct 
1259 -361 l  1212 -361 l  1212 0 l  1262 0 l  1262 -210 l  1262 -266 1294 -307 1338 -307 ct 
1356 -307 l  p ef
1442 -361 m  1396 -361 l  1396 0 l  1445 0 l  1445 -197 l  1445 -272 1476 -317 1526 -317 ct 
1568 -317 1587 -288 1587 -222 ct 1587 0 l  1637 0 l  1637 -245 l  1637 -325 1599 -371 1537 -371 ct 
1496 -371 1468 -352 1442 -308 ct 1442 -361 l  p ef
1913 -113 m  1908 -73 1875 -43 1835 -43 ct 1806 -43 1782 -56 1768 -81 ct 1756 -101 1752 -120 1751 -161 ct 
1966 -161 l  1964 -232 1958 -266 1941 -301 ct 1918 -349 1885 -371 1838 -371 ct 
1752 -371 1698 -295 1698 -174 ct 1698 -60 1749 10 1833 10 ct 1902 10 1949 -36 1962 -113 ct 
1913 -113 l  p
1751 -209 m  1754 -274 1788 -317 1836 -317 ct 1861 -317 1882 -305 1896 -283 ct 
1907 -264 1912 -246 1915 -209 ct 1751 -209 l  p ef
2135 -310 m  2135 -360 l  2087 -360 l  2087 -461 l  2038 -461 l  2038 -360 l 
1998 -360 l  1998 -310 l  2038 -310 l  2038 -72 l  2038 -20 2056 5 2095 5 ct 
2099 5 2102 5 2113 3 ct 2117 2 2124 2 2135 0 ct 2135 -47 l  2117 -47 l  2095 -47 2087 -56 2087 -76 ct 
2087 -310 l  2135 -310 l  p ef
2686 -346 m  2682 -385 2675 -404 2660 -429 ct 2631 -480 2581 -508 2520 -508 ct 
2405 -508 2331 -407 2331 -247 ct 2331 -88 2402 13 2513 13 ct 2558 13 2600 -4 2631 -37 ct 
2662 -68 2677 -104 2690 -182 ct 2637 -182 l  2629 -139 2622 -119 2608 -97 ct 
2585 -64 2556 -47 2518 -47 ct 2436 -47 2387 -119 2387 -245 ct 2387 -372 2438 -448 2522 -448 ct 
2550 -448 2576 -438 2595 -422 ct 2615 -404 2624 -385 2633 -346 ct 2686 -346 l 
p ef
2800 -251 m  2807 -302 2826 -321 2869 -321 ct 2914 -321 2937 -300 2937 -261 ct 
2937 -235 2930 -222 2911 -220 ct 2829 -207 l  2772 -198 2740 -158 2740 -96 ct 
2740 -32 2777 10 2834 10 ct 2876 10 2906 -7 2939 -49 ct 2942 -10 2956 6 2990 6 ct 
2997 6 3003 5 3013 1 ct 3016 0 3017 0 3019 -1 ct 3019 -45 l  3008 -43 3006 -42 3001 -42 ct 
2991 -42 2986 -50 2986 -63 ct 2986 -271 l  2986 -333 2943 -371 2873 -371 ct 
2826 -371 2791 -355 2772 -324 ct 2760 -304 2756 -287 2754 -251 ct 2800 -251 l 
p
2936 -125 m  2936 -80 2894 -40 2844 -40 ct 2811 -40 2791 -62 2791 -101 ct 2791 -137 2809 -154 2855 -162 ct 
2911 -171 2926 -175 2936 -185 ct 2936 -125 l  p ef
3114 0 m  3114 -47 l  3135 -6 3159 10 3197 10 ct 3275 10 3326 -69 3326 -189 ct 
3326 -298 3277 -371 3205 -371 ct 3168 -371 3142 -354 3117 -314 ct 3117 -495 l 
3067 -495 l  3067 0 l  3114 0 l  p
3196 -317 m  3248 -317 3274 -272 3274 -185 ct 3274 -95 3246 -43 3195 -43 ct 
3175 -43 3155 -53 3141 -71 ct 3123 -93 3115 -124 3115 -172 ct 3115 -267 3143 -317 3196 -317 ct 
p ef
3437 -495 m  3387 -495 l  3387 0 l  3437 0 l  3437 -495 l  p ef
3713 -113 m  3708 -73 3675 -43 3635 -43 ct 3606 -43 3582 -56 3568 -81 ct 3556 -101 3552 -120 3551 -161 ct 
3766 -161 l  3764 -232 3758 -266 3741 -301 ct 3718 -349 3685 -371 3638 -371 ct 
3552 -371 3498 -295 3498 -174 ct 3498 -60 3549 10 3633 10 ct 3702 10 3749 -36 3762 -113 ct 
3713 -113 l  p
3551 -209 m  3554 -274 3588 -317 3636 -317 ct 3661 -317 3682 -305 3696 -283 ct 
3707 -264 3712 -246 3715 -209 ct 3551 -209 l  p ef
pom
20101 13279 m  20053 17544 19571 19108 18508 19581 ct ps
20103 12796 m  19935 13283 l  20264 13286 l  20103 12796 l  p ef
18058 19675 m  18575 19729 l  18504 19411 l  18058 19675 l  p ef
pum
16867 16468 t
104 -224 m  302 -224 l  302 -284 l  104 -284 l  104 -435 l  329 -435 l 
329 -495 l  49 -495 l  49 0 l  104 0 l  104 -224 l  p ef
436 -361 m  386 -361 l  386 0 l  436 0 l  436 -361 l  p
436 -426 m  436 -495 l  386 -495 l  386 -426 l  436 -426 l  p ef
553 0 m  553 -47 l  574 -6 598 10 636 10 ct 714 10 765 -69 765 -189 ct 765 -298 716 -371 644 -371 ct 
607 -371 581 -354 556 -314 ct 556 -495 l  506 -495 l  506 0 l  553 0 l  p
635 -317 m  687 -317 713 -272 713 -185 ct 713 -95 685 -43 634 -43 ct 614 -43 594 -53 580 -71 ct 
562 -93 554 -124 554 -172 ct 554 -267 582 -317 635 -317 ct p ef
1027 -113 m  1022 -73 989 -43 949 -43 ct 920 -43 896 -56 882 -81 ct 870 -101 866 -120 865 -161 ct 
1080 -161 l  1078 -232 1072 -266 1055 -301 ct 1032 -349 999 -371 952 -371 ct 
866 -371 812 -295 812 -174 ct 812 -60 863 10 947 10 ct 1016 10 1063 -36 1076 -113 ct 
1027 -113 l  p
865 -209 m  868 -274 902 -317 950 -317 ct 975 -317 996 -305 1010 -283 ct 1021 -264 1026 -246 1029 -209 ct 
865 -209 l  p ef
1292 -307 m  1292 -369 l  1288 -370 1284 -371 1279 -371 ct 1245 -371 1221 -351 1195 -299 ct 
1195 -361 l  1148 -361 l  1148 0 l  1198 0 l  1198 -210 l  1198 -266 1230 -307 1274 -307 ct 
1292 -307 l  p ef
1675 -508 m  1616 -508 1569 -487 1535 -445 ct 1496 -397 1474 -325 1474 -247 ct 
1474 -170 1496 -99 1535 -50 ct 1568 -9 1616 13 1672 13 ct 1728 13 1776 -9 1808 -50 ct 
1847 -99 1870 -170 1870 -247 ct 1870 -301 1858 -357 1837 -400 ct 1802 -470 1746 -508 1675 -508 ct 
p
1674 -448 m  1757 -448 1813 -367 1813 -248 ct 1813 -127 1757 -47 1672 -47 ct 
1587 -47 1531 -127 1531 -247 ct 1531 -369 1586 -448 1674 -448 ct p ef
1930 143 m  1980 143 l  1980 -39 l  2000 -4 2024 11 2060 11 ct 2138 11 2189 -68 2189 -189 ct 
2189 -298 2140 -371 2067 -371 ct 2027 -371 2003 -354 1977 -307 ct 1977 -360 l 
1930 -360 l  1930 143 l  p
2059 -317 m  2110 -317 2137 -271 2137 -186 ct 2137 -95 2109 -42 2058 -42 ct 
2009 -42 1978 -90 1978 -169 ct 1978 -267 2005 -317 2059 -317 ct p ef
2358 -310 m  2358 -360 l  2310 -360 l  2310 -461 l  2261 -461 l  2261 -360 l 
2221 -360 l  2221 -310 l  2261 -310 l  2261 -72 l  2261 -20 2279 5 2318 5 ct 
2322 5 2325 5 2336 3 ct 2340 2 2347 2 2358 0 ct 2358 -47 l  2340 -47 l  2318 -47 2310 -56 2310 -76 ct 
2310 -310 l  2358 -310 l  p ef
2458 -361 m  2408 -361 l  2408 0 l  2458 0 l  2458 -361 l  p
2458 -426 m  2458 -495 l  2408 -495 l  2408 -426 l  2458 -426 l  p ef
2765 -239 m  2756 -328 2719 -371 2653 -371 ct 2568 -371 2513 -295 2513 -174 ct 
2513 -62 2565 10 2646 10 ct 2713 10 2754 -36 2765 -128 ct 2717 -128 l  2707 -71 2683 -43 2645 -43 ct 
2595 -43 2566 -92 2566 -179 ct 2566 -266 2597 -317 2648 -317 ct 2688 -317 2709 -294 2717 -239 ct 
2765 -239 l  p ef
3321 -346 m  3317 -385 3310 -404 3295 -429 ct 3266 -480 3216 -508 3155 -508 ct 
3040 -508 2966 -407 2966 -247 ct 2966 -88 3037 13 3148 13 ct 3193 13 3235 -4 3266 -37 ct 
3297 -68 3312 -104 3325 -182 ct 3272 -182 l  3264 -139 3257 -119 3243 -97 ct 
3220 -64 3191 -47 3153 -47 ct 3071 -47 3022 -119 3022 -245 ct 3022 -372 3073 -448 3157 -448 ct 
3185 -448 3211 -438 3230 -422 ct 3250 -404 3259 -385 3268 -346 ct 3321 -346 l 
p ef
3435 -251 m  3442 -302 3461 -321 3504 -321 ct 3549 -321 3572 -300 3572 -261 ct 
3572 -235 3565 -222 3546 -220 ct 3464 -207 l  3407 -198 3375 -158 3375 -96 ct 
3375 -32 3412 10 3469 10 ct 3511 10 3541 -7 3574 -49 ct 3577 -10 3591 6 3625 6 ct 
3632 6 3638 5 3648 1 ct 3651 0 3652 0 3654 -1 ct 3654 -45 l  3643 -43 3641 -42 3636 -42 ct 
3626 -42 3621 -50 3621 -63 ct 3621 -271 l  3621 -333 3578 -371 3508 -371 ct 
3461 -371 3426 -355 3407 -324 ct 3395 -304 3391 -287 3389 -251 ct 3435 -251 l 
p
3571 -125 m  3571 -80 3529 -40 3479 -40 ct 3446 -40 3426 -62 3426 -101 ct 3426 -137 3444 -154 3490 -162 ct 
3546 -171 3561 -175 3571 -185 ct 3571 -125 l  p ef
3750 0 m  3750 -47 l  3771 -6 3795 10 3833 10 ct 3911 10 3962 -69 3962 -189 ct 
3962 -298 3913 -371 3841 -371 ct 3804 -371 3778 -354 3753 -314 ct 3753 -495 l 
3703 -495 l  3703 0 l  3750 0 l  p
3832 -317 m  3884 -317 3910 -272 3910 -185 ct 3910 -95 3882 -43 3831 -43 ct 
3811 -43 3791 -53 3777 -71 ct 3759 -93 3751 -124 3751 -172 ct 3751 -267 3779 -317 3832 -317 ct 
p ef
4073 -495 m  4023 -495 l  4023 0 l  4073 0 l  4073 -495 l  p ef
4349 -113 m  4344 -73 4311 -43 4271 -43 ct 4242 -43 4218 -56 4204 -81 ct 4192 -101 4188 -120 4187 -161 ct 
4402 -161 l  4400 -232 4394 -266 4377 -301 ct 4354 -349 4321 -371 4274 -371 ct 
4188 -371 4134 -295 4134 -174 ct 4134 -60 4185 10 4269 10 ct 4338 10 4385 -36 4398 -113 ct 
4349 -113 l  p
4187 -209 m  4190 -274 4224 -317 4272 -317 ct 4297 -317 4318 -305 4332 -283 ct 
4343 -264 4348 -246 4351 -209 ct 4187 -209 l  p ef
pom
0 lw [ 53.09149 53.09149 ] 0 ld
1922 14527 m  23112 14565 l  ps
1923 4760 m  23112 4778 l  ps
1 lw [ ] 0 ld
1.000 0.203 0.203 c 2642 6942 m  3619 6940 l  ps
2171 6943 m  2664 7105 l  2664 6780 l  2171 6943 l  p ef
4090 6939 m  3597 6777 l  3597 7103 l  4090 6939 l  p ef
pum
4520 7168 t
0.003 0.003 0.003 c 264 -273 m  261 -307 257 -324 248 -342 ct 229 -377 192 -396 145 -396 ct 
107 -396 78 -384 58 -360 ct 42 -339 32 -310 32 -278 ct 32 -230 55 -198 99 -186 ct 
164 -168 l  216 -153 231 -138 231 -101 ct 231 -59 201 -35 150 -35 ct 115 -35 88 -48 74 -72 ct 
65 -87 62 -100 62 -125 ct 21 -125 l  22 -83 28 -61 44 -38 ct 69 -5 100 10 148 10 ct 
225 10 272 -34 272 -106 ct 272 -161 248 -197 200 -210 ct 110 -235 l  85 -242 73 -257 73 -285 ct 
73 -327 100 -351 145 -351 ct 174 -351 198 -340 211 -319 ct 219 -306 222 -294 224 -273 ct 
264 -273 l  p ef
421 -288 m  356 -288 313 -229 313 -140 ct 313 -53 357 8 419 8 ct 482 8 526 -53 526 -140 ct 
526 -227 482 -288 421 -288 ct p
420 -247 m  459 -247 486 -205 486 -140 ct 486 -75 459 -33 419 -33 ct 379 -33 353 -75 353 -140 ct 
353 -206 378 -247 420 -247 ct p ef
752 -186 m  745 -255 716 -289 664 -289 ct 598 -289 555 -229 555 -135 ct 555 -48 596 8 658 8 ct 
711 8 742 -28 752 -99 ct 714 -99 l  706 -55 687 -33 658 -33 ct 619 -33 597 -71 597 -139 ct 
597 -207 620 -247 660 -247 ct 691 -247 708 -229 714 -186 ct 752 -186 l  p ef
893 -176 m  981 -281 l  932 -281 l  833 -162 l  833 -386 l  795 -386 l 
795 0 l  833 0 l  833 -106 l  865 -142 l  936 0 l  986 0 l  893 -176 l 
p ef
1173 -88 m  1169 -57 1143 -33 1112 -33 ct 1090 -33 1072 -44 1060 -63 ct 1051 -79 1048 -94 1047 -125 ct 
1215 -125 l  1213 -181 1208 -207 1195 -235 ct 1177 -272 1151 -289 1115 -289 ct 
1048 -289 1006 -229 1006 -135 ct 1006 -47 1046 8 1111 8 ct 1164 8 1201 -28 1212 -88 ct 
1173 -88 l  p
1047 -163 m  1049 -213 1076 -247 1113 -247 ct 1133 -247 1149 -237 1160 -220 ct 
1169 -206 1172 -192 1175 -163 ct 1047 -163 l  p ef
1347 -242 m  1347 -281 l  1310 -281 l  1310 -359 l  1271 -359 l  1271 -281 l 
1240 -281 l  1240 -242 l  1271 -242 l  1271 -56 l  1271 -15 1285 4 1316 4 ct 
1319 4 1321 4 1329 2 ct 1333 2 1338 1 1347 0 ct 1347 -37 l  1333 -37 l  1316 -37 1310 -43 1310 -59 ct 
1310 -242 l  1347 -242 l  p ef
pom
pum
3708 7839 t
210 -186 m  203 -255 174 -289 122 -289 ct 56 -289 13 -229 13 -135 ct 13 -48 54 8 116 8 ct 
169 8 200 -28 210 -99 ct 172 -99 l  164 -55 145 -33 116 -33 ct 77 -33 55 -71 55 -139 ct 
55 -207 78 -247 118 -247 ct 149 -247 166 -229 172 -186 ct 210 -186 l  p ef
346 -288 m  281 -288 238 -229 238 -140 ct 238 -53 282 8 344 8 ct 407 8 451 -53 451 -140 ct 
451 -227 407 -288 346 -288 ct p
345 -247 m  384 -247 411 -205 411 -140 ct 411 -75 384 -33 344 -33 ct 304 -33 278 -75 278 -140 ct 
278 -206 303 -247 345 -247 ct p ef
497 0 m  536 0 l  536 -153 l  536 -210 560 -247 597 -247 ct 620 -247 633 -228 633 -194 ct 
633 0 l  672 0 l  672 -171 l  672 -214 696 -247 727 -247 ct 755 -247 769 -226 769 -182 ct 
769 0 l  807 0 l  807 -194 l  807 -253 779 -289 735 -289 ct 707 -289 692 -279 666 -243 ct 
651 -276 634 -289 605 -289 ct 575 -289 554 -274 534 -240 ct 534 -281 l  497 -281 l 
497 0 l  p ef
867 0 m  906 0 l  906 -153 l  906 -210 930 -247 967 -247 ct 990 -247 1003 -228 1003 -194 ct 
1003 0 l  1042 0 l  1042 -171 l  1042 -214 1066 -247 1097 -247 ct 1125 -247 1139 -226 1139 -182 ct 
1139 0 l  1177 0 l  1177 -194 l  1177 -253 1149 -289 1105 -289 ct 1077 -289 1062 -279 1036 -243 ct 
1021 -276 1004 -289 975 -289 ct 945 -289 924 -274 904 -240 ct 904 -281 l  867 -281 l 
867 0 l  p ef
1426 0 m  1426 -281 l  1387 -281 l  1387 -126 l  1387 -69 1363 -33 1324 -33 ct 
1295 -33 1280 -54 1280 -95 ct 1280 -281 l  1241 -281 l  1241 -79 l  1241 -24 1269 8 1317 8 ct 
1351 8 1369 -5 1389 -44 ct 1389 0 l  1426 0 l  p ef
1521 -281 m  1484 -281 l  1484 0 l  1523 0 l  1523 -153 l  1523 -212 1547 -247 1586 -247 ct 
1619 -247 1633 -225 1633 -173 ct 1633 0 l  1672 0 l  1672 -191 l  1672 -253 1643 -289 1594 -289 ct 
1563 -289 1541 -274 1521 -240 ct 1521 -281 l  p ef
1771 -281 m  1732 -281 l  1732 0 l  1771 0 l  1771 -281 l  p
1771 -332 m  1771 -386 l  1732 -386 l  1732 -332 l  1771 -332 l  p ef
2011 -186 m  2004 -255 1975 -289 1923 -289 ct 1857 -289 1814 -229 1814 -135 ct 
1814 -48 1855 8 1917 8 ct 1970 8 2001 -28 2011 -99 ct 1973 -99 l  1965 -55 1946 -33 1917 -33 ct 
1878 -33 1856 -71 1856 -139 ct 1856 -207 1879 -247 1919 -247 ct 1950 -247 1967 -229 1973 -186 ct 
2011 -186 l  p ef
2086 -195 m  2091 -235 2106 -250 2140 -250 ct 2175 -250 2193 -234 2193 -203 ct 
2193 -183 2187 -173 2173 -171 ct 2109 -161 l  2064 -154 2039 -123 2039 -74 ct 
2039 -25 2068 8 2113 8 ct 2145 8 2169 -5 2194 -37 ct 2197 -7 2207 6 2234 6 ct 2240 6 2244 5 2251 2 ct 
2254 1 2255 1 2256 0 ct 2256 -34 l  2248 -33 2246 -32 2243 -32 ct 2235 -32 2230 -38 2230 -49 ct 
2230 -210 l  2230 -259 2197 -289 2143 -289 ct 2107 -289 2079 -276 2064 -252 ct 
2055 -237 2052 -223 2050 -195 ct 2086 -195 l  p
2192 -97 m  2192 -62 2159 -31 2121 -31 ct 2094 -31 2079 -48 2079 -78 ct 2079 -106 2093 -120 2129 -126 ct 
2173 -133 2184 -136 2192 -143 ct 2192 -97 l  p ef
2381 -242 m  2381 -281 l  2344 -281 l  2344 -359 l  2305 -359 l  2305 -281 l 
2274 -281 l  2274 -242 l  2305 -242 l  2305 -56 l  2305 -15 2319 4 2350 4 ct 
2353 4 2355 4 2363 2 ct 2367 2 2372 1 2381 0 ct 2381 -37 l  2367 -37 l  2350 -37 2344 -43 2344 -59 ct 
2344 -242 l  2381 -242 l  p ef
2461 -281 m  2422 -281 l  2422 0 l  2461 0 l  2461 -281 l  p
2461 -332 m  2461 -386 l  2422 -386 l  2422 -332 l  2461 -332 l  p ef
2615 -288 m  2550 -288 2507 -229 2507 -140 ct 2507 -53 2551 8 2613 8 ct 2676 8 2720 -53 2720 -140 ct 
2720 -227 2676 -288 2615 -288 ct p
2614 -247 m  2653 -247 2680 -205 2680 -140 ct 2680 -75 2653 -33 2613 -33 ct 
2573 -33 2547 -75 2547 -140 ct 2547 -206 2572 -247 2614 -247 ct p ef
2803 -281 m  2766 -281 l  2766 0 l  2805 0 l  2805 -153 l  2805 -212 2829 -247 2868 -247 ct 
2901 -247 2915 -225 2915 -173 ct 2915 0 l  2954 0 l  2954 -191 l  2954 -253 2925 -289 2876 -289 ct 
2845 -289 2823 -274 2803 -240 ct 2803 -281 l  p ef
pom
0.449 0.625 0.812 c 17934 6497 m  17725 6497 17517 6704 17517 6911 ct 17517 8565 l 
17517 8772 17725 8980 17934 8980 ct 22189 8980 l  22399 8980 22608 8772 22608 8565 ct 
22608 6911 l  22608 6704 22399 6497 22189 6497 ct 17934 6497 l  p
17517 6497 m  17517 6497 l  p
22608 8980 m  22608 8980 l  p ef
0 lw 0.207 0.398 0.644 c 17934 6497 m  17724 6497 17516 6703 17516 6910 ct 
17516 8565 l  17516 8772 17724 8979 17934 8979 ct 22189 8979 l  22398 8979 22607 8772 22607 8565 ct 
22607 6910 l  22607 6703 22398 6497 22189 6497 ct 17934 6497 l  pc
17516 6497 m  17516 6497 l  pc
22607 8979 m  22607 8979 l  pc
pum
17912 7540 t
pom
pum
18386 7540 t
0.003 0.003 0.003 c 45 0 m  208 0 l  255 0 296 -19 323 -53 ct 360 -101 381 -171 381 -253 ct 
381 -400 314 -495 210 -495 ct 45 -495 l  45 0 l  p
101 -438 m  203 -438 l  281 -438 325 -370 325 -248 ct 325 -130 280 -57 207 -57 ct 
101 -57 l  101 -438 l  p ef
494 -251 m  501 -302 520 -321 563 -321 ct 608 -321 631 -300 631 -261 ct 631 -235 624 -222 605 -220 ct 
523 -207 l  466 -198 434 -158 434 -96 ct 434 -32 471 10 528 10 ct 570 10 600 -7 633 -49 ct 
636 -10 650 6 684 6 ct 691 6 697 5 707 1 ct 710 0 711 0 713 -1 ct 713 -45 l  702 -43 700 -42 695 -42 ct 
685 -42 680 -50 680 -63 ct 680 -271 l  680 -333 637 -371 567 -371 ct 520 -371 485 -355 466 -324 ct 
454 -304 450 -287 448 -251 ct 494 -251 l  p
630 -125 m  630 -80 588 -40 538 -40 ct 505 -40 485 -62 485 -101 ct 485 -137 503 -154 549 -162 ct 
605 -171 620 -175 630 -185 ct 630 -125 l  p ef
874 -310 m  874 -360 l  826 -360 l  826 -461 l  777 -461 l  777 -360 l 
737 -360 l  737 -310 l  777 -310 l  777 -72 l  777 -20 795 5 834 5 ct 838 5 841 5 852 3 ct 
856 2 863 2 874 0 ct 874 -47 l  856 -47 l  834 -47 826 -56 826 -76 ct 826 -310 l 
874 -310 l  p ef
968 -251 m  975 -302 994 -321 1037 -321 ct 1082 -321 1105 -300 1105 -261 ct 
1105 -235 1098 -222 1079 -220 ct 997 -207 l  940 -198 908 -158 908 -96 ct 908 -32 945 10 1002 10 ct 
1044 10 1074 -7 1107 -49 ct 1110 -10 1124 6 1158 6 ct 1165 6 1171 5 1181 1 ct 1184 0 1185 0 1187 -1 ct 
1187 -45 l  1176 -43 1174 -42 1169 -42 ct 1159 -42 1154 -50 1154 -63 ct 1154 -271 l 
1154 -333 1111 -371 1041 -371 ct 994 -371 959 -355 940 -324 ct 928 -304 924 -287 922 -251 ct 
968 -251 l  p
1104 -125 m  1104 -80 1062 -40 1012 -40 ct 979 -40 959 -62 959 -101 ct 959 -137 977 -154 1023 -162 ct 
1079 -171 1094 -175 1104 -185 ct 1104 -125 l  p ef
1548 -71 m  1431 -495 l  1370 -495 l  1518 0 l  1577 0 l  1725 -495 l 
1663 -495 l  1548 -71 l  p ef
1828 -361 m  1778 -361 l  1778 0 l  1828 0 l  1828 -361 l  p
1828 -426 m  1828 -495 l  1778 -495 l  1778 -426 l  1828 -426 l  p ef
2103 -113 m  2098 -73 2065 -43 2025 -43 ct 1996 -43 1972 -56 1958 -81 ct 1946 -101 1942 -120 1941 -161 ct 
2156 -161 l  2154 -232 2148 -266 2131 -301 ct 2108 -349 2075 -371 2028 -371 ct 
1942 -371 1888 -295 1888 -174 ct 1888 -60 1939 10 2023 10 ct 2092 10 2139 -36 2152 -113 ct 
2103 -113 l  p
1941 -209 m  1944 -274 1978 -317 2026 -317 ct 2051 -317 2072 -305 2086 -283 ct 
2097 -264 2102 -246 2105 -209 ct 1941 -209 l  p ef
2384 -282 m  2444 0 l  2495 0 l  2581 -361 l  2532 -361 l  2471 -74 l 
2413 -361 l  2357 -361 l  2300 -74 l  2243 -361 l  2189 -361 l  2274 0 l 
2325 0 l  2384 -282 l  p ef
2831 -113 m  2826 -73 2793 -43 2753 -43 ct 2724 -43 2700 -56 2686 -81 ct 2674 -101 2670 -120 2669 -161 ct 
2884 -161 l  2882 -232 2876 -266 2859 -301 ct 2836 -349 2803 -371 2756 -371 ct 
2670 -371 2616 -295 2616 -174 ct 2616 -60 2667 10 2751 10 ct 2820 10 2867 -36 2880 -113 ct 
2831 -113 l  p
2669 -209 m  2672 -274 2706 -317 2754 -317 ct 2779 -317 2800 -305 2814 -283 ct 
2825 -264 2830 -246 2833 -209 ct 2669 -209 l  p ef
3095 -307 m  3095 -369 l  3091 -370 3087 -371 3082 -371 ct 3048 -371 3024 -351 2998 -299 ct 
2998 -361 l  2951 -361 l  2951 0 l  3001 0 l  3001 -210 l  3001 -266 3033 -307 3077 -307 ct 
3095 -307 l  p ef
pom
pum
17912 8400 t
pom
pum
19331 8400 t
134 -505 m  63 -378 39 -293 39 -180 ct 39 -69 60 2 136 143 ct 169 143 l  107 -8 92 -69 92 -175 ct 
92 -297 108 -367 168 -505 ct 134 -505 l  p ef
236 0 m  399 0 l  446 0 487 -19 514 -53 ct 551 -101 572 -171 572 -253 ct 572 -400 505 -495 401 -495 ct 
236 -495 l  236 0 l  p
292 -438 m  394 -438 l  472 -438 516 -370 516 -248 ct 516 -130 471 -57 398 -57 ct 
292 -57 l  292 -438 l  p ef
792 -71 m  675 -495 l  614 -495 l  762 0 l  821 0 l  969 -495 l  907 -495 l 
792 -71 l  p ef
1037 143 m  1108 15 1133 -70 1133 -182 ct 1133 -293 1111 -364 1035 -505 ct 1002 -505 l 
1065 -354 1079 -293 1079 -187 ct 1079 -65 1063 4 1003 143 ct 1037 143 l  p ef
pom
1 lw 1.000 0.203 0.203 c 20089 9848 m  20076 9445 l  ps
20103 10315 m  20252 9822 l  19924 9832 l  20103 10315 l  p ef
20062 8979 m  19913 9471 l  20241 9462 l  20062 8979 l  p ef
0.867 0.867 0.867 c 8334 2322 m  8159 1944 8979 1588 9798 1588 ct 10057 1586 10324 1622 10543 1677 ct 
10753 1507 11143 1401 11581 1401 ct 11873 1407 12182 1458 12401 1550 ct 12559 1399 12892 1310 13251 1310 ct 
13554 1310 13829 1374 14004 1474 ct 14206 1372 14508 1310 14824 1310 ct 15337 1310 15771 1470 15863 1693 ct 
16358 1755 16718 1957 16718 2189 ct 16718 2260 16691 2328 16617 2392 ct 16827 2506 16954 2646 16954 2788 ct 
16954 3113 16389 3385 15661 3432 ct 15661 3741 15100 3985 14399 3985 ct 14158 3985 13930 3955 13729 3899 ct 
13545 4171 12962 4364 12309 4364 ct 11822 4364 11362 4249 11086 4068 ct 10827 4138 10963 4179 10223 4179 ct 
9614 4179 9053 4036 8759 3804 ct 8058 3798 7699 3614 7699 3382 ct 7699 3275 7791 3177 7957 3097 ct 
7655 3029 7489 2895 7489 2741 ct 7489 2525 7856 2346 8334 2322 ct 8334 2322 l 
p
7489 1310 m  7489 1310 l  p
16954 4364 m  16954 4364 l  p ef
0 lw 0.207 0.398 0.644 c 8334 2321 m  8158 1943 8978 1587 9798 1587 ct 10056 1585 10324 1621 10543 1676 ct 
10752 1506 11142 1401 11581 1401 ct 11872 1406 12181 1457 12400 1549 ct 12558 1399 12891 1310 13251 1310 ct 
13553 1310 13828 1374 14004 1473 ct 14205 1371 14508 1310 14823 1310 ct 15336 1310 15770 1469 15862 1693 ct 
16358 1755 16717 1957 16717 2189 ct 16717 2259 16691 2328 16616 2392 ct 16827 2506 16954 2646 16954 2788 ct 
16954 3112 16388 3385 15661 3432 ct 15661 3741 15100 3984 14398 3984 ct 14157 3984 13929 3955 13729 3898 ct 
13545 4171 12962 4364 12308 4364 ct 11822 4364 11362 4249 11085 4068 ct 10827 4137 10963 4178 10223 4178 ct 
9614 4178 9053 4035 8759 3804 ct 8057 3797 7698 3614 7698 3382 ct 7698 3274 7790 3177 7957 3096 ct 
7654 3029 7489 2894 7489 2740 ct 7489 2524 7856 2345 8334 2321 ct 8334 2321 l 
pc
7489 1310 m  7489 1310 l  pc
16954 4364 m  16954 4364 l  pc
8334 2321 m  8342 2357 8382 2396 8404 2429 ct ps
7489 1310 m  7489 1310 l  pc
16954 4364 m  16954 4364 l  pc
10543 1676 m  10644 1704 10765 1741 10849 1777 ct ps
7489 1310 m  7489 1310 l  pc
16954 4364 m  16954 4364 l  pc
12400 1549 m  12365 1579 12343 1615 12322 1648 ct ps
7489 1310 m  7489 1310 l  pc
16954 4364 m  16954 4364 l  pc
14004 1473 m  13938 1507 13903 1553 13859 1593 ct ps
7489 1310 m  7489 1310 l  pc
16954 4364 m  16954 4364 l  pc
15862 1693 m  15871 1718 15915 1774 15897 1787 ct ps
7489 1310 m  7489 1310 l  pc
16954 4364 m  16954 4364 l  pc
16616 2392 m  16542 2464 16441 2527 16301 2581 ct ps
7489 1310 m  7489 1310 l  pc
16954 4364 m  16954 4364 l  pc
15665 3432 m  15700 3317 15498 3034 14937 2928 ct ps
7489 1310 m  7489 1310 l  pc
16954 4364 m  16954 4364 l  pc
13729 3898 m  13764 3852 13777 3809 13786 3764 ct ps
7489 1310 m  7489 1310 l  pc
16954 4364 m  16954 4364 l  pc
11090 4068 m  11020 4031 10976 3988 10932 3945 ct ps
7489 1310 m  7489 1310 l  pc
16954 4364 m  16954 4364 l  pc
8759 3804 m  8842 3797 8925 3790 9004 3777 ct ps
7489 1310 m  7489 1310 l  pc
16954 4364 m  16954 4364 l  pc
7957 3096 m  8101 3133 8268 3166 8509 3153 ct ps
7489 1310 m  7489 1310 l  pc
16954 4364 m  16954 4364 l  pc
pum
9215 3002 t
0.003 0.003 0.003 c 223 -508 m  164 -508 117 -487 83 -445 ct 44 -397 22 -325 22 -247 ct 
22 -170 44 -99 83 -50 ct 116 -9 164 13 220 13 ct 276 13 324 -9 356 -50 ct 395 -99 418 -170 418 -247 ct 
418 -301 406 -357 385 -400 ct 350 -470 294 -508 223 -508 ct p
222 -448 m  305 -448 361 -367 361 -248 ct 361 -127 305 -47 220 -47 ct 135 -47 79 -127 79 -247 ct 
79 -369 134 -448 222 -448 ct p ef
525 0 m  525 -47 l  546 -6 570 10 608 10 ct 686 10 737 -69 737 -189 ct 737 -298 688 -371 616 -371 ct 
579 -371 553 -354 528 -314 ct 528 -495 l  478 -495 l  478 0 l  525 0 l  p
607 -317 m  659 -317 685 -272 685 -185 ct 685 -95 657 -43 606 -43 ct 586 -43 566 -53 552 -71 ct 
534 -93 526 -124 526 -172 ct 526 -267 554 -317 607 -317 ct p ef
1013 -258 m  1009 -330 969 -371 902 -371 ct 833 -371 789 -326 789 -257 ct 789 -211 811 -182 857 -169 ct 
915 -151 l  960 -138 973 -126 973 -100 ct 973 -64 947 -43 904 -43 ct 853 -43 831 -65 827 -116 ct 
779 -116 l  781 -80 784 -63 795 -44 ct 813 -9 851 10 900 10 ct 975 10 1023 -36 1023 -109 ct 
1023 -160 1000 -186 940 -204 ct 890 -219 l  846 -233 837 -242 837 -267 ct 837 -299 860 -318 898 -318 ct 
942 -318 963 -299 965 -258 ct 1013 -258 l  p ef
1287 -113 m  1282 -73 1249 -43 1209 -43 ct 1180 -43 1156 -56 1142 -81 ct 1130 -101 1126 -120 1125 -161 ct 
1340 -161 l  1338 -232 1332 -266 1315 -301 ct 1292 -349 1259 -371 1212 -371 ct 
1126 -371 1072 -295 1072 -174 ct 1072 -60 1123 10 1207 10 ct 1276 10 1323 -36 1336 -113 ct 
1287 -113 l  p
1125 -209 m  1128 -274 1162 -317 1210 -317 ct 1235 -317 1256 -305 1270 -283 ct 
1281 -264 1286 -246 1289 -209 ct 1125 -209 l  p ef
1551 -307 m  1551 -369 l  1547 -370 1543 -371 1538 -371 ct 1504 -371 1480 -351 1454 -299 ct 
1454 -361 l  1407 -361 l  1407 0 l  1457 0 l  1457 -210 l  1457 -266 1489 -307 1533 -307 ct 
1551 -307 l  p ef
1693 -65 m  1616 -361 l  1559 -361 l  1666 0 l  1719 0 l  1832 -361 l 
1777 -361 l  1693 -65 l  p ef
1923 -251 m  1930 -302 1949 -321 1992 -321 ct 2037 -321 2060 -300 2060 -261 ct 
2060 -235 2053 -222 2034 -220 ct 1952 -207 l  1895 -198 1863 -158 1863 -96 ct 
1863 -32 1900 10 1957 10 ct 1999 10 2029 -7 2062 -49 ct 2065 -10 2079 6 2113 6 ct 
2120 6 2126 5 2136 1 ct 2139 0 2140 0 2142 -1 ct 2142 -45 l  2131 -43 2129 -42 2124 -42 ct 
2114 -42 2109 -50 2109 -63 ct 2109 -271 l  2109 -333 2066 -371 1996 -371 ct 
1949 -371 1914 -355 1895 -324 ct 1883 -304 1879 -287 1877 -251 ct 1923 -251 l 
p
2059 -125 m  2059 -80 2017 -40 1967 -40 ct 1934 -40 1914 -62 1914 -101 ct 1914 -137 1932 -154 1978 -162 ct 
2034 -171 2049 -175 2059 -185 ct 2059 -125 l  p ef
2303 -310 m  2303 -360 l  2255 -360 l  2255 -461 l  2206 -461 l  2206 -360 l 
2166 -360 l  2166 -310 l  2206 -310 l  2206 -72 l  2206 -20 2224 5 2263 5 ct 
2267 5 2270 5 2281 3 ct 2285 2 2292 2 2303 0 ct 2303 -47 l  2285 -47 l  2263 -47 2255 -56 2255 -76 ct 
2255 -310 l  2303 -310 l  p ef
2473 -371 m  2390 -371 2334 -294 2334 -181 ct 2334 -68 2390 10 2471 10 ct 2552 10 2608 -68 2608 -181 ct 
2608 -292 2552 -371 2473 -371 ct p
2472 -318 m  2523 -318 2557 -263 2557 -181 ct 2557 -97 2523 -43 2471 -43 ct 
2419 -43 2386 -97 2386 -181 ct 2386 -265 2419 -318 2472 -318 ct p ef
2817 -307 m  2817 -369 l  2813 -370 2809 -371 2804 -371 ct 2770 -371 2746 -351 2720 -299 ct 
2720 -361 l  2673 -361 l  2673 0 l  2723 0 l  2723 -210 l  2723 -266 2755 -307 2799 -307 ct 
2817 -307 l  p ef
2962 -64 m  2883 -360 l  2827 -360 l  2937 10 l  2931 27 2926 42 2924 47 ct 
2913 84 2905 94 2884 94 ct 2874 94 2864 91 2854 87 ct 2854 142 l  2858 144 l 
2867 147 2871 148 2878 148 ct 2937 148 2946 136 2991 -6 ct 3097 -360 l  3042 -360 l 
2962 -64 l  p ef
3578 -93 m  3373 -495 l  3309 -495 l  3309 0 l  3362 0 l  3362 -402 l 
3570 0 l  3631 0 l  3631 -495 l  3578 -495 l  3578 -93 l  p ef
3917 -113 m  3912 -73 3879 -43 3839 -43 ct 3810 -43 3786 -56 3772 -81 ct 3760 -101 3756 -120 3755 -161 ct 
3970 -161 l  3968 -232 3962 -266 3945 -301 ct 3922 -349 3889 -371 3842 -371 ct 
3756 -371 3702 -295 3702 -174 ct 3702 -60 3753 10 3837 10 ct 3906 10 3953 -36 3966 -113 ct 
3917 -113 l  p
3755 -209 m  3758 -274 3792 -317 3840 -317 ct 3865 -317 3886 -305 3900 -283 ct 
3911 -264 3916 -246 3919 -209 ct 3755 -209 l  p ef
4139 -310 m  4139 -360 l  4091 -360 l  4091 -461 l  4042 -461 l  4042 -360 l 
4002 -360 l  4002 -310 l  4042 -310 l  4042 -72 l  4042 -20 4060 5 4099 5 ct 
4103 5 4106 5 4117 3 ct 4121 2 4128 2 4139 0 ct 4139 -47 l  4121 -47 l  4099 -47 4091 -56 4091 -76 ct 
4091 -310 l  4139 -310 l  p ef
4355 -282 m  4415 0 l  4466 0 l  4552 -361 l  4503 -361 l  4442 -74 l 
4384 -361 l  4328 -361 l  4271 -74 l  4214 -361 l  4160 -361 l  4245 0 l 
4296 0 l  4355 -282 l  p ef
4724 -371 m  4641 -371 4585 -294 4585 -181 ct 4585 -68 4641 10 4722 10 ct 4803 10 4859 -68 4859 -181 ct 
4859 -292 4803 -371 4724 -371 ct p
4723 -318 m  4774 -318 4808 -263 4808 -181 ct 4808 -97 4774 -43 4722 -43 ct 
4670 -43 4637 -97 4637 -181 ct 4637 -265 4670 -318 4723 -318 ct p ef
5067 -307 m  5067 -369 l  5063 -370 5059 -371 5054 -371 ct 5020 -371 4996 -351 4970 -299 ct 
4970 -361 l  4923 -361 l  4923 0 l  4973 0 l  4973 -210 l  4973 -266 5005 -307 5049 -307 ct 
5067 -307 l  p ef
5234 -226 m  5347 -361 l  5285 -361 l  5157 -208 l  5157 -495 l  5109 -495 l 
5109 0 l  5157 0 l  5157 -137 l  5198 -182 l  5290 0 l  5354 0 l  5234 -226 l 
p ef
pom
0.933 0.933 0.933 c 9319 5911 m  9319 4898 l  9411 4807 l  15027 4807 l 
15027 5819 l  14935 5911 l  9319 5911 l  p
9319 4807 m  9319 4807 l  p
15027 5911 m  15027 5911 l  p ef
0.207 0.398 0.644 c 9319 5911 m  9319 4898 l  9411 4807 l  15026 4807 l 
15026 5818 l  14934 5911 l  9319 5911 l  pc
9319 4807 m  9319 4807 l  pc
15026 5911 m  15026 5911 l  pc
0.945 0.945 0.945 c 9319 4898 m  9411 4807 l  15027 4807 l  14935 4898 l 
9319 4898 l  p
9319 4807 m  9319 4807 l  p
15027 5911 m  15027 5911 l  p ef
0.207 0.398 0.644 c 9319 4898 m  9411 4807 l  15026 4807 l  14934 4898 l 
9319 4898 l  pc
9319 4807 m  9319 4807 l  pc
15026 5911 m  15026 5911 l  pc
0.746 0.746 0.746 c 14935 5911 m  14935 4898 l  15027 4807 l  15027 5819 l 
14935 5911 l  p
9319 4807 m  9319 4807 l  p
15027 5911 m  15027 5911 l  p ef
0.207 0.398 0.644 c 14934 5911 m  14934 4898 l  15026 4807 l  15026 5818 l 
14934 5911 l  pc
9319 4807 m  9319 4807 l  pc
15026 5911 m  15026 5911 l  pc
pum
9564 5638 t
0.003 0.003 0.003 c 8 -435 m  145 -435 l  145 0 l  201 0 l  201 -435 l  338 -435 l 
338 -495 l  8 -495 l  8 -435 l  p ef
454 -495 m  400 -495 l  400 0 l  454 0 l  454 -495 l  p ef
610 -212 m  743 -212 l  794 -212 814 -187 815 -124 ct 815 -71 819 -20 824 1 ct 
892 1 l  892 -11 l  875 -22 872 -30 871 -60 ct 868 -150 l  865 -206 854 -226 819 -243 ct 
861 -275 876 -305 876 -361 ct 876 -448 829 -495 743 -495 ct 555 -495 l  555 1 l 
610 1 l  610 -212 l  p
610 -438 m  746 -438 l  795 -438 819 -411 819 -356 ct 819 -297 793 -269 737 -269 ct 
610 -269 l  610 -438 l  p ef
1257 -350 m  1254 -394 1249 -415 1236 -439 ct 1212 -483 1165 -508 1104 -508 ct 
1055 -508 1018 -493 993 -462 ct 972 -434 959 -397 959 -357 ct 959 -295 988 -255 1045 -239 ct 
1129 -215 l  1196 -196 1215 -177 1215 -130 ct 1215 -75 1176 -44 1111 -44 ct 
1065 -44 1032 -61 1013 -93 ct 1002 -111 998 -128 997 -160 ct 946 -160 l  946 -107 954 -79 975 -49 ct 
1006 -6 1046 13 1108 13 ct 1207 13 1268 -44 1268 -136 ct 1268 -206 1236 -252 1176 -269 ct 
1060 -301 l  1028 -310 1012 -330 1012 -366 ct 1012 -419 1046 -451 1104 -451 ct 
1142 -451 1172 -436 1189 -409 ct 1199 -392 1203 -378 1205 -350 ct 1257 -350 l 
p ef
1403 -209 m  1530 -209 l  1603 -209 1650 -267 1650 -355 ct 1650 -439 1602 -495 1530 -495 ct 
1348 -495 l  1348 0 l  1403 0 l  1403 -209 l  p
1403 -438 m  1513 -438 l  1568 -438 1594 -410 1594 -353 ct 1594 -295 1566 -266 1511 -266 ct 
1403 -266 l  1403 -438 l  p ef
2027 -60 m  1783 -60 l  1783 -224 l  2004 -224 l  2004 -284 l  1783 -284 l 
1783 -435 l  2023 -435 l  2023 -495 l  1728 -495 l  1728 0 l  2027 0 l 
2027 -60 l  p ef
2440 -346 m  2436 -385 2429 -404 2414 -429 ct 2385 -480 2335 -508 2274 -508 ct 
2159 -508 2085 -407 2085 -247 ct 2085 -88 2156 13 2267 13 ct 2312 13 2354 -4 2385 -37 ct 
2416 -68 2431 -104 2444 -182 ct 2391 -182 l  2383 -139 2376 -119 2362 -97 ct 
2339 -64 2310 -47 2272 -47 ct 2190 -47 2141 -119 2141 -245 ct 2141 -372 2192 -448 2276 -448 ct 
2304 -448 2330 -438 2349 -422 ct 2369 -404 2378 -385 2387 -346 ct 2440 -346 l 
p ef
3010 -346 m  3006 -385 2999 -404 2984 -429 ct 2955 -480 2905 -508 2844 -508 ct 
2729 -508 2655 -407 2655 -247 ct 2655 -88 2726 13 2837 13 ct 2882 13 2924 -4 2955 -37 ct 
2986 -68 3001 -104 3014 -182 ct 2961 -182 l  2953 -139 2946 -119 2932 -97 ct 
2909 -64 2880 -47 2842 -47 ct 2760 -47 2711 -119 2711 -245 ct 2711 -372 2762 -448 2846 -448 ct 
2874 -448 2900 -438 2919 -422 ct 2939 -404 2948 -385 2957 -346 ct 3010 -346 l 
p ef
3202 -371 m  3119 -371 3063 -294 3063 -181 ct 3063 -68 3119 10 3200 10 ct 3281 10 3337 -68 3337 -181 ct 
3337 -292 3281 -371 3202 -371 ct p
3201 -318 m  3252 -318 3286 -263 3286 -181 ct 3286 -97 3252 -43 3200 -43 ct 
3148 -43 3115 -97 3115 -181 ct 3115 -265 3148 -318 3201 -318 ct p ef
3396 0 m  3445 0 l  3445 -197 l  3445 -270 3476 -317 3524 -317 ct 3553 -317 3570 -292 3570 -250 ct 
3570 0 l  3619 0 l  3619 -220 l  3619 -274 3650 -317 3690 -317 ct 3727 -317 3744 -290 3744 -233 ct 
3744 0 l  3794 0 l  3794 -250 l  3794 -325 3758 -371 3701 -371 ct 3665 -371 3646 -359 3612 -312 ct 
3593 -354 3571 -371 3534 -371 ct 3495 -371 3468 -352 3442 -308 ct 3442 -361 l 
3396 -361 l  3396 0 l  p ef
3865 143 m  3915 143 l  3915 -39 l  3935 -4 3959 11 3995 11 ct 4073 11 4124 -68 4124 -189 ct 
4124 -298 4075 -371 4002 -371 ct 3962 -371 3938 -354 3912 -307 ct 3912 -360 l 
3865 -360 l  3865 143 l  p
3994 -317 m  4045 -317 4072 -271 4072 -186 ct 4072 -95 4044 -42 3993 -42 ct 
3944 -42 3913 -90 3913 -169 ct 3913 -267 3940 -317 3994 -317 ct p ef
4424 0 m  4424 -361 l  4375 -361 l  4375 -162 l  4375 -89 4343 -43 4293 -43 ct 
4255 -43 4236 -70 4236 -122 ct 4236 -361 l  4187 -361 l  4187 -102 l  4187 -31 4223 10 4284 10 ct 
4328 10 4351 -7 4377 -56 ct 4377 0 l  4424 0 l  p ef
4607 -310 m  4607 -360 l  4559 -360 l  4559 -461 l  4510 -461 l  4510 -360 l 
4470 -360 l  4470 -310 l  4510 -310 l  4510 -72 l  4510 -20 4528 5 4567 5 ct 
4571 5 4574 5 4585 3 ct 4589 2 4596 2 4607 0 ct 4607 -47 l  4589 -47 l  4567 -47 4559 -56 4559 -76 ct 
4559 -310 l  4607 -310 l  p ef
4858 -113 m  4853 -73 4820 -43 4780 -43 ct 4751 -43 4727 -56 4713 -81 ct 4701 -101 4697 -120 4696 -161 ct 
4911 -161 l  4909 -232 4903 -266 4886 -301 ct 4863 -349 4830 -371 4783 -371 ct 
4697 -371 4643 -295 4643 -174 ct 4643 -60 4694 10 4778 10 ct 4847 10 4894 -36 4907 -113 ct 
4858 -113 l  p
4696 -209 m  4699 -274 4733 -317 4781 -317 ct 4806 -317 4827 -305 4841 -283 ct 
4852 -264 4857 -246 4860 -209 ct 4696 -209 l  p ef
5123 -307 m  5123 -369 l  5119 -370 5115 -371 5110 -371 ct 5076 -371 5052 -351 5026 -299 ct 
5026 -361 l  4979 -361 l  4979 0 l  5029 0 l  5029 -210 l  5029 -266 5061 -307 5105 -307 ct 
5123 -307 l  p ef
pom
0.933 0.933 0.933 c 9322 15682 m  9322 14669 l  9414 14578 l  15029 14578 l 
15029 15590 l  14937 15682 l  9322 15682 l  p
9322 14578 m  9322 14578 l  p
15029 15682 m  15029 15682 l  p ef
0.207 0.398 0.644 c 9321 15682 m  9321 14669 l  9413 14578 l  15028 14578 l 
15028 15589 l  14936 15682 l  9321 15682 l  pc
9321 14578 m  9321 14578 l  pc
15028 15682 m  15028 15682 l  pc
0.945 0.945 0.945 c 9322 14669 m  9414 14578 l  15029 14578 l  14937 14669 l 
9322 14669 l  p
9322 14578 m  9322 14578 l  p
15029 15682 m  15029 15682 l  p ef
0.207 0.398 0.644 c 9321 14669 m  9413 14578 l  15028 14578 l  14936 14669 l 
9321 14669 l  pc
9321 14578 m  9321 14578 l  pc
15028 15682 m  15028 15682 l  pc
0.746 0.746 0.746 c 14937 15682 m  14937 14669 l  15029 14578 l  15029 15590 l 
14937 15682 l  p
9322 14578 m  9322 14578 l  p
15029 15682 m  15029 15682 l  p ef
0.207 0.398 0.644 c 14936 15682 m  14936 14669 l  15028 14578 l  15028 15589 l 
14936 15682 l  pc
9321 14578 m  9321 14578 l  pc
15028 15682 m  15028 15682 l  pc
pum
10816 15409 t
0.003 0.003 0.003 c 8 -435 m  145 -435 l  145 0 l  201 0 l  201 -435 l  338 -435 l 
338 -495 l  8 -495 l  8 -435 l  p ef
586 -113 m  581 -73 548 -43 508 -43 ct 479 -43 455 -56 441 -81 ct 429 -101 425 -120 424 -161 ct 
639 -161 l  637 -232 631 -266 614 -301 ct 591 -349 558 -371 511 -371 ct 425 -371 371 -295 371 -174 ct 
371 -60 422 10 506 10 ct 575 10 622 -36 635 -113 ct 586 -113 l  p
424 -209 m  427 -274 461 -317 509 -317 ct 534 -317 555 -305 569 -283 ct 580 -264 585 -246 588 -209 ct 
424 -209 l  p ef
751 -495 m  701 -495 l  701 0 l  751 0 l  751 -495 l  p ef
1027 -113 m  1022 -73 989 -43 949 -43 ct 920 -43 896 -56 882 -81 ct 870 -101 866 -120 865 -161 ct 
1080 -161 l  1078 -232 1072 -266 1055 -301 ct 1032 -349 999 -371 952 -371 ct 
866 -371 812 -295 812 -174 ct 812 -60 863 10 947 10 ct 1016 10 1063 -36 1076 -113 ct 
1027 -113 l  p
865 -209 m  868 -274 902 -317 950 -317 ct 975 -317 996 -305 1010 -283 ct 1021 -264 1026 -246 1029 -209 ct 
865 -209 l  p ef
1357 -258 m  1353 -330 1313 -371 1246 -371 ct 1177 -371 1133 -326 1133 -257 ct 
1133 -211 1155 -182 1201 -169 ct 1259 -151 l  1304 -138 1317 -126 1317 -100 ct 
1317 -64 1291 -43 1248 -43 ct 1197 -43 1175 -65 1171 -116 ct 1123 -116 l  1125 -80 1128 -63 1139 -44 ct 
1157 -9 1195 10 1244 10 ct 1319 10 1367 -36 1367 -109 ct 1367 -160 1344 -186 1284 -204 ct 
1234 -219 l  1190 -233 1181 -242 1181 -267 ct 1181 -299 1204 -318 1242 -318 ct 
1286 -318 1307 -299 1309 -258 ct 1357 -258 l  p ef
1661 -239 m  1652 -328 1615 -371 1549 -371 ct 1464 -371 1409 -295 1409 -174 ct 
1409 -62 1461 10 1542 10 ct 1609 10 1650 -36 1661 -128 ct 1613 -128 l  1603 -71 1579 -43 1541 -43 ct 
1491 -43 1462 -92 1462 -179 ct 1462 -266 1493 -317 1544 -317 ct 1584 -317 1605 -294 1613 -239 ct 
1661 -239 l  p ef
1838 -371 m  1755 -371 1699 -294 1699 -181 ct 1699 -68 1755 10 1836 10 ct 1917 10 1973 -68 1973 -181 ct 
1973 -292 1917 -371 1838 -371 ct p
1837 -318 m  1888 -318 1922 -263 1922 -181 ct 1922 -97 1888 -43 1836 -43 ct 
1784 -43 1751 -97 1751 -181 ct 1751 -265 1784 -318 1837 -318 ct p ef
2027 143 m  2077 143 l  2077 -39 l  2097 -4 2121 11 2157 11 ct 2235 11 2286 -68 2286 -189 ct 
2286 -298 2237 -371 2164 -371 ct 2124 -371 2100 -354 2074 -307 ct 2074 -360 l 
2027 -360 l  2027 143 l  p
2156 -317 m  2207 -317 2234 -271 2234 -186 ct 2234 -95 2206 -42 2155 -42 ct 
2106 -42 2075 -90 2075 -169 ct 2075 -267 2102 -317 2156 -317 ct p ef
2548 -113 m  2543 -73 2510 -43 2470 -43 ct 2441 -43 2417 -56 2403 -81 ct 2391 -101 2387 -120 2386 -161 ct 
2601 -161 l  2599 -232 2593 -266 2576 -301 ct 2553 -349 2520 -371 2473 -371 ct 
2387 -371 2333 -295 2333 -174 ct 2333 -60 2384 10 2468 10 ct 2537 10 2584 -36 2597 -113 ct 
2548 -113 l  p
2386 -209 m  2389 -274 2423 -317 2471 -317 ct 2496 -317 2517 -305 2531 -283 ct 
2542 -264 2547 -246 2550 -209 ct 2386 -209 l  p ef
pom
gr
gs
0 0 m 22859 0 l 22859 23113 l 0 23113 l 0 0 l eoclip newpath
gr
gr
0 23114 t 
pom
count op_count sub {pop} repeat countdictstack dict_count sub {end} repeat b4_inc_state restore
%%PageTrailer
%%Trailer
%%EOF
